{
  "keys": ["agentName", "caseNumber", "proposalNumber", "productName", "expiryDate"],
  "email": {
    "subject": "Additional document uploaded for proposalNumber, productName by agentName",
    "template": "Dear FA Firm,<br /><br />An additional document/(s) is uploaded by agentName for caseNumber and is now pending for validation. Please validate before expiryDate, otherwise the case will be invalid and the Financial Consultant will need to revisit customer and resubmit the case.<br /><br />AXA Insurance Pte Ltd<p><img src='cid:part1.1234.56789' height='70' width='75'></p>"
  }
}
