{
    "apiVersion": "v1",
    "kind": "Service",
    "metadata": {
        "annotations": {
            "openshift.io/generated-by": "OpenShiftWebConsole"
        },
        "creationTimestamp": "2017-07-21T03:55:22Z",
        "labels": {
            "app": "ease-web"
        },
        "name": "ease-web",
        "namespace": "axasgsit",
        "resourceVersion": "3236328",
        "selfLink": "/api/v1/namespaces/axasgsit/services/ease-web",
        "uid": "6b875f05-6dc8-11e7-bc05-00155dde16b4"
    },
    "spec": {
        "clusterIP": "172.30.196.209",
        "ports": [
            {
                "name": "3000-tcp",
                "port": 3000,
                "protocol": "TCP",
                "targetPort": 3000
            }
        ],
        "selector": {
            "deploymentconfig": "ease-web"
        },
        "sessionAffinity": "None",
        "type": "ClusterIP"
    },
    "status": {
        "loadBalancer": {}
    }
}
