{
	"TYPE": "agent",
	"compCode": "AG",
	"agentCode": "888888",
	"role": "02",
	"name": "F8707887Q Synergy",
	"profileId": "",
	"channel": "SYNERGY",
	"createDate": "7/1/2017",
	"lastUpdateDate": "7/14/2017",
	"company": "Synergy Company",
	"tel": "99888888",
	"mobile": "66888888",
	"email": "@eabsystems.com",
	"position": "Financial Advisor",
	"manager": "F8707887Q Synergy(M)",
	"managerCode": "000222",
	"achievements": "EAB Signature, MDRT, SUPER MDRT",
	"authorised": "M9A, M9, M5, HI, M8"
}