{
	"TYPE": "agent",
	"compCode": "AG",
	"agentCode": "188866",
	"role": "02",
	"name": "F9707888Q SYNERGY",
	"profileId": "F9707888Q",
	"channel": "SYNERGY",
	"createDate": "7/1/2017",
	"lastUpdateDate": "7/14/2017",
	"company": "Synergy Company",
	"tel": "99188866",
	"mobile": "66188866",
	"email": "hongxu.shao@eabsystems.com",
	"position": "Financial Advisor",
	"manager": "F9707888Q SYNERGY(M)",
	"managerCode": "000222",
	"achievements": "EAB Signature, MDRT, SUPER MDRT",
	"authorised": "M9A, M9, M5, HI, M8"
}