{
	"TYPE": "agent",
	"compCode": "AG",
	"agentCode": "989999",
	"role": "02",
	"name": "G6220339T SYNERGY",
	"profileId": "G6220339T",
	"channel": "SYNERGY",
	"createDate": "7/1/2017",
	"lastUpdateDate": "7/14/2017",
	"company": "Synergy Company",
	"tel": "99989999",
	"mobile": "66989999",
	"email": "yeeling.loh@eabsystems.com",
	"position": "Financial Advisor",
	"manager": "G6220339T SYNERGY(M)",
	"managerCode": "000224",
	"achievements": "EAB Signature, MDRT, SUPER MDRT",
	"authorised": "M9A, M9, M5, HI, M8"
}