{
    "agentCode": "004004",
    "agentCodeDisp": "024000-02-000548",
    "authorised": [
        "M9A",
        "M9",
        "M5",
        "HI",
        "M8A",
        "M8",
        "IFAST"
    ],
    "authorisedDes": "Investment Linked Plan, Life Insurance, Health Insurance, Unit Trusts",
    "channel": "AGENCY",
    "compCode": "01",
    "company": "EAB Systems Company Limited",
    "createDate": "7/1/2020",
    "email": "kaming.yip@eabsystems.com",
    "lastUpdateDate": "2018-01-24T01:35:39.101Z",
    "managerCode": "",
    "mobile": "12345678",
    "name": "Kaming Yip",
    "position": "Financial Services Director",
    "profileId": "kaming.yip",
    "rawData": {
        "agentCode": "004004",
        "authGroup": "AG001",
        "authorizedHI": "Y",
        "authorizedIFAST": "Y",
        "authorizedM8": "Y",
        "authorizedM8A": "Y",
        "directorOrFirm": "EAB Systems Company Limited",
        "distribCode": "024000-02-000548",
        "email": "kaming.yip@eabsystems.com",
        "fullName": "Kaming Yip",
        "mobilePhone": "12345678",
        "officePhone": "0",
        "position": "FSD",
        "proxy1UserId": "DSSAG100006",
        "proxyEndDate": "2017-11-01",
        "proxyStartDate": "2017-11-01",
        "rank": "FSD",
        "unitCode": "024000",
        "upline1Code": "",
        "upline2Code": "",
        "userCat": "AGENT-MM1",
        "userId": "kaming.yip",
        "userRole": "MM1",
        "userStatus": "A",
        "userType": "AGENT"
    },
    "role": "MM1",
    "tel": "0",
    "type": "agent"
}