{
	"TYPE": "agent",
	"compCode": "AG",
	"agentCode": "034432",
	"role": "02",
	"name": "S3195537K FUSION",
	"profileId": "S3195537K",
	"channel": "FUSION",
	"createDate": "7/1/2017",
	"lastUpdateDate": "7/14/2017",
	"company": "I am JPK",
	"tel": "99034432",
	"mobile": "66034432",
	"email": "yeeling.loh@eabsystems.com",
	"position": "Agent",
	"manager": "S3195537K FUSION(M)",
	"managerCode": "888888",
	"achievements": "MDRT, EAB ACHIEVEMENT",
	"authorised": "M9A, M9, M5, HI, M8, M8A, IFAST"
}