{
	"TYPE": "agent",
	"compCode": "AG",
	"agentCode": "333300",
	"role": "02",
	"name": "S9302701D DIRECT",
	"profileId": "S9302701D",
	"channel": "DIRECT",
	"createDate": "7/1/2017",
	"lastUpdateDate": "7/14/2017",
	"company": "EAB Direct",
	"tel": "99333333",
	"mobile": "66333333",
	"email": "S5302702D@eabsystems.com",
	"position": "Agent",
	"manager": "S5302702D Direct(M)",
	"managerCode": "900001",
	"achievements": "MDRT, SUPER MDRT",
	"authorised": "M9A, M9, M5, HI"
}