{
	"TYPE": "agent",
	"compCode": "AG",
	"agentCode": "003451",
	"role": "02",
	"name": "T8893548E FUSION",
	"profileId": "T8893548E",
	"channel": "FUSION",
	"createDate": "7/1/2017",
	"lastUpdateDate": "7/14/2017",
	"company": "I am JPK",
	"tel": "99003451",
	"mobile": "66003451",
	"email": "yeeling.loh@eabsystems.com",
	"position": "Agent",
	"manager": "T8893548E FUSION(M)",
	"managerCode": "888888",
	"achievements": "MDRT, EAB ACHIEVEMENT",
	"authorised": "M9A"
}