{
	"TYPE": "agent",
	"compCode": "AG",
	"agentCode": "333306",
	"role": "02",
	"name": "T9807922A DIRECT",
	"profileId": "T9807922A",
	"channel": "DIRECT",
	"createDate": "7/1/2017",
	"lastUpdateDate": "7/14/2017",
	"company": "EAB Direct",
	"tel": "99444445",
	"mobile": "66444445",
	"email": "reetika.goenka@eabsystems.com",
	"position": "Agent",
	"manager": "T3807926A DIRECT(M)",
	"managerCode": "900002",
	"achievements": "MDRT, SUPER MDRT",
	"authorised": "M9A, M9, HI"
}