{
	"compCode": "08",
	"create": "johntest22  on 22 May 2017 14:28:42",
	"effDate": "2017-05-22 14:10:34",
	"expDate": "2118-05-22 14:19:47",
	"launchDate": "2017-05-22 14:13:51",
	"type": "fund",
	"releaseDate": "2017-08-16 14:55:59",
	"status": "A",
	"task_desc": "ABFD",
	"upd": "SYSTEM  on 08 Aug 2017 10:33:14",
	"version": 1,
	"ccy": "SGD",
	"ref_no": "ZAGF",
	"fundName": {
		"en": "EAB Asian Growth Fund (SGD)",
		"zh-Hant": ""
	},
	"fundCode": "ZAGF",
	"paymentMethod": ["cash", "srs", "cpfisoa"],
	"annualManageFee": 1.6,
	"assetClass": "equity_asia_pacific_ex_japan",
	"riskRating": 5,
	"isMixedAsset": "N"
}
