{
	"type": "layout",
	"formId":"menu_plan",
	"skipCheck":true,
	"items": [
		{
			"type": "BLOCK",
			"id":"planDetails",
			"title": "",
			"items": [
				{
					"type": "block",
					"style":{"paddingBottom":"30px", "borderBottom":"1px solid #cac4c4"},
					"items":[
						{
							"type": "heading",
							"id": "planTypeName",
							"detailSeq": 1
						},
						{
							"type": "table",
							"no1stItemLeftPadding":true,
							"id": "planList",
							"allowEdit": false,
							"items": [
								{
									"type": "HBOX",
									"title": "Basic Plan/ Rider",
									"presentation": "planCover@covName",
									"items": [
										{
											"type": "image",
											"id": "planCover"
										},
										{
											"type": "TEXT",
											"id": "covName"
										}
									]
								},
								{
									"type": "TEXT",
									"id": "sumInsured",
									"title": "Sum Assured/ Benefits",
									"subType":"currency",
									"decimal":0,
									"right":true
								},
								{
									"type": "TEXT",
									"id": "polTermDesc",
									"title": "Policy Term",
									"right":true
								},
								{
									"type": "TEXT",
									"id": "premTermDesc",
									"title": "Premium Term",
									"right":true
								}
							]
						}
					]
				},
				{
					"type": "block",
					"title": "Other Plan Details",
					"items": [
						{
							"type": "HBOX",
							"items": [
								{
									"id": "ccy",
									"title": "Policy Currency",
									"type": "READONLY",
									"options": [
								      {
								        "value": "ALL",
								        "title": {
								          "en": "All Currencies",
								          "zh-hant": "所有貨幣"
								        },
								        "exRate": "1",
								        "seq": "1"
								      },
								      {
								        "value": "AUD",
								        "title": {
								          "en": "Australian Dollars",
								          "zh-hant": "澳元"
								        },
								        "shortTitle": "AUD",
								        "exRate": "1.2",
								        "seq": "2"
								      },
								      {
								        "value": "CAD",
								        "title": {
								          "en": "Canadian Dollars",
								          "zh-hant": "加幣"
								        },
								        "exRate": "1.2",
								        "seq": "3"
								      },
								      {
								        "value": "CHF",
								        "title": {
								          "en": "Swiss Francs",
								          "zh-hant": "瑞士法郎"
								        },
								        "exRate": "1.2",
								        "seq": "4"
								      },
								      {
								        "value": "EUR",
								        "title": {
								          "en": "Euros",
								          "zh-hant": "歐元"
								        },
								        "exRate": "1",
								        "seq": "5"
								      },
								      {
								        "value": "GBP",
								        "title": {
								          "en": "British Pounds",
								          "zh-hant": "英鎊"
								        },
								        "exRate": "0.64",
								        "seq": "6"
								      },
								      {
								        "value": "HKD",
								        "title": {
								          "en": "Hong Kong Dollars",
								          "zh-hant": "港幣"
								        },
								        "shortTitle": "HK$",
								        "exRate": "8",
								        "seq": "7"
								      },
								      {
								        "value": "NZD",
								        "title": {
								          "en": "New Zealand Dollars",
								          "zh-hant": "紐元"
								        },
								        "exRate": "1.8",
								        "seq": "8"
								      },
								      {
								        "value": "USD",
								        "title": {
								          "en": "USD",
								          "zh-hant": "美金"
								        },
								        "exRate": "1",
								        "seq": "9"
								      },
								      {
								        "value": "SGD",
								        "title": {
								          "en": "SGD",
								          "zh-hant": "新加坡幣"
								        },
								        "exRate": "1.6",
								        "seq": "10"
								      }
								    ]
								},
								{
									"id": "isBackDate",
									"title": "Backdating",
									"type": "READONLY",
									"options": [
										{
											"value": "Y",
											"title": "Yes"
										},
										{
											"value": "N",
											"title": "No"
										}
									]
								}
							]
						},
						{
							"type": "HBOX",
							"items": [
								{
									"id": "paymentMode",
									"title": "Payment Mode",
									"type": "READONLY",
									"options": [
										{
											"value": "M",
											"title": "Monthly"
										},
										{
											"value": "Q",
											"title": "Quarterly"
										},
										{
											"value": "S",
											"title": "Semi-Annual"
										},
										{
											"value": "A",
											"title": "Annual"
										},
										{
											"value": "L",
											"title": "Single Premium"
										}
									]
								},
								{
									"id": "riskCommenDate",
									"title": "Selected Commencement Date (dd/mm/yyyy)",
									"type": "READONLY",
									"subType":"date",
									"trigger":{
										"id":"isBackDate",
										"type":"showIfEqual",
										"value":"Y"
									}
								}
							]
						},
						{
							"type": "HBOX",
							"items": [
								{
									"id": "hasBoughtAxaPlan",
                  "decimal":2,
									"title": "Discount {(*)}",
									"type": "READONLY",
									"addColour": "#ec4d33",
                  "options": [
										{
											"value": "Y",
											"title": "Yes"
										},
										{
											"value": "N",
											"title": "No"
										}
									]
                },
                {
									"id": "premium",
									"decimal":2,
									"title": "Total Premium Amount (including discount, if any)",
									"subType":"currency",
									"type": "READONLY"
                }
							]
            },
            {
              "type": "paragraph",
              "align": "left",
              "style": {
                "color": "#ec4d33"
              },
              "content": "<p>(*) The discounted premium rate for Early Stage CritiCare is offered only with purchase of a regular/single premium basic policy from EAB Ltd in the past 12 months. For concurrent purchase, Early Stage CritiCare will not be offered at a discounted rate if the application for regular/single premium basic policy is rejected.</p>  "
            }
					]
				}
			]
		}
	]
}