{
  "detailSeq": 1,
  "id": "planMenu",
  "type": "menuItem",
  "title": "",
  "items": [
    {
      "id": "recommendTitle",
      "type": "HEADER",
      "title": "My Financial Consultant's recommendations"
    },
    {
      "type": "block",
      "title": "LIFE ASSURED AND PLANS",
      "items": [
        {
          "type": "table",
          "id": "shieldInsuredPlans",
          "no1stItemLeftPadding": true,
          "allowEdit": false,
          "noBottomBorder": true,
          "fullWidth": true,
          "items": [
            {
              "type": "text",
              "id": "shieldInsured"
            },
            {
              "type": "text",
              "id": "shieldPlan",
              "right": true
            }
          ]
        }
      ]
    },
    {
      "type": "Divider"
    },
    {
      "id": "recommendReason",
      "type": "TEXTAREA",
      "title": "REASON FOR PLAN AND RIDER(S) RECOMMENDATION",
      "maxLength": 5000,
      "mandatory": true,
      "disabled": false,
      "placeholder": {
        "en": "Please justify"
      },
      "hints": {
        "en": "<ul><li style=\"list-style:disc\">State how the plan meets client's need(s)</li><li style=\"list-style:disc\">State how client will be able to service the premiums if the premium payment term (i) exceeds the current statutory age of 62 for employment or (ii) exceeds the client's indicated retirement age (if earlier than age 62)</li><li style=\"list-style:disc\">Policy Term vs when funds are needed</li></ul>"
      },
      "align": "left"
    },
    {
      "id": "recommendBenefit",
      "type": "TEXTAREA",
      "title": "BENEFITS FOR PLAN AND RIDER(S) RECOMMENDED",
      "maxLength": 5000,
      "mandatory": true,
      "disabled": false,
      "resetDefaultValue": true,
      "placeholder": {
        "en": "Please justify"
      },
      "align": "left"
    },
    {
      "id": "recommendLimit",
      "type": "TEXTAREA",
      "title": "LIMITATION/DEVIATION OF PLAN AND RIDER(S) RECOMMENDED",
      "maxLength": 5000,
      "mandatory": true,
      "disabled": false,
      "resetDefaultValue": true,
      "placeholder": {
        "en": "Please justify"
      },
      "align": "left"
    },
    {
      "type": "paragraph",
      "align": "left",
      "style": {
        "color": "#ec4d33"
      },
      "content": "<p><b>Note: </b>Your Integrated Shield Plan is made up of two parts - MediShield Plan Life Portion provided by the Central Provident Fund Board (CPFB) and an additional private insurance coverage provided by the company. You are automatically covered by MediShield Life from end 2015 onwards and will be paying premiums for MediShield Life from your Medisave account. Please be mindful that you need to keep sufficient funds in your Medisave Account to pay for your Integrated Shield Plan premiums in the long term. Premiums will increase as you get older.</p>  "
    },
    {
      "type": "Divider"
    },
    {
      "type": "paragraph",
      "align": "center",
      "style": {
        "color": "#00008f"
      },
      "content": "<p style='font-size: 24px;margin: 16px;'><b>REPLACEMENT OF POLICY (ROP)/SWITCHING OF PRODUCTS</b></p>  ",
      "trigger": {
        "id": "clientChoiceSelect",
        "type": "showIfEqual",
        "value": "Y"
      }
    },
    {
      "type": "BLOCK",
      "id": "ropBlock",
      "title": "",
      "trigger": {
        "id": "clientChoiceSelect",
        "type": "showIfEqual",
        "value": "Y"
      },
      "items": [
        {
          "type":"qtitle",
          "subTitle": "Is this proposal to replace or intended to replace an existing Integrated Shield Plan ?",
          "mandatory": true
        },
        {
          "type": "block",
          "id": "shieldRopTable",
          "items": []
        },
        {
          "type": "block",
          "trigger": {
            "id": "shieldRopTable.shieldRopAnswer_0,shieldRopTable.shieldRopAnswer_1,shieldRopTable.shieldRopAnswer_2,shieldRopTable.shieldRopAnswer_3,shieldRopTable.shieldRopAnswer_4,shieldRopTable.shieldRopAnswer_5",
            "type": "dynamicCondition",
            "value": "#1 === 'Y' || #2 === 'Y' || #3 === 'Y' || #4 === 'Y' || #5 === 'Y' || #6 === 'Y'"
          },
          "items": [
            {
              "id": "ropQ2",
              "type": "TEXTSELECTION",
              "isSingleSelect": true,
              "title": "Is the replacement of policy advised by the financial consultant ?",
              "mandatory": true,
              "disabled": false,
              "value": "N",
              "options": [
                {
                  "title": "Yes",
                  "value": "Y"
                },
                {
                  "title": "No",
                  "value": "N"
                }
              ]
            },
            {
              "id": "ropQ3",
              "type": "TEXTSELECTION",
              "isSingleSelect": true,
              "title": "The financial consultant has explained the following to your satisfaction in the event a replacement of policy should take place ?",
              "mandatory": true,
              "disabled": false,
              "value": "Y",
              "options": [
                {
                  "title": "Yes",
                  "value": "Y"
                },
                {
                  "title": "No",
                  "value": "N"
                }
              ]
            },
            {
              "id": "ropQ1sub3",
              "type": "TEXTAREA",
              "title": "Basis of Policy Replacement / Switching",
              "mandatory": true,
              "disabled": false,
              "maxLength": 3000
            },
            {
              "type": "PARAGRAPH",
              "content": "<p style='margin: 0px; padding: 0px; line-height: 16px'> There are implications associated with this replacement/switch. Please be aware that the implications may outweigh any potential benefits. Some of the implication include the following: </p> <ul style='margin: 2px'> <li style='list-style-type: disc'>Pre-existing conditions previously insured may be excluded in the new policy.</li> <li style='list-style-type: disc'>Each Life Assured can only have one integrated Shield plan. Once the new policy commences, the previous integrated Shield plan will be terminated automatically.</li> <li style='list-style-type: disc'>You may not be insurable on standard terms.</li> <li style='list-style-type: disc'>The new policy may offer a lower level of benefit at a higher cost or same cost, or offer the same level of benefit at a higher cost; and</li> <li style='list-style-type: disc'>The new policy may be less suitable for you.</li><li style='list-style-type: disc'>Please note that if you have bought any rider for your existing Integrated Shield plan prior to 8 Mar 2018, you may not have to transit to the new co-payment rider. Any riders purchased after 8 Mar 2018 will transit into the new co-payment rider from 1 April 2021 onwards upon policy renewal. You also have the option to transit to the new co-payment rider earlier when it is available from 1 April 2019 onwards upon policy renewal.</li></ul>"
            }
          ]
        }
      ]
    },
    {
      "type": "BLOCK",
      "items": [
        {
          "type": "READONLY",
          "style": {
            "height": "100px"
          }
        }
      ]
    }
  ]
}
