{
  "type": "layout",
  "id":"dyn_la_insurability_her",
  "formId":"menu_insure",
  "item":
    {
      "title": "Proposer",
      "subType": "insured",
      "type":"tab",
      "items": [
        {
          "id":"insurability",
          "type":"block",
          "items":[
            {
              "type": "block",
              "title":"Height and Weight",
              "items": [
                {
                  "type": "hbox",
                  "items": [
                    {
                      "id": "HW01",
                      "type": "text",
                      "subType": "number",
                      "mandatory":true,
                      "max": 3,
                      "min":0,
                      "decimal": 2,
                      "title": "Height (m, meter)"
                    },
                    {
                      "id": "HW02",
                      "mandatory":true,
                      "type": "text",
                      "subType": "number",
                      "max": 999,
                      "min":0,
                      "decimal": 0,
                      "title": "Weight (kg, kilogram)"
                    }
                  ]
                },
                {
                  "id": "HW03",
                  "mandatory":true,
                  "type": "QRADIOGROUP",
                  "horizontal": true,
                  "align": "left",
                  "title": "Any weight change in the last 12 months? (kg)",
                  "valueTrigger": {
                    "type": "resetTargetValue",
                    "id": "insAllNoInd",
                    "value": "Y,N"
                  },
                  "options": [
                    {
                      "value": "Y",
                      "title": "Yes"
                    },
                    {
                      "value": "N",
                      "title": "No"
                    }
                  ]
                },
                {
                  "type": "hbox",
                  "trigger":{
                    "id":"HW03",
                    "value":"Y",
                    "type": "showIfEqual"
                  },
                  "items": [
                    {
                      "id": "HW03a",
                      "type": "QRADIOGROUP",
                      "horizontal": true,
                      "mandatory":true,
                      "align": "left",
                      "title": "Weight change",
                      "options": [
                        {
                          "value": "G",
                          "title": "Gain"
                        },
                        {
                          "value": "L",
                          "title": "Lost"
                        }
                      ]
                    },
                    {
                      "id": "HW03b",
                      "mandatory":true,
                      "type": "text",
                      "subType": "number",
                      "max": 999,
                      "min":0,
                      "decimal": 0,
                      "title": "How many kg?"
                    }
                  ]
                },
                {
                  "type": "hbox",
                  "items":[
                    {
                      "id": "HW03c",
                      "mandatory":true,
                      "type":"picker",
                      "trigger":{
                        "id":"HW03",
                        "value":"Y",
                        "type": "showIfEqual"
                      },
                      "title": "Reason of weight change",
                      "options":[
                        {
                          "title":"Diet Control",
                          "value":"diet"
                        },
                        {
                          "title":"Exercising",
                          "value":"exercise"
                        },
                        {
                          "title":"Pregnancy",
                          "value":"pregnancy"
                        },
                        {
                          "title":"Post delivery",
                          "value":"pdelivery"
                        },
                        {
                          "title":"Other",
                          "value":"other"
                        }
                      ]
                    },
                    {
                      "id":"HW03c1",
                      "title":{
                        "en":"Please specify/Others"
                      },
                      "type":"text",
                      "max": 100,
                      "mandatory":true,
                      "trigger":{
                        "id":"HW03c",
                        "type":"showIfEqual",
                        "value":"other"
                      }
                    }
                  ]
                }
              ]
            },
            {
              "type": "block",
              "title": "Insurance History",
              "items":[
                {
                  "id":"INS01",
                  "title":"1. Have you ever made an application or application for reinstatement of a life, disability, accident, medical or critical illness insurance which has been accepted with an extra premium or on special terms, postponed, declined, withdrawn or is still being considered?",
                  "type":"QRADIOGROUP",
                  "mandatory":true,
                  "horizontal": true,
                  "align": "left",
                  "valueTrigger": {
                    "type": "resetTargetValue",
                    "id": "insAllNoInd",
                    "value": "Y,N"
                  },
                  "options":[
                    {
                      "title":"Yes",
                      "value":"Y"
                    },
                    {
                      "title":"No",
                      "value":"N"
                    }
                  ]
                },
                {
                  "type": "table",
                  "mandatory":true,
                  "id":"INS01_DATA",
                  "trigger": {
                    "id": "INS01",
                    "type": "showIfEqual",
                    "value": "Y"
                  },
                  "allowEdit": true,
                  "hasBorder": true,
                  "items": [
                    {
                      "id": "INS01a",
                      "type": "text",
                      "title": "Name of Insurance Company",
                      "mandatory":true,
                      "max": 50,
                      "width":"20%"
                    },
                    {
                      "type": "table-block-t",
                      "title": "Type of Coverage",
                      "presentation": "INS01b1$INS01b2$INS01b3$INS01b4$INS01b5",
                      "width":"20%",
                      "mandatory":true,
                      "key":"INS01a1-b",
                      "items":[
                        {
                          "id":"INS01b1",
                          "type":"checkbox",
                          "title":"Life"
                        },
                        {
                          "id":"INS01b2",
                          "type":"checkbox",
                          "title":"Total Permanent Disability"
                        },
                        {
                          "id":"INS01b3",
                          "type":"checkbox",
                          "title":"Critical Illness"
                        },
                        {
                          "id":"INS01b4",
                          "type":"checkbox",
                          "title":"Accident"
                        },
                        {
                          "id":"INS01b5",
                          "type":"checkbox",
                          "title":"Hospitalisation & Surgical  Benefit"
                        }
                      ]
                    },
                    {
                      "id":"INS01c",
                      "type": "DATEPICKER",
                      "width":"10%",
                      "title": "Date incurred (MM/YYYY)",
                      "mandatory":true,
                      "max":0,
                      "min":100,
                      "dateFormat":"mm/yyyy"
                    },
                    {
                      "title":"Condition of Special Terms ",
                      "mandatory":true,
                      "id": "INS01d",
                      "type":"picker",
                      "width":"25%",
                      "options":[
                        {
                          "value":"medical",
                          "title":"Medical"
                        },
                        {
                          "value":"residential",
                          "title":"Residential"
                        },
                        {
                          "value":"financial",
                          "title":"Financial"
                        },
                        {
                          "value":"others",
                          "title":"Others"
                        }
                      ]
                    },
                    {
                      "title":"Decision & Detailed Reason(s) of special terms ",
                      "mandatory":true,
                      "id":"INS01e",
                      "type":"text",
                      "max":200,
                      "width":"25%"
                    }
                  ]
                },
                {
                  "id":"INS02",
                  "title":"2. Are you presently receiving a disability benefit or incapable for work or have you ever made or intend to make any claim against any insurer for disability, accident, medical care, hospitalisation, critical illness and/or other benefits?",
                  "type":"QRADIOGROUP",
                  "mandatory":true,
                  "horizontal": true,
                  "align": "left",
                  "valueTrigger": {
                    "type": "resetTargetValue",
                    "id": "insAllNoInd",
                    "value": "Y,N"
                  },
                  "options":[
                    {
                      "title":"Yes",
                      "value":"Y"
                    },
                    {
                      "title":"No",
                      "value":"N"
                    }
                  ]
                },
                {
                  "type": "table",
                  "mandatory":true,
                  "id":"INS02_DATA",
                  "trigger": {
                    "id": "INS02",
                    "type": "showIfEqual",
                    "value": "Y"
                  },
                  "allowEdit": true,
                  "hasBorder": true,
                  "items": [
                    {
                      "id": "INS02a",
                      "mandatory":true,
                      "type": "text",
                      "title": "Name of Insurance Company",
                      "max": 50,
                      "width":"20%"
                    },
                    {
                      "type": "table-block-t",
                      "key":"INS02b-b",
                      "mandatory":true,
                      "title": "Type of the Claim",
                      "presentation": "INS02b1$INS02b2$INS02b3$INS02b4$other",
                      "width":"20%",
                      "items":[
                        {
                          "id":"INS02b1",
                          "type":"checkbox",
                          "title":"Total Permanent Disability"
                        },
                        {
                          "id":"INS02b2",
                          "type":"checkbox",
                          "title":"Critical Illness"
                        },
                        {
                          "id":"INS02b3",
                          "type":"checkbox",
                          "title":"Accident"
                        },
                        {
                          "id":"INS02b4",
                          "type":"checkbox",
                          "title":"Hospitalisation & Surgical  Benefit"
                        },
                        {
                          "id":"other",
                          "type":"checkbox",
                          "title":"Others"
                        },
                        {
                          "id":"resultOther",
                          "mandatory":true,
                          "type":"text",
                          "placeholder":"Others",
                          "max":20,
                          "trigger":{
                            "id":"other",
                            "type":"showIfEqual",
                            "value":"Y"
                          }
                        }
                      ]
                    },
                    {
                      "id": "INS02c",
                      "type": "DATEPICKER",
                      "width":"10%",
                      "mandatory":true,
                      "title": "Date incurred (MM/YYYY)",
                      "max":0,
                      "min":100,
                      "dateFormat":"mm/yyyy"
                    },
                    {
                      "id": "INS02d",
                      "mandatory":true,
                      "title":"Medical Condition",
                      "type":"text",
                      "width":"25%",
                      "max":200
                    },
                    {
                      "title":"Claim Details (Duration of hospitalisation /offwork, treatment, follow-up etc)",
                      "id":"INS02e",
                      "mandatory":true,
                      "type":"text",
                      "max":200,
                      "width":"25%"
                    }
                  ]
                }

              ]
            },
            {
              "title":"Lifestyle and Habits",
              "type":"block",
              "items":[
                {
                  "id":"LIFESTYLE01",
                  "title":"1. Have you smoked or used any tobacco, nicotine or smokeless tobacco products (e.g. cigarettes, cigar, e-cigarettes, pipes, nicotine patch, etc.) within the past 12 months?",
                  "type":"QRADIOGROUP",
                  "disabled": true,
                  "horizontal": true,
                  "align": "left",
                  "options":[
                    {
                      "value":"Y",
                      "title":"Yes"
                    },
                    {
                      "value":"N",
                      "title":"No"
                    }
                  ]
                },
                {
                  "type":"block",
                  "trigger":{
                    "id":"LIFESTYLE01",
                    "type":"showIfEqual",
                    "value":"Y"
                  },
                  "items":[
                    {
                      "type":"HBOX",
                      "items":[
                        {
                          "id":"LIFESTYLE01a",
                          "mandatory":true,
                          "type":"picker",
                          "title":"Type of product (e.g. cigarettes, cigar, e-cigarettes, pipes, nicotine patch, etc.)",
                          "options":[
                            {
                              "value":"cigarettes",
                              "title":"Cigarettes"
                            },
                            {
                              "value":"cigar",
                              "title":"Cigar"
                            },
                            {
                              "value":"eCi",
                              "title":"e-Cigarettes"
                            },
                            {
                              "value":"pipes",
                              "title":"Pipes"
                            },
                            {
                              "value":"nicotine",
                              "title":"Nicotine patch"
                            },
                            {
                              "value":"other",
                              "title":"Other"
                            }
                          ]
                        },
                        {
                          "id":"LIFESTYLE01a_OTH",
                          "mandatory":true,
                          "type":"text",
                          "placeHolder":{
                                "en":"Others"
                              },
                          "max":50,
                          "trigger":{
                            "id":"LIFESTYLE01a",
                            "type":"showIfEqual",
                            "value":"other"
                          }
                        }
                      ]
                    },
                    {
                      "type":"HBOX",
                      "items":[
                        {
                          "id":"LIFESTYLE01b",
                          "mandatory":true,
                          "title":"Number of products smoked per day (i.e. how many sticks/ pipes/ patches per day?)",
                          "type":"text",
                          "subType":"number",
                          "max":999,
                          "min":0
                        }
                      ]
                    },
                    {
                      "type":"HBOX",
                      "items":[             
                        {
                          "id":"LIFESTYLE01c",
                          "mandatory":true,
                          "title":"Number of years smoked",
                          "type":"text",
                          "subType":"number",
                          "max":99,
                          "min":0
                        }
                      ]
                    }

                  ]
                }

              ]
            },
            {
              "title":"Medical and Health Information",
              "type":"block",
              "items":[
                {
                  "type":"QRADIOGROUP",
                  "id":"HEALTH_HER01",
                  "mandatory":true,
                  "horizontal": true,
                  "title":"1. Have either of your natural parents or any sibling died or suffered from cancer or diabetes before the age of 55 years?",
                  "valueTrigger": {
                    "type": "resetTargetValue",
                    "id": "insAllNoInd",
                    "value": "Y,N"
                  },
                  "options": [
                    {
                      "value": "Y",
                      "title": "Yes"
                    },
                    {
                      "value": "N",
                      "title": "No"
                    }
                  ]
                },
                {
                  "type":"table",
                  "id":"HEALTH_HER01_DATA",
                  "mandatory":true,
                  "hasBorder":true,
                  "allowEdit":true,
                  "trigger":{
                    "id":"HEALTH_HER01",
                    "value":"Y",
                    "type":"showIfEqual"
                  },
                  "items":[
                    {
                      "id":"HEALTH_HER01a",
                      "title":"Relationship",
                      "mandatory":true,
                      "type":"picker",
                      "width":"15%",
                      "options":[
                        {
                          "title":"Mother",
                          "value":"monther"
                        },
                        {
                          "title":"Father",
                          "value":"Father"
                        },
                        {
                          "title":"Brother",
                          "value":"Brother"
                        },
                        {
                          "title":"Sister",
                          "value":"Sister"
                        }
                      ],
                      "width":"15%",
                      "max":50
                    },
                    {
                      "id":"HEALTH_HER01b",
                      "mandatory":true,
                      "title":"Medical Condition",
                      "type":"text",
                      "width":"70%",
                      "max":200
                    },
                    {
                      "id":"HEALTH_HER01c",
                      "mandatory":true,
                      "title":"Age of Onset",
                      "type":"text",
                      "subType":"number",
                      "width":"15%",
                      "max":55
                    }
                  ]
                },
                {
                  "id": "HEALTH_HER02",
                  "mandatory":true,
                  "type": "QRADIOGROUP",
                  "horizontal": true,
                  "align": "left",
                  "title": "2. Have you been told to repeat pap smear within the next six months or ever had an abnormal pap smear, mammogram, ultrasound of the pelvis or breasts, biopsy, colposcopy or any other gynecological investigations?",
                  "valueTrigger": {
                    "type": "resetTargetValue",
                    "id": "insAllNoInd",
                    "value": "Y,N"
                  },
                  "options": [
                    {
                      "value": "Y",
                      "title": "Yes"
                    },
                    {
                      "value": "N",
                      "title": "No"
                    }
                  ]
                },
                {
                  "type": "table",
                  "mandatory":true,
                  "id":"HEALTH_HER02_DATA",
                  "trigger": {
                    "id": "HEALTH_HER02",
                    "type": "showIfEqual",
                    "value": "Y"
                  },
                  "allowEdit": true,
                  "hasBorder": true,
                  "items": [
                    {
                      "id": "HEALTH_HER02a",
                      "mandatory":true,
                      "type": "text",
                      "title": "Medical Condition/Diagnosis",
                      "max": 200,
                      "width":"14%"
                    },
                    {
                      "id": "HEALTH_HER02b",
                      "mandatory":true,
                      "title": "Year of diagnosis",
                      "type": "picker",
                      "subType": "selectField",
                      "optionsTable": "years",
                      "width":"10%",
                      "options": [
                        {
                          "value": "2017",
                          "title": "2017"
                        },
                        {
                          "value": "2016",
                          "title": "2016"
                        },
                        {
                          "value": "2015",
                          "title": "2015"
                        }
                      ]
                    },
                    {
                      "id": "HEALTH_HER02c",
                      "type": "text",
                      "title": "Type of test done (if any)",
                      "max": 200,
                      "width":"14%"
                    },
                    {
                      "id": "HEALTH_HER02d",
                      "type": "datepicker",
                      "subType":"date",
                      "title": "Date of test done (if any)",
                      "max":0,
                      "min":100,
                      "width":"10%"
                    },
                    {
                      "id": "HEALTH_HER02e",
                      "type": "QRADIOGROUP",
                      "align": "left",
                      "title": "Test result (if any)",
                      "max": 200,
                      "width":"14%",
                      "options": [
                        {
                          "value": "Y",
                          "title": "Normal"
                        },
                        {
                          "value": "N",
                          "title": "Abnormal"
                        }
                      ]
                    },
                    {
                      "id": "HEALTH_HER02f",
                      "mandatory":true,
                      "type": "text",
                      "title": "Details  (Medication/Treatment / Follow up / Complication) ",
                      "width":"10%",
                      "max": 200
                    },
                    {
                      "id": "HEALTH_HER02g",
                      "type": "text",
                      "title": "Name of Doctor",
                      "width":"14%",
                      "max": 200
                    },
                    {
                      "id": "HEALTH_HER02h",
                      "type": "text",
                      "title": "Address of Hospital/Clinic",
                      "width":"14%",
                      "max": 200
                    }
                  ]
                },
                {
                  "id": "HEALTH_HER03",
                  "mandatory":true,
                  "type": "QRADIOGROUP",
                  "horizontal": true,
                  "align": "left",
                  "title": "3. Are you currently having abnormal bleeding, awaiting a screening or any other test result for suspected cancer?",
                  "valueTrigger": {
                    "type": "resetTargetValue",
                    "id": "insAllNoInd",
                    "value": "Y,N"
                  },
                  "options": [
                    {
                      "value": "Y",
                      "title": "Yes"
                    },
                    {
                      "value": "N",
                      "title": "No"
                    }
                  ]
                },
                {
                  "type": "table",
                  "mandatory":true,
                  "id":"HEALTH_HER03_DATA",
                  "trigger": {
                    "id": "HEALTH_HER03",
                    "type": "showIfEqual",
                    "value": "Y"
                  },
                  "allowEdit": true,
                  "hasBorder": true,
                  "items": [
                    {
                      "id": "HEALTH_HER03a",
                      "mandatory":true,
                      "type": "text",
                      "title": "Medical Condition/Diagnosis",
                      "max": 200,
                      "width":"14%"
                    },
                    {
                      "id": "HEALTH_HER03b",
                      "mandatory":true,
                      "title": "Year of diagnosis",
                      "type": "picker",
                      "subType": "selectField",
                      "optionsTable": "years",
                      "width":"10%",
                      "options": [
                        {
                          "value": "2017",
                          "title": "2017"
                        },
                        {
                          "value": "2016",
                          "title": "2016"
                        },
                        {
                          "value": "2015",
                          "title": "2015"
                        }
                      ]
                    },
                    {
                      "id": "HEALTH_HER03c",
                      "type": "text",
                      "title": "Type of test done (if any)",
                      "max": 200,
                      "width":"14%"
                    },
                    {
                      "id": "HEALTH_HER03d",
                      "type": "datepicker",
                      "subType":"date",
                      "title": "Date of test done (if any)",
                      "max":0,
                      "min":100,
                      "width":"10%"
                    },
                    {
                      "id": "HEALTH_HER03e",
                      "type": "QRADIOGROUP",
                      "align": "left",
                      "title": "Test result (if any)",
                      "max": 200,
                      "width":"14%",
                      "options": [
                        {
                          "value": "Y",
                          "title": "Normal"
                        },
                        {
                          "value": "N",
                          "title": "Abnormal"
                        }
                      ]
                    },
                    {
                      "id": "HEALTH_HER03f",
                      "mandatory":true,
                      "type": "text",
                      "title": "Details  (Medication/Treatment / Follow up / Complication) ",
                      "width":"10%",
                      "max": 200
                    },
                    {
                      "id": "HEALTH_HER03g",
                      "type": "text",
                      "title": "Name of Doctor",
                      "width":"14%",
                      "max": 200
                    },
                    {
                      "id": "HEALTH_HER03h",
                      "type": "text",
                      "title": "Address of Hospital/Clinic",
                      "width":"14%",
                      "max": 200
                    }
                  ]
                },

                {
                  "type": "qTitle",
                  "id": "HEALTH_HER04_LABEL",
                  "title": "4. Have you ever had or been told to have or been treated or under investigations for:"
                },
                {
                  "id": "HEALTH_HER04",
                  "mandatory":true,
                  "type": "QRADIOGROUP",
                  "horizontal": true,
                  "align": "left",
                  "title": "(a) Any disease or disorder of the cervix uteri, uterus, ovaries, vulva or fallopian tubes including ovarian cysts, abnormal uterine or vaginal bleeding, fibroid, polyp, carcinoma in situ, cancer or growth?",
                  "valueTrigger": {
                    "type": "resetTargetValue",
                    "id": "insAllNoInd",
                    "value": "Y,N"
                  },
                  "options": [
                    {
                      "value": "Y",
                      "title": "Yes"
                    },
                    {
                      "value": "N",
                      "title": "No"
                    }
                  ]
                },
                {
                  "type": "table",
                  "mandatory":true,
                  "id":"HEALTH_HER04_DATA",
                  "trigger": {
                    "id": "HEALTH_HER04",
                    "type": "showIfEqual",
                    "value": "Y"
                  },
                  "allowEdit": true,
                  "hasBorder": true,
                  "items": [
                    {
                      "id": "HEALTH_HER04a",
                      "mandatory":true,
                      "type": "text",
                      "title": "Medical Condition/Diagnosis",
                      "max": 200,
                      "width":"14%"
                    },
                    {
                      "id": "HEALTH_HER04b",
                      "mandatory":true,
                      "title": "Year of diagnosis",
                      "type": "picker",
                      "subType": "selectField",
                      "optionsTable": "years",
                      "width":"10%",
                      "options": [
                        {
                          "value": "2017",
                          "title": "2017"
                        },
                        {
                          "value": "2016",
                          "title": "2016"
                        },
                        {
                          "value": "2015",
                          "title": "2015"
                        }
                      ]
                    },
                    {
                      "id": "HEALTH_HER04c",
                      "type": "text",
                      "title": "Type of test done (if any)",
                      "max": 200,
                      "width":"14%"
                    },
                    {
                      "id": "HEALTH_HER04d",
                      "type": "datepicker",
                      "subType":"date",
                      "title": "Date of test done (if any)",
                      "max":0,
                      "min":100,
                      "width":"10%"
                    },
                    {
                      "id": "HEALTH_HER04e",
                      "type": "QRADIOGROUP",
                      "align": "left",
                      "title": "Test result (if any)",
                      "max": 200,
                      "width":"14%",
                      "options": [
                        {
                          "value": "Y",
                          "title": "Normal"
                        },
                        {
                          "value": "N",
                          "title": "Abnormal"
                        }
                      ]
                    },
                    {
                      "id": "HEALTH_HER04f",
                      "mandatory":true,
                      "type": "text",
                      "title": "Details  (Medication/Treatment / Follow up / Complication) ",
                      "width":"10%",
                      "max": 200
                    },
                    {
                      "id": "HEALTH_HER04g",
                      "type": "text",
                      "title": "Name of Doctor",
                      "width":"14%",
                      "max": 200
                    },
                    {
                      "id": "HEALTH_HER04h",
                      "type": "text",
                      "title": "Address of Hospital/Clinic",
                      "width":"14%",
                      "max": 200
                    }
                  ]
                },

                {
                  "id": "HEALTH_HER05",
                  "mandatory":true,
                  "type": "QRADIOGROUP",
                  "horizontal": true,
                  "align": "left",
                  "title": "(b) Any disease or disorder of the breast including breast lump, cyst, carcinoma in situ, cancer or growth?",
                  "valueTrigger": {
                    "type": "resetTargetValue",
                    "id": "insAllNoInd",
                    "value": "Y,N"
                  },
                  "options": [
                    {
                      "value": "Y",
                      "title": "Yes"
                    },
                    {
                      "value": "N",
                      "title": "No"
                    }
                  ]
                },
                {
                  "type": "table",
                  "mandatory":true,
                  "id":"HEALTH_HER05_DATA",
                  "trigger": {
                    "id": "HEALTH_HER05",
                    "type": "showIfEqual",
                    "value": "Y"
                  },
                  "allowEdit": true,
                  "hasBorder": true,
                  "items": [
                    {
                      "id": "HEALTH_HER05a",
                      "mandatory":true,
                      "type": "text",
                      "title": "Medical Condition/Diagnosis",
                      "max": 200,
                      "width":"14%"
                    },
                    {
                      "id": "HEALTH_HER05b",
                      "mandatory":true,
                      "title": "Year of diagnosis",
                      "type": "picker",
                      "subType": "selectField",
                      "optionsTable": "years",
                      "width":"10%",
                      "options": [
                        {
                          "value": "2017",
                          "title": "2017"
                        },
                        {
                          "value": "2016",
                          "title": "2016"
                        },
                        {
                          "value": "2015",
                          "title": "2015"
                        }
                      ]
                    },
                    {
                      "id": "HEALTH_HER05c",
                      "type": "text",
                      "title": "Type of test done (if any)",
                      "max": 200,
                      "width":"14%"
                    },
                    {
                      "id": "HEALTH_HER05d",
                      "type": "datepicker",
                      "subType":"date",
                      "title": "Date of test done (if any)",
                      "max":0,
                      "min":100,
                      "width":"10%"
                    },
                    {
                      "id": "HEALTH_HER05e",
                      "type": "QRADIOGROUP",
                      "align": "left",
                      "title": "Test result (if any)",
                      "max": 200,
                      "width":"14%",
                      "options": [
                        {
                          "value": "Y",
                          "title": "Normal"
                        },
                        {
                          "value": "N",
                          "title": "Abnormal"
                        }
                      ]
                    },
                    {
                      "id": "HEALTH_HER05f",
                      "mandatory":true,
                      "type": "text",
                      "title": "Details  (Medication/Treatment / Follow up / Complication) ",
                      "width":"10%",
                      "max": 200
                    },
                    {
                      "id": "HEALTH_HER05g",
                      "type": "text",
                      "title": "Name of Doctor",
                      "width":"14%",
                      "max": 200
                    },
                    {
                      "id": "HEALTH_HER05h",
                      "type": "text",
                      "title": "Address of Hospital/Clinic",
                      "width":"14%",
                      "max": 200
                    }
                  ]
                },

                {
                  "id": "HEALTH_HER06",
                  "mandatory":true,
                  "type": "QRADIOGROUP",
                  "horizontal": true,
                  "align": "left",
                  "title": "(c) Any other cancer or carcinoma in situ, tumor, or kidney or liver disease, sexually transmitted disease, HIV or AIDs?",
                  "valueTrigger": {
                    "type": "resetTargetValue",
                    "id": "insAllNoInd",
                    "value": "Y,N"
                  },
                  "options": [
                    {
                      "value": "Y",
                      "title": "Yes"
                    },
                    {
                      "value": "N",
                      "title": "No"
                    }
                  ]
                },
                {
                  "type": "table",
                  "mandatory":true,
                  "id":"HEALTH_HER06_DATA",
                  "trigger": {
                    "id": "HEALTH_HER06",
                    "type": "showIfEqual",
                    "value": "Y"
                  },
                  "allowEdit": true,
                  "hasBorder": true,
                  "items": [
                    {
                      "id": "HEALTH_HER06a",
                      "mandatory":true,
                      "type": "text",
                      "title": "Medical Condition/Diagnosis",
                      "max": 200,
                      "width":"14%"
                    },
                    {
                      "id": "HEALTH_HER06b",
                      "mandatory":true,
                      "title": "Year of diagnosis",
                      "type": "picker",
                      "subType": "selectField",
                      "optionsTable": "years",
                      "width":"10%",
                      "options": [
                        {
                          "value": "2017",
                          "title": "2017"
                        },
                        {
                          "value": "2016",
                          "title": "2016"
                        },
                        {
                          "value": "2015",
                          "title": "2015"
                        }
                      ]
                    },
                    {
                      "id": "HEALTH_HER06c",
                      "type": "text",
                      "title": "Type of test done (if any)",
                      "max": 200,
                      "width":"14%"
                    },
                    {
                      "id": "HEALTH_HER06d",
                      "type": "datepicker",
                      "subType":"date",
                      "title": "Date of test done (if any)",
                      "max":0,
                      "min":100,
                      "width":"10%"
                    },
                    {
                      "id": "HEALTH_HER06e",
                      "type": "QRADIOGROUP",
                      "align": "left",
                      "title": "Test result (if any)",
                      "max": 200,
                      "width":"14%",
                      "options": [
                        {
                          "value": "Y",
                          "title": "Normal"
                        },
                        {
                          "value": "N",
                          "title": "Abnormal"
                        }
                      ]
                    },
                    {
                      "id": "HEALTH_HER06f",
                      "mandatory":true,
                      "type": "text",
                      "title": "Details  (Medication/Treatment / Follow up / Complication) ",
                      "width":"10%",
                      "max": 200
                    },
                    {
                      "id": "HEALTH_HER06g",
                      "type": "text",
                      "title": "Name of Doctor",
                      "width":"14%",
                      "max": 200
                    },
                    {
                      "id": "HEALTH_HER06h",
                      "type": "text",
                      "title": "Address of Hospital/Clinic",
                      "width":"14%",
                      "max": 200
                    }
                  ]
                },

                {
                  "id": "HEALTH_HER07",
                  "mandatory":true,
                  "type": "QRADIOGROUP",
                  "horizontal": true,
                  "align": "left",
                  "title": "(d) Thyroid disorder or any auto-immune disease including systemic lupus erythematosus?",
                  "valueTrigger": {
                    "type": "resetTargetValue",
                    "id": "insAllNoInd",
                    "value": "Y,N"
                  },
                  "options": [
                    {
                      "value": "Y",
                      "title": "Yes"
                    },
                    {
                      "value": "N",
                      "title": "No"
                    }
                  ]
                },
                {
                  "type": "table",
                  "mandatory":true,
                  "id":"HEALTH_HER07_DATA",
                  "trigger": {
                    "id": "HEALTH_HER07",
                    "type": "showIfEqual",
                    "value": "Y"
                  },
                  "allowEdit": true,
                  "hasBorder": true,
                  "items": [
                    {
                      "id": "HEALTH_HER07a",
                      "mandatory":true,
                      "type": "text",
                      "title": "Medical Condition/Diagnosis",
                      "max": 200,
                      "width":"14%"
                    },
                    {
                      "id": "HEALTH_HER07b",
                      "mandatory":true,
                      "title": "Year of diagnosis",
                      "type": "picker",
                      "subType": "selectField",
                      "optionsTable": "years",
                      "width":"10%",
                      "options": [
                        {
                          "value": "2017",
                          "title": "2017"
                        },
                        {
                          "value": "2016",
                          "title": "2016"
                        },
                        {
                          "value": "2015",
                          "title": "2015"
                        }
                      ]
                    },
                    {
                      "id": "HEALTH_HER07c",
                      "type": "text",
                      "title": "Type of test done (if any)",
                      "max": 200,
                      "width":"14%"
                    },
                    {
                      "id": "HEALTH_HER07d",
                      "type": "datepicker",
                      "subType":"date",
                      "title": "Date of test done (if any)",
                      "max":0,
                      "min":100,
                      "width":"10%"
                    },
                    {
                      "id": "HEALTH_HER07e",
                      "type": "QRADIOGROUP",
                      "align": "left",
                      "title": "Test result (if any)",
                      "max": 200,
                      "width":"14%",
                      "options": [
                        {
                          "value": "Y",
                          "title": "Normal"
                        },
                        {
                          "value": "N",
                          "title": "Abnormal"
                        }
                      ]
                    },
                    {
                      "id": "HEALTH_HER07f",
                      "mandatory":true,
                      "type": "text",
                      "title": "Details  (Medication/Treatment / Follow up / Complication) ",
                      "width":"10%",
                      "max": 200
                    },
                    {
                      "id": "HEALTH_HER07g",
                      "type": "text",
                      "title": "Name of Doctor",
                      "width":"14%",
                      "max": 200
                    },
                    {
                      "id": "HEALTH_HER07h",
                      "type": "text",
                      "title": "Address of Hospital/Clinic",
                      "width":"14%",
                      "max": 200
                    }
                  ]
                },

                {
                  "id": "HEALTH_HER08",
                  "mandatory":true,
                  "type": "QRADIOGROUP",
                  "horizontal": true,
                  "align": "left",
                  "title": "(e) Joint pain, arthritis, osteoporosis, urinary incontinence?",
                  "valueTrigger": {
                    "type": "resetTargetValue",
                    "id": "insAllNoInd",
                    "value": "Y,N"
                  },
                  "options": [
                    {
                      "value": "Y",
                      "title": "Yes"
                    },
                    {
                      "value": "N",
                      "title": "No"
                    }
                  ]
                },
                {
                  "type": "table",
                  "mandatory":true,
                  "id":"HEALTH_HER08_DATA",
                  "trigger": {
                    "id": "HEALTH_HER08",
                    "type": "showIfEqual",
                    "value": "Y"
                  },
                  "allowEdit": true,
                  "hasBorder": true,
                  "items": [
                    {
                      "id": "HEALTH_HER08a",
                      "mandatory":true,
                      "type": "text",
                      "title": "Medical Condition/Diagnosis",
                      "max": 200,
                      "width":"14%"
                    },
                    {
                      "id": "HEALTH_HER08b",
                      "mandatory":true,
                      "title": "Year of diagnosis",
                      "type": "picker",
                      "subType": "selectField",
                      "optionsTable": "years",
                      "width":"10%",
                      "options": [
                        {
                          "value": "2017",
                          "title": "2017"
                        },
                        {
                          "value": "2016",
                          "title": "2016"
                        },
                        {
                          "value": "2015",
                          "title": "2015"
                        }
                      ]
                    },
                    {
                      "id": "HEALTH_HER08c",
                      "type": "text",
                      "title": "Type of test done (if any)",
                      "max": 200,
                      "width":"14%"
                    },
                    {
                      "id": "HEALTH_HER08d",
                      "type": "datepicker",
                      "subType":"date",
                      "title": "Date of test done (if any)",
                      "max":0,
                      "min":100,
                      "width":"10%"
                    },
                    {
                      "id": "HEALTH_HER08e",
                      "type": "QRADIOGROUP",
                      "align": "left",
                      "title": "Test result (if any)",
                      "max": 200,
                      "width":"14%",
                      "options": [
                        {
                          "value": "Y",
                          "title": "Normal"
                        },
                        {
                          "value": "N",
                          "title": "Abnormal"
                        }
                      ]
                    },
                    {
                      "id": "HEALTH_HER08f",
                      "mandatory":true,
                      "type": "text",
                      "title": "Details  (Medication/Treatment / Follow up / Complication) ",
                      "width":"10%",
                      "max": 200
                    },
                    {
                      "id": "HEALTH_HER08g",
                      "type": "text",
                      "title": "Name of Doctor",
                      "width":"14%",
                      "max": 200
                    },
                    {
                      "id": "HEALTH_HER08h",
                      "type": "text",
                      "title": "Address of Hospital/Clinic",
                      "width":"14%",
                      "max": 200
                    }
                  ]
                },


                {
                  "id": "insAllNoInd",
                  "type": "checkbox",
                  "disableTrigger": {
                    "type": "AnyFieldMatch",
                    "id": "HW03,INS01,INS02,FAMILY01,HEALTH_HER01,HEALTH_HER02,HEALTH_HER03,HEALTH_HER04,HEALTH_HER05,HEALTH_HER06,HEALTH_HER07,HEALTH_HER08",
                    "value": "Y"
                  },
                  "valueTrigger": {
                    "type": "resetTargetValue",
                    "id": "HW03,INS01,INS02,FAMILY01,HEALTH_HER01,HEALTH_HER02,HEALTH_HER03,HEALTH_HER04,HEALTH_HER05,HEALTH_HER06,HEALTH_HER07,HEALTH_HER08",
                    "value": "Y,N"
                  },
                  "getCheckedValueFromOthers": {
                    "id": "HW03,INS01,INS02,FAMILY01,HEALTH_HER01,HEALTH_HER02,HEALTH_HER03,HEALTH_HER04,HEALTH_HER05,HEALTH_HER06,HEALTH_HER07,HEALTH_HER08",
                    "othersValue": "N",
                    "checkedValue": false
                  },
                  "title": "I confirm the answer to all of the above medical and health questions for life assured is \"no\""
                },
                {
                  "type": "paragraph",
                  "align": "left",
                  "style": {
                    "color": "#ec4d33"
                  },
                  "content": "<p><b>Note: </b>The above declaration does not apply to smoking question, which is autopopulated from Client Profile.</p>  "
                }






              ]
            }

          ]
        }
      ]
    }

}
