{
  "fromTime": "2019-03-05 00:00:00",
  "toTime": "2019-03-05 23:59:59",
  "scheduleCron": "04 10 * 1-12 *",
  "jobDetailsDocId":"GeneralInvalidationJob",
  "impactedListDocId":"InvalidationImpactedList",
  "messages":[
    {
      "messageId": "invalidateShieldMsg",
      "message": "For EAB Shield, a new Co-Pay rider (EAB Enhanced Care) has been launched. All your existing cases with old riders which have not approved by your Supervisor are no longer valid. Please re-submit a new application with EAB Enhanced Care (if applicable).<br/><br/>",
      "messageGroup": "invalidateMsg",
      "messageGroupPriority": "2"
    },
    {
      "messageId": "invalidateARTMsg",
      "message": "EAB Retire Treasure has been closed for New Business due to enhancement to the plan. All your existing cases which are either pending for submission/not approved by Supervisor are no longer valid for submission.<br/><br/>",
      "messageGroup": "invalidateMsg",
      "messageGroupPriority": "2"
    }
  ],
  "jobs":[
    {
      "id": "inflightJobCR183185",
      "ruleIds":["invalidateART","invalidateShieldWithRider","invalidateByCreateDateRule"],
      "rulesParamsMapping":{
        "invalidateART":{
          "functId": "invalidateProductsRule",
          "productCodes":["NPE"]
        },
        "invalidateShieldWithRider":{
          "functId": "invalidateShieldRiderRule",
          "covCodes":["ASP","ASG","ASH"]
        },
        "invalidateByCreateDateRule":{
          "functId": "invalidateByCreateDateRule",
          "toDate": "2019-03-31 21:00:00"
        }
      },
      "rulesCombinations":[{
          "combinationId": "invalidateShieldMsg",
          "ruleIdsLookUp":["invalidateShieldWithRider","invalidateByCreateDateRule"],
          "lookUpFormula": "#1 && #2"
        },
        {
          "combinationId": "invalidateARTMsg",
          "ruleIdsLookUp":["invalidateART", "invalidateByCreateDateRule"],
          "lookUpFormula": "#1 && #2"
        }
      ]
    }
  ]
}
