{
    "type": "layout",
    "options": [{
        "title": "Married",
        "value": "M"
    }, {
        "title": "Single",
        "value": "S"
    }, {
        "title": "Divorced",
        "value": "D"
    },{
        "title": "Widow",
        "value": "W"
    }]
}
