{
    "type": "layout",
    "options": [{
        "title": {
            "en": "Employment Pass"
        },
        "value": "ep"
    }, {
        "title": {
            "en": "S Pass"
        },
        "value": "sp"
    }, {
        "title": {
            "en": "Work Permit"
        },
        "value": "wp"
    }, {
        "title": {
            "en": "Dependent Pass"
        },
        "value": "dp"
    }, {
        "title": {
            "en": "Student"
        },
        "value": "s"
    }, {
        "title": {
            "en": "Long Term Visit Pass"
        },
        "value": "lp"
    }, {
        "title": {
            "en": "Social Visit Pass"
        },
        "value": "svp"
    }, {
        "title": {
            "en": "Others"
        },
        "value": "o"
    }]
}