{
	"type": "layout",
	"options": [
        {"title":{"en":"Singapore"},"value":"R2","alpha2":"SG","alpha3":"SGP","phoneCode":"65"},
        {"title":{"en":"Malaysia"},"value":"R1","alpha2":"MY","alpha3":"MYS","phoneCode":"60"},
        {"title":{"en":"Hong Kong"},"value":"R3","alpha2":"HK","alpha3":"HKG","phoneCode":"852"},
        {"title":{"en":"Taiwan"},"value":"R4","alpha2":"TW","alpha3":"TWN","phoneCode":"886"},
        {"title":{"en":"Brunei Darussalam"},"value":"R5","alpha2":"BN","alpha3":"BRN","phoneCode":"673"},
        {"title":{"en":"Afghanistan"},"value":"R165","alpha2":"AF","alpha3":"AFG","phoneCode":"93"},
        {"title":{"en":"Aland Islands"},"value":"R166","alpha2":"AX","alpha3":"ALA","phoneCode":"358"},
        {"title":{"en":"Albania"},"value":"R55","alpha2":"AL","alpha3":"ALB","phoneCode":"355"},
        {"title":{"en":"Algeria"},"value":"R167","alpha2":"DZ","alpha3":"DZA","phoneCode":"213"},
        {"title":{"en":"American Samoa"},"value":"R56","alpha2":"AS","alpha3":"ASM","phoneCode":"1684"},
        {"title":{"en":"Andorra"},"value":"R6","alpha2":"AD","alpha3":"AND","phoneCode":"376"},
        {"title":{"en":"Angola"},"value":"R168","alpha2":"AO","alpha3":"AGO","phoneCode":"244"},
        {"title":{"en":"Anguilla"},"value":"R7","alpha2":"AI","alpha3":"AIA","phoneCode":"1264"},
        {"title":{"en":"Antigua and Barbuda"},"value":"R57","alpha2":"AG","alpha3":"ATG","phoneCode":"1268"},
        {"title":{"en":"Argentina"},"value":"R8","alpha2":"AR","alpha3":"ARG","phoneCode":"54"},
        {"title":{"en":"Armenia"},"value":"R58","alpha2":"AM","alpha3":"ARM","phoneCode":"374"},
        {"title":{"en":"Aruba"},"value":"R59","alpha2":"AW","alpha3":"ABW","phoneCode":"297"},
        {"title":{"en":"Australia"},"value":"R9","alpha2":"AU","alpha3":"AUS","phoneCode":"61"},
        {"title":{"en":"Austria"},"value":"R10","alpha2":"AT","alpha3":"AUT","phoneCode":"43"},
        {"title":{"en":"Azerbaijan"},"value":"R60","alpha2":"AZ","alpha3":"AZE","phoneCode":"994"},
        {"title":{"en":"Bahamas"},"value":"R61","alpha2":"BS","alpha3":"BHS","phoneCode":"1242"},
        {"title":{"en":"Bahrain"},"value":"R62","alpha2":"BH","alpha3":"BHR","phoneCode":"973"},
        {"title":{"en":"Bangladesh"},"value":"R63","alpha2":"BD","alpha3":"BGD","phoneCode":"880"},
        {"title":{"en":"Barbados"},"value":"R11","alpha2":"BB","alpha3":"BRB","phoneCode":"1246"},
        {"title":{"en":"Belarus"},"value":"R169","alpha2":"BY","alpha3":"BLR","phoneCode":"375"},
        {"title":{"en":"Belgium"},"value":"R12","alpha2":"BE","alpha3":"BEL","phoneCode":"32"},
        {"title":{"en":"Belize"},"value":"R64","alpha2":"BZ","alpha3":"BLZ","phoneCode":"501"},
        {"title":{"en":"Benin"},"value":"R170","alpha2":"BJ","alpha3":"BEN","phoneCode":"229"},
        {"title":{"en":"Bermuda"},"value":"R13","alpha2":"BM","alpha3":"BMU","phoneCode":"1441"},
        {"title":{"en":"Bhutan"},"value":"R171","alpha2":"BT","alpha3":"BTN","phoneCode":"975"},
        {"title":{"en":"Bolivia"},"value":"R172","alpha2":"BQ","alpha3":"BOL","phoneCode":"591"},
        {"title":{"en":"Bonaire, St.Eustat, Saba"},"value":"R65","alpha2":"BA","alpha3":"BES","phoneCode":"599"},
        {"title":{"en":"Bosnia and Herzegovina"},"value":"R66","alpha2":"BA","alpha3":"BIH","phoneCode":"387"},
        {"title":{"en":"Botswana"},"value":"R173","alpha2":"BW","alpha3":"BWA","phoneCode":"267"},
        {"title":{"en":"Bouvet Island"},"value":"R67","alpha2":"BV","alpha3":"BVT","phoneCode":"55"},
        {"title":{"en":"Brazil"},"value":"R68","alpha2":"BR","alpha3":"BRA","phoneCode":"55"},
        {"title":{"en":"British Indian Ocean Territory"},"value":"R69","alpha2":"IO","alpha3":"IOT","phoneCode":"246"},
        {"title":{"en":"British Virgin Islands"},"value":"R70","alpha2":"IO","alpha3":"VGB","phoneCode":"678"},
        {"title":{"en":"Bulgaria"},"value":"R71","alpha2":"BG","alpha3":"BGR","phoneCode":"359"},
        {"title":{"en":"Burkina Faso"},"value":"R174","alpha2":"BF","alpha3":"BFA","phoneCode":"226"},
        {"title":{"en":"Burundi"},"value":"R175","alpha2":"BI","alpha3":"BDI","phoneCode":"257"},
        {"title":{"en":"Cambodia"},"value":"R72","alpha2":"KH","alpha3":"KHM","phoneCode":"855"},
        {"title":{"en":"Cameroon"},"value":"R176","alpha2":"CM","alpha3":"CMR","phoneCode":"237"},
        {"title":{"en":"Canada"},"value":"R14","alpha2":"CA","alpha3":"CAN","phoneCode":"01"},
        {"title":{"en":"Cape Verde"},"value":"R73","alpha2":"CV","alpha3":"CPV","phoneCode":"238"},
        {"title":{"en":"Cayman Islands"},"value":"R15","alpha2":"KY","alpha3":"CYM","phoneCode":"1345"},
        {"title":{"en":"Central African Republic"},"value":"R177","alpha2":"CF","alpha3":"CAF","phoneCode":"236"},
        {"title":{"en":"Chad"},"value":"R178","alpha2":"TD","alpha3":"TCD","phoneCode":"235"},
        {"title":{"en":"Chile"},"value":"R16","alpha2":"CL","alpha3":"CHL","phoneCode":"56"},
        {"title":{"en":"China - Major City"},"value":"R51","alpha2":"CN","alpha3":"CHN","phoneCode":"86"},
        {"title":{"en":"China - OTHER THAN Major city"},"value":"R52","alpha2":"CN","alpha3":"CHN","phoneCode":"86"},
        {"title":{"en":"Christmas Island"},"value":"R74","alpha2":"CX","alpha3":"CXR","phoneCode":"61"},
        {"title":{"en":"Cocos (Keeling) Islands"},"value":"R75","alpha2":"CC","alpha3":"CCK","phoneCode":"61"},
        {"title":{"en":"Colombia"},"value":"R179","alpha2":"CO","alpha3":"COL","phoneCode":"57"},
        {"title":{"en":"Comoros"},"value":"R180","alpha2":"KM","alpha3":"COM","phoneCode":"269"},
        {"title":{"en":"Congo, Dem. Rep. of the"},"value":"R181","alpha2":"CD","alpha3":"COD","phoneCode":"243"},
        {"title":{"en":"Congo, Republic of the"},"value":"R182","alpha2":"CG","alpha3":"COG","phoneCode":"242"},
        {"title":{"en":"Cook Islands"},"value":"R76","alpha2":"CK","alpha3":"COK","phoneCode":"682"},
        {"title":{"en":"Costa Rica"},"value":"R17","alpha2":"CR","alpha3":"CRI","phoneCode":"506"},
        {"title":{"en":"Cote D'Ivoire(Ivory Coast)"},"value":"R183","alpha2":"CI","alpha3":"CIV","phoneCode":"225"},
        {"title":{"en":"Croatia"},"value":"R18","alpha2":"HR","alpha3":"HRV","phoneCode":"385"},
        {"title":{"en":"Cuba"},"value":"R184","alpha2":"CU","alpha3":"CUB","phoneCode":"53"},
        {"title":{"en":"Cyprus"},"value":"R19","alpha2":"CY","alpha3":"CYP","phoneCode":"357"},
        {"title":{"en":"Czech Republic"},"value":"R77","alpha2":"CZ","alpha3":"CZE","phoneCode":"420"},
        {"title":{"en":"Denmark"},"value":"R20","alpha2":"DK","alpha3":"DNK","phoneCode":"45"},
        {"title":{"en":"Djibouti"},"value":"R185","alpha2":"DJ","alpha3":"DJI","phoneCode":"253"},
        {"title":{"en":"Dominica"},"value":"R78","alpha2":"DM","alpha3":"DMA","phoneCode":"1767"},
        {"title":{"en":"Dominican Republic"},"value":"R79","alpha2":"DO","alpha3":"DOM","phoneCode":"1809"},
        {"title":{"en":"East Timor (Timor-Leste)"},"value":"R186","alpha2":"TL","alpha3":"TLS","phoneCode":"670"},
        {"title":{"en":"Ecuador"},"value":"R80","alpha2":"EC","alpha3":"ECU","phoneCode":"593"},
        {"title":{"en":"Egypt"},"value":"R187","alpha2":"EG","alpha3":"EGY","phoneCode":"20"},
        {"title":{"en":"El Salvador"},"value":"R81","alpha2":"SV","alpha3":"SLV","phoneCode":"503"},
        {"title":{"en":"Equatorial Guinea"},"value":"R188","alpha2":"GQ","alpha3":"GNQ","phoneCode":"240"},
        {"title":{"en":"Eritrea"},"value":"R189","alpha2":"ER","alpha3":"ERI","phoneCode":"291"},
        {"title":{"en":"Estonia"},"value":"R21","alpha2":"EE","alpha3":"EST","phoneCode":"372"},
        {"title":{"en":"Ethiopia"},"value":"R190","alpha2":"ET","alpha3":"ETH","phoneCode":"251"},
        {"title":{"en":"Falkland Is. (Malvinas)"},"value":"R82","alpha2":"FK","alpha3":"FLK","phoneCode":"500"},
        {"title":{"en":"Faroe Islands"},"value":"R83","alpha2":"FO","alpha3":"FRO","phoneCode":"298"},
        {"title":{"en":"Fiji"},"value":"R84","alpha2":"FJ","alpha3":"FJI","phoneCode":"679"},
        {"title":{"en":"Finland"},"value":"R22","alpha2":"FI","alpha3":"FIN","phoneCode":"358"},
        {"title":{"en":"France"},"value":"R23","alpha2":"FR","alpha3":"FRA","phoneCode":"33"},
        {"title":{"en":"French Guiana"},"value":"R85","alpha2":"GF","alpha3":"GUF","phoneCode":"594"},
        {"title":{"en":"French Polynesia"},"value":"R86","alpha2":"PF","alpha3":"PYF","phoneCode":"689"},
        {"title":{"en":"Gabon"},"value":"R191","alpha2":"GA","alpha3":"GAB","phoneCode":"241"},
        {"title":{"en":"Gambia, the"},"value":"R192","alpha2":"GM","alpha3":"GMB","phoneCode":"500"},
        {"title":{"en":"Georgia"},"value":"R87","alpha2":"GE","alpha3":"GEO","phoneCode":"995"},
        {"title":{"en":"Germany"},"value":"R24","alpha2":"DE","alpha3":"DEU","phoneCode":"49"},
        {"title":{"en":"Ghana"},"value":"R193","alpha2":"GH","alpha3":"GHA","phoneCode":"233"},
        {"title":{"en":"Gibraltar"},"value":"R88","alpha2":"GI","alpha3":"GIB","phoneCode":"350"},
        {"title":{"en":"Greece"},"value":"R25","alpha2":"GR","alpha3":"GRC","phoneCode":"30"},
        {"title":{"en":"Greenland"},"value":"R89","alpha2":"GL","alpha3":"GRL","phoneCode":"299"},
        {"title":{"en":"Grenada"},"value":"R90","alpha2":"GD","alpha3":"GRD","phoneCode":"1473"},
        {"title":{"en":"Guadeloupe"},"value":"R91","alpha2":"GP","alpha3":"GLP","phoneCode":"590"},
        {"title":{"en":"Guam"},"value":"R92","alpha2":"GU","alpha3":"GUM","phoneCode":"1671"},
        {"title":{"en":"Guatemala"},"value":"R93","alpha2":"GT","alpha3":"GTM","phoneCode":"502"},
        {"title":{"en":"Guinea"},"value":"R194","alpha2":"GN","alpha3":"GIN","phoneCode":"224"},
        {"title":{"en":"Guinea, Equatorial"},"value":"R195","alpha2":"GN","alpha3":"GIN","phoneCode":"224"},
        {"title":{"en":"Guinea-Bissau"},"value":"R196","alpha2":"GW","alpha3":"GNB","phoneCode":"245"},
        {"title":{"en":"Guyana"},"value":"R95","alpha2":"GY","alpha3":"GUY","phoneCode":"592"},
        {"title":{"en":"Haiti"},"value":"R197","alpha2":"","alpha3":"","phoneCode":"509"},
        {"title":{"en":"Holy See (Vatican)"},"value":"R26","alpha2":"","alpha3":"","phoneCode":"379"},
        {"title":{"en":"Honduras"},"value":"R97","alpha2":"HN","alpha3":"HND","phoneCode":"504"},
        {"title":{"en":"Hungary"},"value":"R27","alpha2":"HU","alpha3":"HUN","phoneCode":"36"},
        {"title":{"en":"Iceland"},"value":"R28","alpha2":"IS","alpha3":"ISL","phoneCode":"354"},
        {"title":{"en":"India"},"value":"R98","alpha2":"IN","alpha3":"IND","phoneCode":"91"},
        {"title":{"en":"Indonesia"},"value":"R53","alpha2":"ID","alpha3":"IDN","phoneCode":"62"},
        {"title":{"en":"Iran, Islamic Republic of"},"value":"R199","alpha2":"IR","alpha3":"","phoneCode":"98"},
        {"title":{"en":"Iraq"},"value":"R200","alpha2":"IQ","alpha3":"IRQ","phoneCode":"964"},
        {"title":{"en":"Ireland"},"value":"R29","alpha2":"IE","alpha3":"IRL","phoneCode":"353"},
        {"title":{"en":"Israel"},"value":"R99","alpha2":"IL","alpha3":"ISR","phoneCode":"972"},
        {"title":{"en":"Italy"},"value":"R30","alpha2":"IT","alpha3":"ITA","phoneCode":"39"},
        {"title":{"en":"Jamaica"},"value":"R100","alpha2":"JM","alpha3":"JAM","phoneCode":"1876"},
        {"title":{"en":"Japan"},"value":"R201","alpha2":"JP","alpha3":"JPN","phoneCode":"81"},
        {"title":{"en":"Jersey"},"value":"R101","alpha2":"JE","alpha3":"JEY","phoneCode":"441534"},
        {"title":{"en":"Jordan"},"value":"R102","alpha2":"JO","alpha3":"JOR","phoneCode":"962"},
        {"title":{"en":"Kazakhstan"},"value":"R103","alpha2":"KZ","alpha3":"KAZ","phoneCode":"7"},
        {"title":{"en":"Kenya"},"value":"R202","alpha2":"KE","alpha3":"KEN","phoneCode":"254"},
        {"title":{"en":"Kiribati"},"value":"R203","alpha2":"KI","alpha3":"KIR","phoneCode":"686"},
        {"title":{"en":"Korea, (South) Republic of"},"value":"R31","alpha2":"KR","alpha3":"KOR","phoneCode":"850"},
        {"title":{"en":"Kuwait"},"value":"R104","alpha2":"KW","alpha3":"KWT","phoneCode":"965"},
        {"title":{"en":"Kyrgyzstan"},"value":"R105","alpha2":"KG","alpha3":" ","phoneCode":"996"},
        {"title":{"en":"Laos (Lao People's Democ. Rep.)"},"value":"R106","alpha2":"LA","alpha3":"LAO","phoneCode":"856"},
        {"title":{"en":"Latvia"},"value":"R107","alpha2":"LV","alpha3":"LVA","phoneCode":"371"},
        {"title":{"en":"Lebanon"},"value":"R205","alpha2":"LB","alpha3":"LBN","phoneCode":"961"},
        {"title":{"en":"Lesotho"},"value":"R206","alpha2":"LS","alpha3":"LSO","phoneCode":"266"},
        {"title":{"en":"Liberia"},"value":"R207","alpha2":"LR","alpha3":"LBR","phoneCode":"231"},
        {"title":{"en":"Libya"},"value":"R208","alpha2":"LY","alpha3":"LBY","phoneCode":"218"},
        {"title":{"en":"Liechtenstein"},"value":"R32","alpha2":"LI","alpha3":"LIE","phoneCode":"423"},
        {"title":{"en":"Lithuania"},"value":"R108","alpha2":"LT","alpha3":"LTU","phoneCode":"370"},
        {"title":{"en":"Luxembourg"},"value":"R33","alpha2":"","alpha3":"","phoneCode":"352"},
        {"title":{"en":"Macau"},"value":"R34","alpha2":"MO","alpha3":"MAC","phoneCode":"853"},
        {"title":{"en":"Macedonia, TFYR"},"value":"R209","alpha2":"MK","alpha3":"MKD","phoneCode":"389"},
        {"title":{"en":"Madagascar"},"value":"R210","alpha2":"MG","alpha3":"MDG","phoneCode":"261"},
        {"title":{"en":"Malawi"},"value":"R211","alpha2":"MW","alpha3":"MWI","phoneCode":"265"},
        {"title":{"en":"Maldives"},"value":"R109","alpha2":"MV","alpha3":"MDV","phoneCode":"960"},
        {"title":{"en":"Mali"},"value":"R212","alpha2":"ML","alpha3":"MLI","phoneCode":"223"},
        {"title":{"en":"Malta"},"value":"R110","alpha2":"MT","alpha3":"MLT","phoneCode":"356"},
        {"title":{"en":"Man, Isle of"},"value":"R111","alpha2":"IM","alpha3":"IMN","phoneCode":"441624"},
        {"title":{"en":"Marshall Islands"},"value":"R112","alpha2":"MH","alpha3":"MHL","phoneCode":"692"},
        {"title":{"en":"Martinique (FR)"},"value":"R113","alpha2":"MQ","alpha3":"MTQ","phoneCode":"596"},
        {"title":{"en":"Mauritania"},"value":"R213","alpha2":"MR","alpha3":"MRT","phoneCode":"222"},
        {"title":{"en":"Mauritius"},"value":"R114","alpha2":"MU","alpha3":"MUS","phoneCode":"230"},
        {"title":{"en":"Mayotte (FR)"},"value":"R214","alpha2":"YT","alpha3":"MYT","phoneCode":"262"},
        {"title":{"en":"Mexico"},"value":"R115","alpha2":"MX","alpha3":"MEX","phoneCode":"52"},
        {"title":{"en":"Micronesia, Fed. States of"},"value":"R116","alpha2":"FM","alpha3":"FSM","phoneCode":"691"},
        {"title":{"en":"Moldova, Republic of"},"value":"R215","alpha2":"MD","alpha3":"MDA","phoneCode":"373"},
        {"title":{"en":"Monaco"},"value":"R35","alpha2":"MC","alpha3":"MCO","phoneCode":"377"},
        {"title":{"en":"Mongolia"},"value":"R216","alpha2":"MN","alpha3":"MNG","phoneCode":"976"},
        {"title":{"en":"Montenegro"},"value":"R117","alpha2":"","alpha3":"","phoneCode":"382"},
        {"title":{"en":"Montserrat"},"value":"R118","alpha2":"MS","alpha3":"MSR","phoneCode":"1664"},
        {"title":{"en":"Morocco"},"value":"R119","alpha2":"MA","alpha3":"MAR","phoneCode":"212"},
        {"title":{"en":"Mozambique"},"value":"R217","alpha2":"MZ","alpha3":"MOZ","phoneCode":"258"},
        {"title":{"en":"Myanmar"},"value":"R120","alpha2":"MM","alpha3":"MMR","phoneCode":"95"},
        {"title":{"en":"Namibia"},"value":"R218","alpha2":"NA","alpha3":"NAM","phoneCode":"264"},
        {"title":{"en":"Nauru"},"value":"R121","alpha2":"NR","alpha3":"NRU","phoneCode":"674"},
        {"title":{"en":"Nepal"},"value":"R219","alpha2":"NP","alpha3":"NPL","phoneCode":"977"},
        {"title":{"en":"Netherlands"},"value":"R36","alpha2":"NL","alpha3":"NLD","phoneCode":"31"},
        {"title":{"en":"Netherlands Antilles"},"value":"R37","alpha2":"NL","alpha3":"NLD","phoneCode":"599"},
        {"title":{"en":"New Caledonia"},"value":"R122","alpha2":"NC","alpha3":"NCL","phoneCode":"687"},
        {"title":{"en":"New Zealand"},"value":"R38","alpha2":"NZ","alpha3":"NZL","phoneCode":"64"},
        {"title":{"en":"Nicaragua"},"value":"R123","alpha2":"NI","alpha3":"NIC","phoneCode":"505"},
        {"title":{"en":"Niger"},"value":"R220","alpha2":"","alpha3":"","phoneCode":"227"},
        {"title":{"en":"Nigeria"},"value":"R221","alpha2":"NG","alpha3":"NGA","phoneCode":"234"},
        {"title":{"en":"Niue"},"value":"R124","alpha2":"NU","alpha3":"NIU","phoneCode":"683"},
        {"title":{"en":"Norfolk Island"},"value":"R125","alpha2":"NF","alpha3":"NFK","phoneCode":"683"},
        {"title":{"en":"North Korea (Korea Dem. People's Rep.)"},"value":"R222","alpha2":"KP","alpha3":"PRK","phoneCode":"850"},
        {"title":{"en":"Northern Mariana Islands"},"value":"R126","alpha2":"MP","alpha3":"MNP","phoneCode":"1670"},
        {"title":{"en":"Norway"},"value":"R39","alpha2":"NO","alpha3":"NOR","phoneCode":"47"},
        {"title":{"en":"Oman"},"value":"R127","alpha2":"OM","alpha3":"OMN","phoneCode":"968"},
        {"title":{"en":"Pakistan"},"value":"R223","alpha2":"PK","alpha3":"PAK","phoneCode":"92"},
        {"title":{"en":"Palau"},"value":"R129","alpha2":"PW","alpha3":"PLW","phoneCode":"680"},
        {"title":{"en":"Palestinian Territory"},"value":"R224","alpha2":"PS","alpha3":"PSE","phoneCode":"970"},
        {"title":{"en":"Panama"},"value":"R130","alpha2":"PA","alpha3":"PAN","phoneCode":"507"},
        {"title":{"en":"Papua New Guinea"},"value":"R131","alpha2":"PG","alpha3":"PNG","phoneCode":"675"},
        {"title":{"en":"Paraguay"},"value":"R132","alpha2":"PY","alpha3":"PRY","phoneCode":"595"},
        {"title":{"en":"Peru"},"value":"R133","alpha2":"PE","alpha3":"PER","phoneCode":"51"},
        {"title":{"en":"Philippines"},"value":"R134","alpha2":"PH","alpha3":"PHL","phoneCode":"63"},
        {"title":{"en":"Pitcairn Island"},"value":"R135","alpha2":"PN","alpha3":"PCN","phoneCode":"64"},
        {"title":{"en":"Poland"},"value":"R40","alpha2":"PL","alpha3":"POL","phoneCode":"48"},
        {"title":{"en":"Portugal"},"value":"R41","alpha2":"PT","alpha3":"PRT","phoneCode":"351"},
        {"title":{"en":"Puerto Rico"},"value":"R42","alpha2":"PR","alpha3":"PRI","phoneCode":"1787"},
        {"title":{"en":"Qatar"},"value":"R136","alpha2":"QA","alpha3":"QAT","phoneCode":"974"},
        {"title":{"en":"Reunion (FR)"},"value":"R225","alpha2":"RE","alpha3":"REU","phoneCode":"262"},
        {"title":{"en":"Romania"},"value":"R137","alpha2":"RO","alpha3":"ROU","phoneCode":"40"},
        {"title":{"en":"Russia (Russian Fed.)"},"value":"R164","alpha2":"RU","alpha3":"RUS","phoneCode":"7"},
        {"title":{"en":"Rwanda"},"value":"R226","alpha2":"RW","alpha3":"RWA","phoneCode":"250"},
        {"title":{"en":"Saint Barthelemy (FR)"},"value":"R138","alpha2":"BL","alpha3":"BLM","phoneCode":"590"},
        {"title":{"en":"Saint Helena "},"value":"R139","alpha2":"SH","alpha3":"SHN","phoneCode":"290"},
        {"title":{"en":"Saint Kitts and Nevis"},"value":"R140","alpha2":"KN","alpha3":"KNA","phoneCode":"1869"},
        {"title":{"en":"Saint Lucia"},"value":"R141","alpha2":"LC","alpha3":"LCA","phoneCode":"1758"},
        {"title":{"en":"Saint Martin (FR)"},"value":"R142","alpha2":"MF","alpha3":"MAF","phoneCode":"590"},
        {"title":{"en":"Saint Pierre and Miquelon "},"value":"R143","alpha2":"PM","alpha3":"SPM","phoneCode":"508"},
        {"title":{"en":"Saint Vincent and the Grenadines "},"value":"R144","alpha2":"VC","alpha3":"VCT","phoneCode":"1784"},
        {"title":{"en":"Samoa"},"value":"R227","alpha2":"WS","alpha3":"WSM","phoneCode":"685"},
        {"title":{"en":"San Marino"},"value":"R43","alpha2":"SM","alpha3":"SMR","phoneCode":"378"},
        {"title":{"en":"Sao Tome and Principe"},"value":"R228","alpha2":"ST","alpha3":"STP","phoneCode":"239"},
        {"title":{"en":"Saudi Arabia"},"value":"R145","alpha2":"SA","alpha3":"SAU","phoneCode":"966"},
        {"title":{"en":"Senegal"},"value":"R229","alpha2":"SN","alpha3":"SEN","phoneCode":"221"},
        {"title":{"en":"Serbia"},"value":"R146","alpha2":"RS","alpha3":"SRB","phoneCode":"381"},
        {"title":{"en":"Seychelles"},"value":"R230","alpha2":"SC","alpha3":"SYC","phoneCode":"248"},
        {"title":{"en":"Sierra Leone"},"value":"R231","alpha2":"SL","alpha3":"SLE","phoneCode":"232"},
        {"title":{"en":"Slovakia"},"value":"R44","alpha2":"SK","alpha3":"SVK","phoneCode":"421"},
        {"title":{"en":"Slovenia"},"value":"R45","alpha2":"SI","alpha3":"SVN","phoneCode":"386"},
        {"title":{"en":"Solomon Islands"},"value":"R232","alpha2":"SB","alpha3":"SLB","phoneCode":"677"},
        {"title":{"en":"Somalia"},"value":"R233","alpha2":"SO","alpha3":"SOM","phoneCode":"252"},
        {"title":{"en":"South Africa"},"value":"R147","alpha2":"ZA","alpha3":"ZAF","phoneCode":"27"},
        {"title":{"en":"South Sudan"},"value":"R234","alpha2":"SS","alpha3":"SSD","phoneCode":"211"},
        {"title":{"en":"Spain"},"value":"R46","alpha2":"ES","alpha3":"ESP","phoneCode":"34"},
        {"title":{"en":"Sri Lanka "},"value":"R149","alpha2":"LK","alpha3":"LKA","phoneCode":"94"},
        {"title":{"en":"Sudan"},"value":"R235","alpha2":"SD","alpha3":"SDN","phoneCode":"249"},
        {"title":{"en":"Suriname"},"value":"R236","alpha2":"SR","alpha3":"SUR","phoneCode":"597"},
        {"title":{"en":"Svalbard & Jan Mayen Is."},"value":"R150","alpha2":"SJ","alpha3":"SJM","phoneCode":"47"},
        {"title":{"en":"Swaziland"},"value":"R237","alpha2":"SZ","alpha3":"SWZ","phoneCode":"268"},
        {"title":{"en":"Sweden"},"value":"R47","alpha2":"SE","alpha3":"SWE","phoneCode":"46"},
        {"title":{"en":"Switzerland"},"value":"R48","alpha2":"CH","alpha3":"CHE","phoneCode":"41"},
        {"title":{"en":"Syrian Arab Republic"},"value":"R238","alpha2":"SY","alpha3":"SYR","phoneCode":"963"},
        {"title":{"en":"Tajikistan"},"value":"R151","alpha2":"TJ","alpha3":"TJK","phoneCode":"992"},
        {"title":{"en":"Tanzania, United Rep. of"},"value":"R239","alpha2":"TZ","alpha3":"TZA","phoneCode":"255"},
        {"title":{"en":"Thailand"},"value":"R54","alpha2":"TH","alpha3":"THA","phoneCode":"66"},
        {"title":{"en":"Togo"},"value":"R241","alpha2":"TG","alpha3":"TGO","phoneCode":"228"},
        {"title":{"en":"Tokelau"},"value":"R152","alpha2":"TK","alpha3":"TKL","phoneCode":"690"},
        {"title":{"en":"Tonga"},"value":"R153","alpha2":"TO","alpha3":"TON","phoneCode":"676"},
        {"title":{"en":"Trinidad & Tobago"},"value":"R154","alpha2":"TT","alpha3":"TTO","phoneCode":"1868"},
        {"title":{"en":"Tunisia"},"value":"R155","alpha2":"TN","alpha3":"TUN","phoneCode":"216"},
        {"title":{"en":"Turkey"},"value":"R156","alpha2":"TR","alpha3":"TUR","phoneCode":"90"},
        {"title":{"en":"Turkmenistan"},"value":"R242","alpha2":"TM","alpha3":"TKM","phoneCode":"993"},
        {"title":{"en":"Turks and Caicos Is."},"value":"R157","alpha2":"TC","alpha3":"TCA","phoneCode":"1649"},
        {"title":{"en":"Tuvalu"},"value":"R243","alpha2":"TV","alpha3":"TUV","phoneCode":"688"},
        {"title":{"en":"Uganda"},"value":"R244","alpha2":"UG","alpha3":"UGA","phoneCode":"256"},
        {"title":{"en":"Ukraine"},"value":"R245","alpha2":"UA","alpha3":"UKR","phoneCode":"380"},
        {"title":{"en":"United Arab Emirates"},"value":"R49","alpha2":"AE","alpha3":"ARE","phoneCode":"971"},
        {"title":{"en":"United Kingdom"},"value":"R50","alpha2":"GB","alpha3":"GBR","phoneCode":"44"},
        {"title":{"en":"United States"},"value":"R252","alpha2":"US","alpha3":"USA","phoneCode":"1"},
        {"title":{"en":"Uruguay"},"value":"R158","alpha2":"UY","alpha3":"URY","phoneCode":"598"},
        {"title":{"en":"Uzbekistan"},"value":"R246","alpha2":"UZ","alpha3":"UZB","phoneCode":"998"},
        {"title":{"en":"Vanuatu"},"value":"R247","alpha2":"VU","alpha3":"VUT","phoneCode":"678"},
        {"title":{"en":"Venezuela"},"value":"R159","alpha2":"VE","alpha3":"VEN","phoneCode":"58"},
        {"title":{"en":"Vietnam"},"value":"R160","alpha2":"VN","alpha3":"VNM","phoneCode":"84"},
        {"title":{"en":"Virgin Islands, U.S."},"value":"R161","alpha2":"VI","alpha3":"VIR","phoneCode":"1340"},
        {"title":{"en":"Wallis and Futuna"},"value":"R162","alpha2":"WF","alpha3":"WLF","phoneCode":"681"},
        {"title":{"en":"Western Sahara"},"value":"R248","alpha2":"EH","alpha3":"ESH","phoneCode":"212"},
        {"title":{"en":"Yemen"},"value":"R249","alpha2":"YE","alpha3":"YEM","phoneCode":"967"},
        {"title":{"en":"Zambia"},"value":"R250","alpha2":"ZM","alpha3":"ZMB","phoneCode":"260"},
        {"title":{"en":"Zimbabwe"},"value":"R251","alpha2":"ZW","alpha3":"ZWE","phoneCode":"263"},
        {"title":{"en":"N/A"},"value":"na"}
	]
}
