{
	"type": "layout",
	"options": [
		{"riderCD":"LTTN","classCD":"S"},
		{"riderCD":"LTTT","classCD":"S"},
		{"riderCD":"01SV","classCD":"S"},
		{"riderCD":"05SV","classCD":"S"},
		{"riderCD":"10SV","classCD":"S"},
		{"riderCD":"15SV","classCD":"S"},
		{"riderCD":"20SV","classCD":"S"},
		{"riderCD":"99SV","classCD":"S"},
		{"riderCD":"10MBDA","classCD":"S"},
		{"riderCD":"10MBDB","classCD":"S"},
		{"riderCD":"10MBDC","classCD":"S"},
		{"riderCD":"10MBDD","classCD":"S"},
		{"riderCD":"10MBDE","classCD":"S"},
		{"riderCD":"10MBDF","classCD":"S"},
		{"riderCD":"15MBDA","classCD":"S"},
		{"riderCD":"15MBDB","classCD":"S"},
		{"riderCD":"15MBDC","classCD":"S"},
		{"riderCD":"15MBDD","classCD":"S"},
		{"riderCD":"15MBDE","classCD":"S"},
		{"riderCD":"15MBDF","classCD":"S"},
		{"riderCD":"20MBDA","classCD":"S"},
		{"riderCD":"20MBDB","classCD":"S"},
		{"riderCD":"20MBDC","classCD":"S"},
		{"riderCD":"20MBDD","classCD":"S"},
		{"riderCD":"20MBDE","classCD":"S"},
		{"riderCD":"20MBDF","classCD":"S"},
		{"riderCD":"25MBDA","classCD":"S"},
		{"riderCD":"25MBDB","classCD":"S"},
		{"riderCD":"25MBDC","classCD":"S"},
		{"riderCD":"25MBDD","classCD":"S"},
		{"riderCD":"25MBDE","classCD":"S"},
		{"riderCD":"25MBDF","classCD":"S"},
		{"riderCD":"30MBDA","classCD":"S"},
		{"riderCD":"30MBDB","classCD":"S"},
		{"riderCD":"30MBDC","classCD":"S"},
		{"riderCD":"30MBDD","classCD":"S"},
		{"riderCD":"30MBDE","classCD":"S"},
		{"riderCD":"30MBDF","classCD":"S"},
		{"riderCD":"10MBTA","classCD":"S"},
		{"riderCD":"10MBTB","classCD":"S"},
		{"riderCD":"10MBTC","classCD":"S"},
		{"riderCD":"10MBTD","classCD":"S"},
		{"riderCD":"10MBTE","classCD":"S"},
		{"riderCD":"10MBTF","classCD":"S"},
		{"riderCD":"15MBTA","classCD":"S"},
		{"riderCD":"15MBTB","classCD":"S"},
		{"riderCD":"15MBTC","classCD":"S"},
		{"riderCD":"15MBTD","classCD":"S"},
		{"riderCD":"15MBTE","classCD":"S"},
		{"riderCD":"15MBTF","classCD":"S"},
		{"riderCD":"20MBTA","classCD":"S"},
		{"riderCD":"20MBTB","classCD":"S"},
		{"riderCD":"20MBTC","classCD":"S"},
		{"riderCD":"20MBTD","classCD":"S"},
		{"riderCD":"20MBTE","classCD":"S"},
		{"riderCD":"20MBTF","classCD":"S"},
		{"riderCD":"25MBTA","classCD":"S"},
		{"riderCD":"25MBTB","classCD":"S"},
		{"riderCD":"25MBTC","classCD":"S"},
		{"riderCD":"25MBTD","classCD":"S"},
		{"riderCD":"25MBTE","classCD":"S"},
		{"riderCD":"25MBTF","classCD":"S"},
		{"riderCD":"30MBTA","classCD":"S"},
		{"riderCD":"30MBTB","classCD":"S"},
		{"riderCD":"30MBTC","classCD":"S"},
		{"riderCD":"30MBTD","classCD":"S"},
		{"riderCD":"30MBTE","classCD":"S"},
		{"riderCD":"30MBTF","classCD":"S"},
		{"riderCD":"10MBCA","classCD":"S"},
		{"riderCD":"10MBCB","classCD":"S"},
		{"riderCD":"10MBCC","classCD":"S"},
		{"riderCD":"10MBCD","classCD":"S"},
		{"riderCD":"10MBCE","classCD":"S"},
		{"riderCD":"10MBCF","classCD":"S"},
		{"riderCD":"15MBCA","classCD":"S"},
		{"riderCD":"15MBCB","classCD":"S"},
		{"riderCD":"15MBCC","classCD":"S"},
		{"riderCD":"15MBCD","classCD":"S"},
		{"riderCD":"15MBCE","classCD":"S"},
		{"riderCD":"15MBCF","classCD":"S"},
		{"riderCD":"20MBCA","classCD":"S"},
		{"riderCD":"20MBCB","classCD":"S"},
		{"riderCD":"20MBCC","classCD":"S"},
		{"riderCD":"20MBCD","classCD":"S"},
		{"riderCD":"20MBCE","classCD":"S"},
		{"riderCD":"20MBCF","classCD":"S"},
		{"riderCD":"25MBCA","classCD":"S"},
		{"riderCD":"25MBCB","classCD":"S"},
		{"riderCD":"25MBCC","classCD":"S"},
		{"riderCD":"25MBCD","classCD":"S"},
		{"riderCD":"25MBCE","classCD":"S"},
		{"riderCD":"25MBCF","classCD":"S"},
		{"riderCD":"30MBCA","classCD":"S"},
		{"riderCD":"30MBCB","classCD":"S"},
		{"riderCD":"30MBCC","classCD":"S"},
		{"riderCD":"30MBCD","classCD":"S"},
		{"riderCD":"30MBCE","classCD":"S"},
		{"riderCD":"30MBCF","classCD":"S"},
		{"riderCD":"10MBEA","classCD":"S"},
		{"riderCD":"10MBEB","classCD":"S"},
		{"riderCD":"10MBEC","classCD":"S"},
		{"riderCD":"10MBED","classCD":"S"},
		{"riderCD":"10MBEE","classCD":"S"},
		{"riderCD":"10MBEF","classCD":"S"},
		{"riderCD":"15MBEA","classCD":"S"},
		{"riderCD":"15MBEB","classCD":"S"},
		{"riderCD":"15MBEC","classCD":"S"},
		{"riderCD":"15MBED","classCD":"S"},
		{"riderCD":"15MBEE","classCD":"S"},
		{"riderCD":"15MBEF","classCD":"S"},
		{"riderCD":"20MBEA","classCD":"S"},
		{"riderCD":"20MBEB","classCD":"S"},
		{"riderCD":"20MBEC","classCD":"S"},
		{"riderCD":"20MBED","classCD":"S"},
		{"riderCD":"20MBEE","classCD":"S"},
		{"riderCD":"20MBEF","classCD":"S"},
		{"riderCD":"25MBEA","classCD":"S"},
		{"riderCD":"25MBEB","classCD":"S"},
		{"riderCD":"25MBEC","classCD":"S"},
		{"riderCD":"25MBED","classCD":"S"},
		{"riderCD":"25MBEE","classCD":"S"},
		{"riderCD":"25MBEF","classCD":"S"},
		{"riderCD":"30MBEA","classCD":"S"},
		{"riderCD":"30MBEB","classCD":"S"},
		{"riderCD":"30MBEC","classCD":"S"},
		{"riderCD":"30MBED","classCD":"S"},
		{"riderCD":"30MBEE","classCD":"S"},
		{"riderCD":"30MBEF","classCD":"S"}
	]
}
