{
	"prod__startTime": "2018-07-15T16:00:00.000Z",
	"prod__endTime": "2018-10-04T15:59:59.999Z",
	"startTime": "2018-06-30T16:00:00.000Z",
  "endTime": "2018-09-24T15:59:59.999Z",
  "groupTitle": "Ongoing Campaign!",
	"messageId": "campaign_LMP0718_1_MSG",
	"messagePriorityInAlertBox": 1,
	"messageGroup": "campaignMsg",
	"groupPriority": 2,
	"messageMapping" :{
		"JSON": [
			{
				"from": "startTime",
				"to": "{{{startDate}}}",
				"format": "DATE"
			}
		]
	},
	"message": "EAB Life MultiProtect Premium discount campaign: {{{startDate}}}",
	"campaignCode": "LMP0718",
	"campaignId": "campaign_LMP0718_1",
	"impactedPlan": {
		"LMP":[
			{
				"discount": 0.05
			}
		],
		"MBX": [
			{
            	"discount": 0.15
			}
		],
		"ADBX": [
			{
            	"discount": 0.15
			}
		],
		"TPDX": [
			{
            	"discount": 0.15
			}
		]
	},
	"type": "campaign"
}
