{ 
    "type":"agent",
    "compCode":	"AG",
    "agentCode": "000004",
    "role":	"02",
    "name":	"F4655868P Broker",
    "profileId":	"F4655868P",
    "channel":	"BROKER",
    "createDate": "1/7/2017",
    "lastUpdateDate":	"14/7/2017",
    "company":	"IFA Singapore",
    "tel": "99000004",
    "mobile": "66000004",
    "email":	"F4655868P@eabsystems.com",
    "position":	"Financial Advisor",
    "manager": "F4655868P Broker(M)",
    "managerCode": "999999",
    "achievements": "AXA Signature, MDRT, SUPER MDRT",
    "authorised":   "M9A,M9,M5,HI,M8, M8A"
}
