{
	"log": [
		"CRUD",
		"CRUD+",
		"HTTP",
		"HTTP+",
		"Access",
		"Cache",
		"Shadow",
		"Shadow+",
		"Changes",
		"Changes+"
	],
	"interface": ":4984",
	"adminInterface": ":4985",
	"databases": {
		"axasgsit": {
			"users": {
				"GUEST": {
					"disabled": true
				},
				"easeWeb": {
				    "disabled": false,
					"password": "ABC1234"
				}
			},
			"unsupported": {
                "user_views": {
                    "enabled":true
                }
            },
			"server": "http://192.168.222.178,192.168.222.179,192.168.222.180:8091",
			"bucket": "AXASGSIT",
			"import_docs": true,
			"sync": "function(doc, oldDoc){requireUser('easeWeb');}"
		}
	}
}