{
	"type": "layout",
	"options": [
		{"title":{"en":"Singapore"},"value":"SGP"},
		{"title":{"en":"Australia"},"value":"AUS"},
		{"title":{"en":"Brunei Darussalam"},"value":"BRN"},
		{"title":{"en":"China - Major City"},"value":"CHN"},
		{"title":{"en":"China - other than Major city"},"value":"CHN"},
		{"title":{"en":"Hong Kong"},"value":"HKG"},	
		{"title":{"en":"Indonesia"},"value":"IDN"},
		{"title":{"en":"India"},"value":"IND"},
		{"title":{"en":"Italy"},"value":"ITA"},
		{"title":{"en":"Cambodia"},"value":"KHM"},
		{"title":{"en":"Laos (Lao People's Democ. Rep.)"},"value":"LAO"},
		{"title":{"en":"Malaysia"},"value":"MYS"},
		{"title":{"en":"New Zealand"},"value":"NZL"},
		{"title":{"en":"Philippines"},"value":"PHL"},
		{"title":{"en":"Korea, (South) Republic of"},"value":"PRK"},
		{"title":{"en":"Thailand"},"value":"THA"},
		{"title":{"en":"Taiwan"},"value":"TWN"},
		{"title":{"en":"Vietnam"},"value":"VNM"},
		{"title":{"en":"United Kingdom"},"value":"UKB"},
		{"title":{"en":"Japan"},"value":"JPN"}
	]
}