
{
    "compCode"  : "08",
    "type"      : "material",
    "section"   : "General Provision",
    "sectionId" : "gprov",
    "name"      : "Critical Illness Plus (EAB Life MultiProtect and EAB Life Treasure) SP Oct 2018",
    "id"        : "genprov33_1",
    "effDate"   : "2017-05-22 14:10:34",
    "expDate"   : "2118-05-22 14:19:47"  
}