
{
    "compCode"  : "08",
    "type"      : "material",
    "section"   : "General Provision",
    "sectionId" : "gprov",
    "name"      : "Term Protector Prime (To Age) GP Nov 2018",
    "id"        : "genprov84_1",
    "effDate"   : "2017-05-22 14:10:34",
    "expDate"   : "2118-05-22 14:19:47"  
}