
{
  "compCode"  : "08",
  "type"      : "material",
  "section"   : "NB Admin Form",
  "sectionId" : "nbadmin",
  "name"      : "Certificate of Endorsement for EAB@Post",
  "id"        : "NBform32_1",
  "effDate"   : "2017-05-22 14:10:34",
  "expDate"   : "2118-05-22 14:19:47"
}
