
{
    "compCode"  : "08",
    "type"      : "material",
    "section"   : "Policy Servicing Forms",
    "sectionId" : "polform",
    "name"      : "Policy Novation Form",
    "id"        : "PolForm20_1",
    "effDate"   : "2017-05-22 14:10:34",
    "expDate"   : "2118-05-22 14:19:47",
    "updDate"   : "2018-12-17 14:10:34"  
}