
{
    "compCode"  : "08",
    "type"      : "material",
    "section"   : "Policy Servicing Forms",
    "sectionId" : "polform",
    "name"      : "ILP Fund Switching Form (Generic)",
    "id"        : "PolForm17_1",
    "effDate"   : "2017-05-22 14:10:34",
    "expDate"   : "2118-05-22 14:19:47"  
}