{
    "compCode"  : "08",
    "type"      : "material",
    "section"   : "Product Summary",
    "sectionId" : "prod",
    "name"      : "PremiumEraser Total PS Nov 2017",
    "id"        : "prod55_1",
    "effDate"   : "2017-05-22 14:10:34",
    "expDate"   : "2118-05-22 14:19:47"  
}