
{
    "compCode"  : "08",
    "type"      : "material",
    "section"   : "PULSAR Fund Range",
    "sectionId" : "pulf",
    "name"      : "AllianceBernstein Emerging Markets Multi-Asset Portfolio (USD)",
    "id"        : "pul01a_1",
    "effDate"   : "2017-05-22 14:10:34",
    "expDate"   : "2118-05-22 14:19:47",
    "releaseDate":"2019-04-02 09:11:59"      
}