
{
    "compCode"  : "08",
    "type"      : "material",
    "section"   : "PULSAR Fund Range",
    "sectionId" : "pulf",
    "name"      : "Schroder Singapore Fixed Income Fund (SGD)",
    "id"        : "pul81_1",
    "effDate"   : "2017-05-22 14:10:34",
    "expDate"   : "2118-05-22 14:19:47"  
}