
{
    "compCode"  : "08",
    "type"      : "material",
    "section"   : "Questionnaire",
    "sectionId" : "ques",
    "name"      : "Migraine Headache Questionnaire",
    "id"        : "questionnaire24_1",
    "effDate"   : "2017-05-22 14:10:34",
    "expDate"   : "2118-05-22 14:19:47"  
}