{
    "compCode": "08",
    "expDate": "2118-07-27 16:00:00",
    "footer": {
        "en": "",
        "zh-Hant": "<p></p>"
    },
    "formulas": {
        "prepareReportData": "function(quotation, planInfo, planDetails, extraPara) { var retVal ={}; var psPlanFields =[]; for (var i = 0; i < quotation.plans.length; i++) { var plan = quotation.plans[i]; var planName = plan.covName.en; var polTerm = { planName : planName, }; psPlanFields.push(polTerm); } retVal.psPlanFields = psPlanFields; return retVal;}"
    },
    "header": {
        "en": "",
        "zh-Hant": "<p></p>"
    },
    "launchDate": "2018-10-07 16:00:00",
    "overlay": {
        "en": ""
    },
    "pdfCode": "DTS_JOINT_ACK",
    "pdfName": {
        "en": "DTS_JOINT_ACK",
        "zh-Hant": "TPX Product Summary",
        "zh-tw": "SAV_PROD_SUMMARY"
    },
    "releaseDate": "2018-11-26 10:08:26",
    "remarks": {
        "en": "Remarks",
        "zh-tw": "SAV_PROD_SUMMARY"
    },
    "status": "A",
    "style": "",
    "template": {
        "en": [
            "<div class=\"global_prodSumm\">\n    <table class=\"w100\">\n        <colgroup>\n            <col style=\"width:40%\" />\n            <col style=\"width:60%\" />\n        </colgroup>\n        <tbody>\n            <tr>\n                <td colspan=\"2\" style=\"text-align: center; padding-bottom: 10px;\">\n                    <b>ACKNOWLEDGEMENT</b>\n                </td>\n            </tr>\n\n            <tr>\n                <td colspan=\"2\"><br/></td>\n            </tr>\n\n            <tr>\n            <td colspan=\"2\"><br/></td>\n            </tr>\n\n            <tr>\n            <td colspan=\"2\"><br/></td>\n            </tr>\n\n            <tr>\n                <td colspan=\"2\" class=\"vtop tleft\"><u><b>Presented to:</b></u></td>\n            </tr>\n            <xsl:if test=\"*/mainInfo/sameAs='N'\">\n                <tr>\n                    <td class=\"vtop tleft\" style=\"padding-top:3px;\">Name of Proposer/Life Assured 1</td>\n                    <td class=\"vtop tleft\" style=\"padding-top:3px;\">:\n                       <xsl:value-of select=\"*/mainInfo/pName\" />\n                    </td>\n                </tr>\n            </xsl:if>\n            <tr>\n                <td class=\"vtop tleft\" style=\"padding-top:3px;\">Name of Joint Applicant/Life Assured 2</td>\n                <td class=\"vtop tleft\" style=\"padding-top:3px;\">:\n                   <xsl:value-of select=\"*/mainInfo/name\" />\n                </td>\n            </tr>\n            <tr>\n                <td colspan=\"2\" class=\"vtop tleft\">\n                    <br/>\n                </td>\n            </tr>\n            <tr>\n                <td colspan=\"2\" class=\"vtop tleft\"><u><b>Your Plan and Rider(s), if any:</b></u></td>\n            </tr>\n            <xsl:for-each select=\"*/psPlanFields\">\n                <tr>\n                    <td colspan=\"2\" class=\"vtop tleft\">\n                        <div style=\"padding-top:3px;\">\n                            <xsl:value-of select=\"planName\" />\n                        </div>\n                    </td>\n                </tr>\n            </xsl:for-each>\n            <tr>\n                <td colspan=\"2\" class=\"vtop tleft\">\n                    <br/>\n                </td>\n            </tr>\n        </tbody>\n    </table>\n    <table class=\"w100\">\n        <colgroup>\n            <col style=\"width:2%\" />\n            <col style=\"width:98%\" />\n        </colgroup>\n        <tr>\n            <td colspan=\"2\" class=\"vtop tleft\"><u><b>Client(s) Acknowledgement:</b></u></td>\n        </tr>\n        <tr>\n            <td colspan=\"2\" class=\"vtop tleft\">\n                <br/>\n            </td>\n        </tr>\n        <tr>\n            <td class=\"vtop tleft\">1.</td>\n            <td class=\"vtop tleft\">\n                <div>I / We confirm that I / We have received all pages of the Policy Illustration for the basic plan and/or all riders listed above, where applicable.</div>\n            </td>\n        </tr>\n        <tr>\n            <td colspan=\"2\" class=\"vtop tleft\">\n                <br/>\n            </td>\n        </tr>\n        <tr>\n            <td class=\"vtop tleft\">2.</td>\n            <td class=\"vtop tleft\">\n                <div>I / We confirm that I / We have received all pages of the Product Summary for the basic plan and/or riders listed above where applicable, and that the terms and conditions of the policy as set out in the Product Summary have been explained\n                    to me and that I understand the features of the policy and the applicable fees and charges.</div>\n            </td>\n        </tr>\n    </table>\n</div>\n<xsl:if test=\"*/mainInfo/quickQuote='N'\">\n    <div style=\"position:absolute;bottom: 100px;width:calc(100% - 50px);\">\n        <table style=\"text-align: left; table-layout: fixed; width: 100%; font-size: 10pt; margin: 0 auto;\">\n            <tbody>\n                <tr style=\"color: white;\">\n                    <td style=\"padding-left: 50px;\">\n                        <div style=\"border-bottom: solid 1px black; width: 80%;\">ADVISOR_SIGNATURE</div>\n                    </td>\n                    <td style=\"padding-left: 50px;\">\n                        <div style=\"border-bottom: solid 1px black; width: 80%;\">PROPOSER_SIGNATURE</div>\n                    </td>\n                </tr>\n                <tr>\n                    <td style=\"padding-left: 50px; padding-top: 10px;\">Adviser's Signature</td>\n                    <td style=\"padding-left: 50px; padding-top: 10px;\">Proposer's Signature</td>\n                </tr>\n                <tr>\n                    <td style=\"padding-left: 50px;\">Date:</td>\n                    <td style=\"padding-left: 50px;\">Date:</td>\n                </tr>\n            </tbody>\n        </table>\n    </div>\n</xsl:if>"
        ],
        "zh-Hant": []
    },
    "type": "pdfTemplate",
    "version": 1
}