{
    "compCode": "08",
    "expDate": "2049-12-28 07:23:47",
    "footer": {
        "en": "<div class=\"global_intro\"><xsl:if test=\"*/mainInfo/quickQuote='Y'\">\n<table style=\"text-align: left; table-layout: fixed; width: 100%; font-size: 10pt; margin: 0 auto;\">\n<tbody>\n<tr style=\"color: white;\">\n<td style=\"padding-left: 50px;\">\n<div style=\"border-bottom: solid 1px black; width: 80%;\">1</div>\n</td>\n<td style=\"padding-left: 50px;\">\n<div style=\"border-bottom: solid 1px black; width: 80%;\">2</div>\n</td>\n</tr>\n<tr>\n<td style=\"padding-left: 50px; padding-top: 3px;\">Adviser's Signature</td>\n<td style=\"padding-left: 50px; padding-top: 3px;\">Proposer's Signature</td>\n</tr>\n<tr>\n<td style=\"padding-left: 50px;\">Date:</td>\n<td style=\"padding-left: 50px;\">Date:</td>\n</tr>\n</tbody>\n</table>\n</xsl:if>\n<table style=\"width: 100%; font-size: 10pt;\">\n<tbody>\n<tr>\n<td style=\"width: 49.8018%;\"><strong>Page [[@PAGE_NO]] of [[@TOTAL_PAGE]]</strong></td>\n<td style=\"text-align: right; width: 46.1982%;\">Release Version <xsl:value-of select=\"*/releaseVersion\"/></td>\n</tr>\n</tbody>\n</table>\n<p></p>\n<div style=\"text-align: center;\"><xsl:value-of select=\"*/footer/compName\"/> (Co. Reg. No. <xsl:value-of select=\"*/footer/compRegNo\"/>)</div>\n<div style=\"text-align: center;\"><xsl:value-of select=\"*/footer/compAddr\"/></div>\n<div style=\"text-align: center;\"><xsl:value-of select=\"*/footer/compAddr2\"/> TEL: <xsl:value-of select=\"*/footer/compTel\"/> FAX: <xsl:value-of select=\"*/footer/compFax\"/></div>\n<div style=\"text-align: center;\"><xsl:value-of select=\"*/footer/compWeb\"/></div>\n</div>",
        "zh-Hant": "<p></p>"
    },
    "formulas": {
        "prepareReportData": "function(quotation, planInfo, planDetails, extraPara) {/*FPX_main_formula*/ var round = function(value, position) { var scale = math.pow(10, position); return math.divide(math.round(math.multiply(value, scale)), scale); }; var roundneo = function(value, position) { var output = value; if (output) { var valueStr = value.toString(); var valueSplit = valueStr.split('.'); if (valueSplit && valueSplit.length == 2) { if (valueSplit[0] && valueSplit[1] && valueSplit[1].length > position) { output = math.bignumber(valueSplit[0] + '.' + valueSplit[1].substr(0, position)); var roundUpVal = math.bignumber(0); var roundCheck = Number(valueSplit[1].substr(position, 1)); if (roundCheck >= 5) { roundUpVal = '1'; while (roundUpVal.length < position) { roundUpVal = '0' + roundUpVal; } roundUpVal = math.bignumber('0.' + roundUpVal); output = math.add(output, roundUpVal); } } } } return math.number(output); }; var roundN = function(num,n){ return parseFloat(Math.round(num * Math.pow(10, n)) /Math.pow(10,n)).toFixed(n); }; var illustrations = extraPara.illustrations; var basicPlan = quotation.plans[0]; var basicIllustrations = illustrations[basicPlan.covCode]; var db = [], _db=[]; var sv = [], _sv=[]; var dd = [], _dd = []; var dc = [], _dc = []; var polTerm = basicPlan.policyTerm ? basicPlan.policyTerm : 15; var projections = planDetails[planInfo.covCode].projection; var low = 999; var high = -1; for (var i = 0; i < 2; i++) { var id = projections[i].title.en; low = Math.min(Number(id), low); high = Math.max(Number(id), high); } var lastRow = (99-quotation.iAge); for (var i = 0; i <lastRow; i++) { var polYr = i + 1; var row = {}; var basicIllustration = basicIllustrations[i]; var polYr_age = polYr + '/' + basicIllustration.age; var totalPremPaid = getCurrency(round(Number(basicIllustration.totalPremPaid), 0), ' ', 0); var dbrow = { polYr_age: polYr_age, totalPremPaid: totalPremPaid, GteedDB: getCurrency(round(Number(basicIllustration.GteedDB), 0), ' ', 0), nonGteedDB_low: getCurrency(round(Number(basicIllustration.nonGteedDB[low]), 0), ' ', 0), totalDB_low: getCurrency(round(Number(basicIllustration.totalDB[low]), 0), ' ', 0), nonGteedDB_high: getCurrency(round(Number(basicIllustration.nonGteedDB[high]), 0), ' ', 0), totalDB_high: getCurrency(round(Number(basicIllustration.totalDB[high]), 0), ' ', 0), }; var ddrow = { polYr_age: polYr_age, totalPremPaid: totalPremPaid, effectOfDeduct_high: getCurrency(round(Number(basicIllustration.effectOfDeduct[high]), 0), ' ', 0), VOP_high: getCurrency(round(Number(basicIllustration.VOP[high]), 0), ' ', 0), totalSV_high: getCurrency(round(Number(basicIllustration.totalSV[high]), 0), ' ', 0), effectOfDeduct_low: getCurrency(round(Number(basicIllustration.effectOfDeduct[low]), 0), ' ', 0), VOP_low: getCurrency(round(Number(basicIllustration.VOP[low]), 0), ' ', 0), totalSV_low: getCurrency(round(Number(basicIllustration.totalSV[low]), 0), ' ', 0) }; var dcrow = { polYr_age: polYr_age, totalPremPaid: totalPremPaid, totalDistribCost: getCurrency(round(Number(basicIllustration.totalDistribCost), 0), ' ', 0) }; var svrow = { polYr_age: polYr_age, totalPremPaid: totalPremPaid, GteedSV: getCurrency(round(Number(basicIllustration.GteedSV), 0), ' ', 0), nonGteedSV_low: getCurrency(round(Number(basicIllustration.nonGteedSV[low]), 0), ' ', 0), totalSV_low: getCurrency(round(Number(basicIllustration.totalSV[low]), 0), ' ', 0), nonGteedSV_high: getCurrency(round(Number(basicIllustration.nonGteedSV[high]), 0), ' ', 0), totalSV_high: getCurrency(round(Number(basicIllustration.totalSV[high]), 0), ' ', 0), }; if (polYr <= 20 || (polYr > 20 && polYr <=40 && polYr % 5 === 0) || polYr == lastRow) { db.push(dbrow); dd.push(ddrow); dc.push(dcrow); sv.push(svrow); } var age = basicIllustration.age; if(age ==55||age ==60||age ==65){ _db.push(Object.assign({}, dbrow, {polYr_age: 'AGE ' + basicIllustration.age})); _dd.push(Object.assign({}, ddrow, {polYr_age: 'AGE ' + basicIllustration.age})); _dc.push(Object.assign({}, dcrow, {polYr_age: 'AGE ' + basicIllustration.age})); _sv.push(Object.assign({}, svrow, {polYr_age: 'AGE ' + basicIllustration.age})); } } db.push({}); sv.push({}); dd.push({}); dc.push({}); for(var i in _db){ db.push(_db[i]); sv.push(_sv[i]); dd.push(_dd[i]); dc.push(_dc[i]); } var reductYield= basicIllustrations[0].reductYield; if(reductYield){ reductYield=math.multiply(math.bignumber(reductYield), math.bignumber(100)); reductYield=round(Number(reductYield), 2); reductYield = roundN(reductYield,2); } var yieldValue = basicIllustrations[0].yieldValue; if(yieldValue){ yieldValue = getCurrency(round(Number(yieldValue), 0), ' ', 0); } var map = { FPX: { iLife: 1, iTPD: 1, pLife: 1, pTPD: 1, }, FSX: { iLife: 1, iTPD: 1, pLife: 1, pTPD: 1, }, CARB: { iCi: 1 }, LARB: { iCi: 1 }, LVT: { iLife: 1, iTPD: 1, iCi: 1 }, LTT: { iLife: 1, iTPD: 1 }, EPB: { iTPD: 1 }, ADBR: { }, WPSR: { iCi: 1 }, WPTN: { pLife: 1, pTPD: 1, }, WPPT: { pLife: 1, pTPD: 1, pCi: 1 } }; var options = quotation.policyOptions; var proposer = { basic: [], rider: [] }, insured = { basic: [], rider: [] }; var polTerms = {}; for(var i in quotation.plans){ var plan = quotation.plans[i]; var premTerm = plan.premTerm; if(premTerm && typeof premTerm =='string'){ polTerms[plan.covCode] = math.number(premTerm.substring(3, premTerm.length)); if(premTerm.substring(0,3) == \"age\" ) polTerms[plan.covCode] = plan.premTermDesc; } } var getRow = function(covCode, type, position){ if( options[type] && map[covCode] && map[covCode][type] ){ var isNA = ( ([\"iTPD\", \"pTPD\"].indexOf(type) == -1 && math.number(options[type])) ===0 || ([\"iTPD\", \"pTPD\"].indexOf(type) > -1 && math.number(options[type]) == 1) ) || (quotation.baseProductCode == covCode && type[0] == 'p'); return { name: position ? '' : planDetails[covCode].covName.en, type: [\"pLife\", \"iLife\"].indexOf(type) > -1? \"Life\": [\"iTPD\", \"pTPD\"].indexOf(type) > -1? \"TPD\": \"CI\", value: isNA ? \"NA\": options[type] + ([\"iTPD\", \"pTPD\"].indexOf(type) > -1? \"\" : \".00\"), term: isNA ? \"NA\": polTerms[covCode] }; } }; var pIds = [\"pLife\", \"pTPD\", \"pCi\"]; var iIds = [\"iLife\", \"iTPD\", \"iCi\"]; var hasPLoading = options.pLoading; var hasILoading = options.iLoading; for(var i in quotation.plans){ var plan = quotation.plans[i]; var pRowCnt = 0, iRowCnt = 0; var emptyRow = { name: ' ', type: ' ', value: ' ', term: ' ' }; if(hasPLoading){ for(var j in pIds){ var row = getRow(plan.covCode, pIds[j], pRowCnt); if(row){ pRowCnt++; if(plan.covCode == quotation.baseProductCode){ proposer.basic.push(row); } else { proposer.rider.push(row); } } } } if(!hasPLoading || !pRowCnt){ if(plan.covCode == quotation.baseProductCode){ proposer.basic.push(emptyRow); } else { proposer.rider.push(emptyRow); } } if(hasILoading){ for(var j in iIds){ var row = getRow(plan.covCode, iIds[j], iRowCnt ,i===0); if(row){ iRowCnt++; if(plan.covCode == quotation.baseProductCode){ insured.basic.push(row); } else { insured.rider.push(row); } } } } if(!hasILoading || !iRowCnt){ if(plan.covCode == quotation.baseProductCode){ insured.basic.push(emptyRow); } else { insured.rider.push(emptyRow); } } } if(proposer.rider && proposer.rider.length===1 && proposer.rider[0].name===' '){ proposer.rider = ''; } if(insured.rider && insured.rider.length===1 && insured.rider[0].name===' '){ insured.rider = ''; } return { illustrateData_DB: db, illustrateData_SV: sv, illustrateData_deduct: dd, illustrateData_totalDistribCost: dc, reductYield: reductYield, yieldAtAge: (basicIllustrations[0].yieldAtAge), yieldAtRate: roundN(basicIllustrations[0].yieldAtRate* 100,2), yieldValue: '$' + yieldValue, rate_high: roundN(basicIllustrations[0].projRate[high] * 100,1) + '%', rate_low: roundN(basicIllustrations[0].projRate[low] * 100,1) + '%', sumLoad: { hasLoading: hasPLoading || hasILoading? 'Y': 'N', proposer: proposer, insured: insured } }; }"
    },
    "header": {
        "en": "<div style=\"height: 8px;\"/>\n<table style=\"width: 100%;\">\n<tr>\n<td>\n<div class=\"fx-intro-logo\"/>\n</td>\n</tr>\n</table>",
        "zh-Hant": "<p></p>"
    },
    "launchDate": "2017-12-28 07:16:09",
    "pdfCode": "FX_MAIN",
    "pdfName": {
        "en": "Flex Main Illustration PDF",
        "zh-Hant": "-",
        "zh-tw": "-"
    },
    "releaseDate": "2018-12-11 02:30:08",
    "remarks": {
        "en": "-"
    },
    "status": "A",
    "style": ".notbreak{page-break-inside:avoid;}.vtop{vertical-align:top;}.pd8{padding:8px;}.vpd2{padding-top:2px;padding-bottom:2px;}.b{font-weight:bold;}.u{text-decoration:underline;}.vpd4{padding-top:4px;padding-bottom:4px;}.vpd20{padding-top:20px;padding-bottom:20px;}.w100{width:100%;}.hr{width:100%;height:1pt;background:black;}div{text-align:justify;font-size:10pt;}.mtop8{margin-top:8px;}.bgblack{background:black;}.tcwhite{color:white;}.tdCol{height:13px;vertical-align:middle;text-align:center;}.txtCenterH{text-align:center;}.vborder{border-top:1pt solid black;border-bottom:1pt solid black;}.pd4{padding:4px;}.tcenter{text-align:center;}",
    "template": {
        "en": [
            "<!-- FLEXI MAIN PAGE 1 -->\n<xsl:if test=\"*/sumLoad/hasLoading='Y'\">\n   <div style=\"text-align:center;margin-top:8px\">\n      <strong>SUMMARY OF LOADING(S)</strong>\n   </div>\n   <div style=\"margin-top:24px\">The following summarises the overall loadings imposed in addition to the standard Premium:</div>\n   <div class=\"sectionSpace\" />\n   <xsl:if test=\"*/basicPlan/hasPLoading= 'Y'\">\n      <table style=\"width:100%\">\n         <thead>\n            <tr>\n               <th colspan=\"4\">\n                  <div class=\"tcenter\" style=\"padding:8px\">\n                     <strong>Proposer</strong>\n                  </div>\n               </th>\n            </tr>\n            <tr>\n               <th class=\"vborder\" style=\"width:25%\">\n                  <div class=\"pd4\">\n                     <strong></strong>\n                  </div>\n               </th>\n               <th class=\"vborder\" style=\"width:25%\">\n                  <div class=\"pd4 b\" style=\"text-align:center\">Type of Loading</div>\n               </th>\n               <th class=\"vborder\" style=\"width:25%\">\n                  <div class=\"pd4 b\" style=\"text-align:center\">% of Loading / Factor</div>\n               </th>\n               <th class=\"vborder\" style=\"width:25%\">\n                  <div class=\"pd4 b\" style=\"text-align:center\">Loading Term</div>\n               </th>\n            </tr>\n         </thead>\n         <tbody>\n            <tr>\n               <td colspan=\"4\">\n                  <strong>\n                  <br/>Basic Plan</strong>\n               </td>\n            </tr>\n            <xsl:for-each select=\"*/sumLoad/proposer/basic\">\n               <tr>\n                  <td>\n                     <xsl:value-of select=\"name\" />\n                  </td>\n                  <td>\n                     <div style=\"text-align:center\">\n                        <xsl:value-of select=\"type\" />\n                     </div>\n                  </td>\n                  <td>\n                     <div style=\"text-align:center\">\n                        <xsl:value-of select=\"value\" />\n                     </div>\n                  </td>\n                  <td>\n                     <div style=\"text-align:center\">\n                        <xsl:value-of select=\"term\" />\n                     </div>\n                  </td>\n               </tr>\n            </xsl:for-each>\n            <xsl:if test=\"*/sumLoad/proposer/rider != ''\">\n            <tr>\n               <td colspan=\"4\">\n                  <strong>Riders</strong>\n               </td>\n            </tr>\n\n            <xsl:for-each select=\"*/sumLoad/proposer/rider\">\n               <tr>\n                  <td>\n                     <xsl:value-of select=\"name\" />\n                  </td>\n                  <td>\n                     <div style=\"text-align:center\">\n                        <xsl:value-of select=\"type\" />\n                     </div>\n                  </td>\n                  <td>\n                     <div style=\"text-align:center\">\n                        <xsl:value-of select=\"value\" />\n                     </div>\n                  </td>\n                  <td>\n                     <div style=\"text-align:center\">\n                        <xsl:value-of select=\"term\" />\n                     </div>\n                  </td>\n               </tr>\n            </xsl:for-each>\n            </xsl:if>\n         </tbody>\n      </table>\n      <div class=\"sectionSpace\" />\n      <div class=\"sectionSpace\" />\n   </xsl:if>\n   <xsl:if test=\"*/basicPlan/hasILoading= 'Y'\">\n      <table style=\"width:100%\">\n         <thead>\n            <tr>\n               <th colspan=\"4\">\n                  <div class=\"tcenter\" style=\"padding:8px\">\n                     <strong>Life Assured</strong>\n                  </div>\n               </th>\n            </tr>\n            <tr>\n               <th class=\"vborder\" style=\"width:25%\">\n                  <div class=\"pd4\">\n                     <strong></strong>\n                  </div>\n               </th>\n               <th class=\"vborder\" style=\"width:25%\">\n                  <div class=\"pd4 b\" style=\"text-align:center\">Type of Loading</div>\n               </th>\n               <th class=\"vborder\" style=\"width:25%\">\n                  <div class=\"pd4 b\" style=\"text-align:center\">% of Loading / Factor</div>\n               </th>\n               <th class=\"vborder\" style=\"width:25%\">\n                  <div class=\"pd4 b\" style=\"text-align:center\">Loading Term</div>\n               </th>\n            </tr>\n         </thead>\n         <tbody>\n            <tr>\n               <td colspan=\"4\">\n                  <strong>\n                  <br/>Basic Plan</strong>\n               </td>\n            </tr>\n            <xsl:for-each select=\"*/sumLoad/insured/basic\">\n               <tr>\n                  <td>\n                     <xsl:value-of select=\"name\" />\n                  </td>\n                  <td>\n                     <div style=\"text-align:center\">\n                        <xsl:value-of select=\"type\" />\n                     </div>\n                  </td>\n                  <td>\n                     <div style=\"text-align:center\">\n                        <xsl:value-of select=\"value\" />\n                     </div>\n                  </td>\n                  <td>\n                     <div style=\"text-align:center\">\n                        <xsl:value-of select=\"term\" />\n                     </div>\n                  </td>\n               </tr>\n            </xsl:for-each>\n            \n        <xsl:if test=\"*/sumLoad/insured/rider != ''\">\n            <tr>\n                 <td colspan=\"4\">\n                    <strong>Riders</strong>\n                 </td>\n              </tr>\n              <xsl:for-each select=\"*/sumLoad/insured/rider\">\n                 <tr>\n                    <td>\n                       <xsl:value-of select=\"name\" />\n                    </td>\n                    <td>\n                       <div style=\"text-align:center\">\n                          <xsl:value-of select=\"type\" />\n                       </div>\n                    </td>\n                    <td>\n                       <div style=\"text-align:center\">\n                          <xsl:value-of select=\"value\" />\n                       </div>\n                    </td>\n                    <td>\n                       <div style=\"text-align:center\">\n                          <xsl:value-of select=\"term\" />\n                       </div>\n                    </td>\n                 </tr>\n              </xsl:for-each>\n        </xsl:if>\n            \n         </tbody>\n      </table>\n      <div class=\"sectionSpace\" />\n      <div class=\"sectionSpace\" />\n   </xsl:if>\n   <div>Note that any loading(s) on basic plan will be applicable to attached rider(s).</div>\n   <div class=\"pagebreak\" />\n</xsl:if>\n<table class=\"w100\">\n   <thead>\n      <tr>\n         <th colspan=\"4\">\n            <div class=\"pd8 tcenter b\">MAIN POLICY ILLUSTRATION</div>\n         </th>\n      </tr>\n      <tr>\n         <th class=\"vtop b tleft\" style=\"width:60%\">\n            Proposal on the life of:\n            <xsl:value-of select=\"*/cover/insured/name\" />\n         </th>\n         <th></th>\n         <!-- <th class=\"vtop b tleft\" style=\"width:25%\">Proposal on the life of</th>\n            <th class=\"vtop tleft\" style=\"width:35%\">:\n              <xsl:value-of select=\"*/cover/insured/name\" /> </th> -->\n         <th class=\"vtop b tleft\" style=\"width:50px\">Date</th>\n         <th class=\"vtop tleft\">\n            :\n            <xsl:value-of select=\"*/cover/genDate\" />\n         </th>\n      </tr>\n      <tr style=\"border-bottom:solid 1pt black\">\n         <th class=\"vtop b tleft\">\n            Gender:\n            <xsl:value-of select=\"*/cover/insured/gender\" /> <xsl:value-of select=\"*/cover/insured/smoking2\" />\n         </th>\n         <th></th>\n         <!-- <th class=\"vtop tleft\">:\n            <xsl:value-of select=\"*/cover/insured/gender\" /> (\n            <xsl:value-of select=\"*/cover/insured/smoking\" />)</th> -->\n         <th class=\"vtop b tleft\">Age</th>\n         <th class=\"vtop tleft\">\n            : \n            <xsl:value-of select=\"*/cover/insured/age\" />\n            (As At \n            <xsl:value-of select=\"*/cover/genDate\" />\n            ) \n         </th>\n      </tr>\n   </thead>\n   <tbody>\n      <tr>\n         <td colspan=\"4\">\n            <div id=\"page1\">\n               <br/>\n               <div class=\"b\">INTRODUCTION</div>\n               <br/>\n               <div>EAB Insurance Pte Ltd believes that it is important that you fully appreciate the benefits of your policy. You\n                  should also understand how the cost of your insurance cover and the expenses of administration and sales affect\n                  the benefits that you will receive.\n               </div>\n               <br/>\n               <div>The illustration that follows shows how the value of your policy progresses over time and the sum(s) that would\n                  be payable. The methods used to derive the values shown follow guidelines established by the Life Insurance Association,\n                  Singapore, to ensure that a fair and consistent approach is used in preparing this illustration.\n               </div>\n               <br/>\n               <div>Buying a life insurance policy can be a long-term commitment. An early termination of the policy usually involves\n                  high costs and the surrender value payable may be less than the total premiums paid.\n               </div>\n               <br/>\n               <div>If you need clarification please do not hesitate to ask your financial adviser.</div>\n               <br/>\n               <div>This Policy is protected under the Policy Owners' Protection Scheme which is administered by the Singapore Deposit\n                  Insurance Corporation (SDIC). Coverage for your policy is automatic and no further action is required from you.\n                  For more information on the types of benefits that are covered under the scheme as well as the limits of coverage,\n                  where applicable, please contact EAB Insurance Pte Ltd or visit the LIA or SDIC web-sites (<span class=\"u\" style=\"color:blue\">www.lia.org.sg</span> or\n                  <span class=\"u\" style=\"color:blue\">www.sdic.org.sg</span>).\n               </div>\n               <br/>\n               <div class=\"b\">IMPORTANT NOTES</div>\n               <br/>\n               <table class=\"w100\">\n                  <tr>\n                     <td class=\"vtop w24\">1.</td>\n                     <td class=\"vtop\">\n                        <div>\n                           This Policy Illustration is based on the illustrated investment rates of return of\n                           <xsl:value-of select=\"*/rate_low\" /> p.a. and\n                           <xsl:value-of select=\"*/rate_high\" /> p.a. The two rates of returns are purely for illustrative purposes. The actual rate may be higher or\n                           lower. The actual benefits payable will depend on the actual performance of the underlying assets of the\n                           fund(s). The performance of the fund(s) is/are not guaranteed and the surrender value may be less than\n                           the capital invested.\n                        </div>\n                        <br/> \n                     </td>\n                  </tr>\n                  <tr>\n                     <td class=\"vtop\">2.</td>\n                     <td class=\"vtop\">\n                        <div>The quotation is applicable to standard life. Please refer to the page of Summary of Loading(s), if any,\n                           for the loading(s) applicable to your policy.\n                        </div>\n                        <br/> \n                     </td>\n                  </tr>\n                  <tr>\n                     <td class=\"vtop\">3.</td>\n                     <td class=\"vtop\">\n                        <div>The quotation is for illustrative purposes only and is not a contract of assurance. The precise terms and\n                           conditions of this/these plan(s) are specified in the policy contract.\n                        </div>\n                        <br/> \n                     </td>\n                  </tr>\n                  <tr>\n                     <td class=\"vtop\">4.</td>\n                     <td class=\"vtop\">\n                        <div>Figures shown in the main illustration tables assume that no withdrawal of funds have been made during the\n                           term of the policy.\n                        </div>\n                        <br/> \n                     </td>\n                  </tr>\n                  <tr>\n                     <td class=\"vtop\">5.</td>\n                     <td class=\"vtop\">\n                        <div>Please note the lapsation and termination clauses in the product summary and policy contract. </div>\n                        <br/> \n                     </td>\n                  </tr>\n                  <tr>\n                     <td class=\"vtop\">6.</td>\n                     <td class=\"vtop\">\n                        <div>All figures quoted are based on the selected policy currency.</div><br/>\n                     </td>\n                  </tr>\n<tr>\n                  <td><br/>\n                     </td>\n                  </tr>\n                  <tr class=\"vtop\">\n                     <td class=\"vtop\">7.</td>\n                     <td class=\"vtop\">\n                        <div>Please note that charges for the following plan(s) are non-guaranteed. These charges may be adjusted based on future experience.</div>\n                     </td>\n                  </tr>\n               </table>\n               <p>\n                   <span style=\"margin: 0 15px 0 30px\">- </span>Basic Plan with Choice Cover<br/>\n                   <span style=\"margin: 0 15px 0 30px\">- </span>Choice Accelerator Benefit<br/>\n                   <span style=\"margin: 0 15px 0 30px\">- </span>Living Accelerator Benefit<br/>\n                   <span style=\"margin: 0 15px 0 30px\">- </span>Level Term Benefit<br/>\n                   <span style=\"margin: 0 15px 0 30px\">- </span>Living Term Benefit<br/>\n                   <span style=\"margin: 0 15px 0 30px\">- </span>Accidental Death Benefit<br/>\n                   <span style=\"margin: 0 15px 0 30px\">- </span>Extended TPD Benefit<br/>\n                   <span style=\"margin: 0 15px 0 30px\">- </span>Waiver of Premium<br/>\n                   <span style=\"margin: 0 15px 0 30px\">- </span>Waiver of Premium Plus<br/>\n                   <span style=\"margin: 0 15px 0 30px\">- </span>Waiver of Premium Special<br/>\n               </p>\n            </div>\n            <div class=\"pagebreak\" id=\"page2\">\n            <table class=\"w100\">\n               <tr>\n                  <td class=\"vtop\" style=\"width:25%\">Basic Policy Plan</td>\n                  <!-- <td class=\"vtop pd4\" style=\"width:8px\">:</td> -->\n                  <td class=\"vtop\" colspan=\"4\">\n                     : \n                     <xsl:value-of select=\"*/basicPlan/name\" />\n                  </td>\n               </tr>\n               <tr>\n                  <td class=\"vtop\" style=\"width:25%\">Basic Benefit</td>\n                  <!-- <td class=\"vtop pd4\" style=\"width:8px\">:</td> -->\n                  <td class=\"vtop\" colspan=\"4\">\n                     : \n                     <xsl:value-of select=\"*/basicPlan/basicBenefit\" />\n                  </td>\n               </tr>\n               <tr>\n                  <td class=\"vtop\" style=\"width:25%\">Sum Assured</td>\n                  <!-- <td class=\"vtop pd4\" style=\"width:8px\">:</td> -->\n                  <td class=\"vtop\" colspan=\"4\">\n                     : \n                     $<xsl:value-of select=\"*/basicPlan/sumInsured\" />\n                  </td>\n               </tr>\n               <tr>\n                  <td class=\"vtop\" style=\"width:25%\">Policy Currency</td>\n                  <!-- <td class=\"vtop pd4\" style=\"width:8px\">:</td> -->\n                  <td class=\"vtop\" colspan=\"4\">\n                     : \n                     <xsl:value-of select=\"*/basicPlan/polCcy\" />\n                  </td>\n               </tr>\n               <!-- <tr>\n                  <td class=\"vtop pd4 tleft\" style=\"width:40%\">Fund Name</td>\n                  <td class=\"vtop pd4 tleft\" style=\"width:8px\">:</td>\n                  <td class=\"vtop pd4 tleft\" style=\"width:16%\">Annual\n                    <br/>Premium</td>\n                  <td class=\"vtop pd4 tleft\" style=\"width:16%\">Annual Recurring Single Premium</td>\n                  <td class=\"vtop pd4 tleft\" style=\"width:15%\">Top-Up\n                    <br/>Premium</td>\n                  <td class=\"vtop pd4\">Fund\n                    <br/>Code</td>\n                  </tr>\n                  <xsl:for-each select=\"*/cover/funds\">\n                  <tr>\n                    <td class=\"vtop hpd4\">\n                      <xsl:value-of select=\"name\" />\n                    </td>\n                    <td class=\"vtop hpd4\">:</td>\n                    <td class=\"vtop hpd4\">\n                      <xsl:value-of select=\"premium\" />\n                    </td>\n                    <td class=\"vtop hpd4\">\n                      <xsl:value-of select=\"rsp\" />\n                    </td>\n                    <td class=\"vtop hpd4\">\n                      <xsl:value-of select=\"topUp\" />\n                    </td>\n                    <td class=\"vtop hpd4\">\n                      <xsl:value-of select=\"code\" />\n                    </td>\n                  </tr>\n                  </xsl:for-each>\n                  <tr>\n                  <td class=\"vtop pd4\">Total</td>\n                  <td class=\"vtop pd4\">:</td>\n                  <td class=\"vtop pd4\">\n                    <xsl:value-of select=\"*/basicPlan/aPremium\" />\n                  </td>\n                  <td class=\"vtop pd4\">\n                    <xsl:value-of select=\"*/basicPlan/aRspTopUp\" />\n                  </td>\n                  <td class=\"vtop pd4\">\n                    <xsl:value-of select=\"*/basicPlan/spTopUp\" />\n                  </td>\n                  <td class=\"vtop pd4\"></td>\n                  </tr> -->\n            </table>\n            <div class=\"hr\" />\n               <br/>\n               <div>The following tables of values relate to the basic policy plan named above.</div>\n               <!-- <table class=\"mtop8 w100\"> -->\n               <table class=\"w100\">\n                  <thead>\n                     <tr>\n                        <th colspan=\"7\" class=\"pd4\">\n                           <div class=\"tcenter\">\n                              <!-- Policy Illustration -->\n                           </div>\n                        </th>\n                     </tr>\n                     <tr>\n                        <th rowspan=\"3\" class=\"vtop pd2\" style=\"width:10%; text-align: center;\">End of Policy Year/Age</th>\n                        <th rowspan=\"3\" class=\"vtop pd2\" style=\"width:20%; text-align: center;\">\n                           Total<br/>Premiums<br/>Paid<br/>To-Date\n                        </th>\n                        <th colspan=\"5\" class=\"bgblack tcwhite\">DEATH BENEFIT</th>\n                     </tr>\n                     <tr>\n                        <th rowspan=\"2\" class=\"vtop pd2\" style=\"width:10%\">Guaranteed</th>\n                        <th colspan=\"2\" class=\"vtop pd2\">\n                           Illustrated at\n                           <xsl:value-of select=\"*/rate_low\" />\n                           <br/>Investment Return\n                        </th>\n                        <th colspan=\"2\" class=\"vtop pd2\">\n                           Illustrated at\n                           <xsl:value-of select=\"*/rate_high\" />\n                           <br/>Investment Return\n                        </th>\n                     </tr>\n                     <tr>\n                        <th class=\"vtop pd2\" style=\"width:20%\">Non-Guaranteed<br/>Policy Value</th>\n                        <th class=\"vtop pd2\" style=\"width:10%\">Total</th>\n                        <th class=\"vtop pd2\" style=\"width:20%\">Non-Guaranteed<br/>Policy Value</th>\n                        <th class=\"vtop pd2\">Total</th>\n                     </tr>\n                     <tr>\n                        <th class=\"vtop pd2\"></th>\n                        <th class=\"vtop pd2\">(S$)</th>\n                        <th class=\"vtop pd2\">(S$)</th>\n                        <th class=\"vtop pd2\">(S$)</th>\n                        <th class=\"vtop pd2\">(S$)</th>\n                        <th class=\"vtop pd2\">(S$)</th>\n                        <th class=\"vtop pd2\">(S$)</th>\n                     </tr>\n                  </thead>\n                  <tbody>\n                     <xsl:for-each select=\"*/illustrateData_DB\">\n                        <tr>\n                           <td class=\"tdCol\">\n                              <xsl:value-of select=\"polYr_age\" />\n                           </td>\n                           <td class=\"tdCol\">\n                              <xsl:value-of select=\"totalPremPaid\" />\n                           </td>\n                           <td class=\"tdCol\">\n                              <xsl:value-of select=\"GteedDB\" />\n                           </td>\n                           <td class=\"tdCol\">\n                              <xsl:value-of select=\"nonGteedDB_low\" />\n                           </td>\n                           <td class=\"tdCol\">\n                              <xsl:value-of select=\"totalDB_low\" />\n                           </td>\n                           <td class=\"tdCol\">\n                              <xsl:value-of select=\"nonGteedDB_high\" />\n                           </td>\n                           <td class=\"tdCol\">\n                              <xsl:value-of select=\"totalDB_high\" />\n                           </td>\n                        </tr>\n                     </xsl:for-each>\n                  </tbody>\n               </table>\n               <br/>\n               <div>Note: Please refer to the Product Summary for Death Benefit details.</div>\n            </div>\n            <div id=\"page3\" class=\"pagebreak\">\n            <table class=\"w100\">\n               <tr>\n                  <td class=\"vtop\" style=\"width:25%\">Basic Policy Plan</td>\n                  <!-- <td class=\"vtop pd4\" style=\"width:8px\">:</td> -->\n                  <td class=\"vtop\" colspan=\"4\">\n                     : \n                     <xsl:value-of select=\"*/basicPlan/name\" />\n                  </td>\n               </tr>\n               <tr>\n                  <td class=\"vtop\" style=\"width:25%\">Basic Benefit</td>\n                  <!-- <td class=\"vtop pd4\" style=\"width:8px\">:</td> -->\n                  <td class=\"vtop\" colspan=\"4\">\n                     : \n                     <xsl:value-of select=\"*/basicPlan/basicBenefit\" />\n                  </td>\n               </tr>\n               <tr>\n                  <td class=\"vtop\" style=\"width:25%\">Sum Assured</td>\n                  <!-- <td class=\"vtop pd4\" style=\"width:8px\">:</td> -->\n                  <td class=\"vtop\" colspan=\"4\">\n                     : \n                     $<xsl:value-of select=\"*/basicPlan/sumInsured\" />\n                  </td>\n               </tr>\n               <tr>\n                  <td class=\"vtop\" style=\"width:25%\">Policy Currency</td>\n                  <!-- <td class=\"vtop pd4\" style=\"width:8px\">:</td> -->\n                  <td class=\"vtop\" colspan=\"4\">\n                     : \n                     <xsl:value-of select=\"*/basicPlan/polCcy\" />\n                  </td>\n               </tr>\n               <!-- <tr>\n                  <td class=\"vtop pd4 tleft\" style=\"width:40%\">Fund Name</td>\n                  <td class=\"vtop pd4 tleft\" style=\"width:8px\">:</td>\n                  <td class=\"vtop pd4 tleft\" style=\"width:16%\">Annual\n                    <br/>Premium</td>\n                  <td class=\"vtop pd4 tleft\" style=\"width:16%\">Annual Recurring Single Premium</td>\n                  <td class=\"vtop pd4 tleft\" style=\"width:15%\">Top-Up\n                    <br/>Premium</td>\n                  <td class=\"vtop pd4\">Fund\n                    <br/>Code</td>\n                  </tr>\n                  <xsl:for-each select=\"*/cover/funds\">\n                  <tr>\n                    <td class=\"vtop hpd4\">\n                      <xsl:value-of select=\"name\" />\n                    </td>\n                    <td class=\"vtop hpd4\">:</td>\n                    <td class=\"vtop hpd4\">\n                      <xsl:value-of select=\"premium\" />\n                    </td>\n                    <td class=\"vtop hpd4\">\n                      <xsl:value-of select=\"rsp\" />\n                    </td>\n                    <td class=\"vtop hpd4\">\n                      <xsl:value-of select=\"topUp\" />\n                    </td>\n                    <td class=\"vtop hpd4\">\n                      <xsl:value-of select=\"code\" />\n                    </td>\n                  </tr>\n                  </xsl:for-each>\n                  <tr>\n                  <td class=\"vtop pd4\">Total</td>\n                  <td class=\"vtop pd4\">:</td>\n                  <td class=\"vtop pd4\">\n                    <xsl:value-of select=\"*/basicPlan/aPremium\" />\n                  </td>\n                  <td class=\"vtop pd4\">\n                    <xsl:value-of select=\"*/basicPlan/aRspTopUp\" />\n                  </td>\n                  <td class=\"vtop pd4\">\n                    <xsl:value-of select=\"*/basicPlan/spTopUp\" />\n                  </td>\n                  <td class=\"vtop pd4\"></td>\n                  </tr> -->\n            </table>\n            <div class=\"hr\" />\n               <!-- <table class=\"mtop8 w100\"> -->\n               <table class=\"w100\">\n                  <thead>\n                     <tr>\n                        <th colspan=\"7\" class=\"pd4\">\n                           <div class=\"tcenter\"></div>\n                        </th>\n                     </tr>\n                     <tr>\n                        <th rowspan=\"3\" class=\"vtop pd2\" style=\"width:10%\">End of<br/>Policy<br/>Year/Age</th>\n                        <th rowspan=\"3\" class=\"vtop pd2\" style=\"width:20%\">Total<br/>Premiums<br/>Paid<br/>To-Date</th>\n                        <th colspan=\"5\" class=\"bgblack tcwhite\">SURRENDER VALUE</th>\n                     </tr>\n                     <tr>\n                        <th rowspan=\"2\" class=\"vtop pd2\" style=\"width:10%\">Guaranteed</th>\n                        <th colspan=\"2\" class=\"vtop pd2\">\n                           Illustrated at\n                           <xsl:value-of select=\"*/rate_low\" />\n                           <br/>Investment Return\n                        </th>\n                        <th colspan=\"2\" class=\"vtop pd2\">\n                           Illustrated at\n                           <xsl:value-of select=\"*/rate_high\" />\n                           <br/>Investment Return\n                        </th>\n                     </tr>\n                     <tr>\n                        <th class=\"vtop hpd2\" style=\"width:20%\">Non-Guaranteed</th>\n                        <th class=\"vtop hpd2\" style=\"width:10%\">Total</th>\n                        <th class=\"vtop hpd2\" style=\"width:20%\">Non-Guaranteed</th>\n                        <th class=\"vtop hpd2\">Total</th>\n                     </tr>\n                     <tr>\n                        <th class=\"vtop hpd2\"></th>\n                        <th class=\"vtop hpd2\">(S$)</th>\n                        <th class=\"vtop hpd2\">(S$)</th>\n                        <th class=\"vtop hpd2\">(S$)</th>\n                        <th class=\"vtop hpd2\">(S$)</th>\n                        <th class=\"vtop hpd2\">(S$)</th>\n                        <th class=\"vtop hpd2\">(S$)</th>\n                     </tr>\n                  </thead>\n                  <tbody>\n                     <xsl:for-each select=\"*/illustrateData_SV\">\n                        <tr>\n                           <td class=\"tdCol\">\n                              <xsl:value-of select=\"polYr_age\" />\n                           </td>\n                           <td class=\"tdCol\">\n                              <xsl:value-of select=\"totalPremPaid\" />\n                           </td>\n                           <td class=\"tdCol\">\n                              <xsl:value-of select=\"GteedSV\" />\n                           </td>\n                           <td class=\"tdCol\">\n                              <xsl:value-of select=\"nonGteedSV_low\" />\n                           </td>\n                           <td class=\"tdCol\">\n                              <xsl:value-of select=\"totalSV_low\" />\n                           </td>\n                           <td class=\"tdCol\">\n                              <xsl:value-of select=\"nonGteedSV_high\" />\n                           </td>\n                           <td class=\"tdCol\">\n                              <xsl:value-of select=\"totalSV_high\" />\n                           </td>\n                        </tr>\n                     </xsl:for-each>\n                  </tbody>\n               </table>\n               <div class=\"notbreak\">\n<br/>\n                  <div class=\"b\">What is the significance of the Illustrated Investment Rate of Return?</div>\n                  <br/>\n                  <div>\n                     The illustrations are based on illustrated investment returns of\n                     <xsl:value-of select=\"*/rate_low\" /> p.a. and\n                     <xsl:value-of select=\"*/rate_high\" /> p.a. The two rates of return used are before deducting the annual management charges of the funds. They are\n                     purely for illustrative purposes and do not represent upper and lower limits on the investment performance. They\n                     also do not reflect potential volatility over the short-term resulting in potential sharp movements, up or down,\n                     of the underlying assets of the funds. The actual benefits payable will depend on the actual performance of the\n                     underlying assets of the funds. The performance of the funds is not guaranteed and the cash value may be less\n                     than the capital invested.\n                  </div>\n                  <br/>\n                  <div class=\"b\">\n                     Please note that if you select a money market fund or a fixed income fund, then returns of\n                     <xsl:value-of select=\"*/rate_low\" /> to\n                     <xsl:value-of select=\"*/rate_high\" /> could be considered high in many cases and unlikely to be achieved if the current low interest rate environment\n                     persists. You are strongly encouraged to speak to your financial adviser who would be able to provide further\n                     information on these funds - both for your initial fund selection and subsequently.\n                  </div>\n               </div>\n            </div>\n            <div class=\"pagebreak\" id=\"page4\">\n            <table class=\"w100\">\n               <tr>\n                  <td class=\"vtop\" style=\"width:25%\">Basic Policy Plan</td>\n                  <!-- <td class=\"vtop pd4\" style=\"width:8px\">:</td> -->\n                  <td class=\"vtop\" colspan=\"4\">\n                     : \n                     <xsl:value-of select=\"*/basicPlan/name\" />\n                  </td>\n               </tr>\n               <tr>\n                  <td class=\"vtop\" style=\"width:25%\">Basic Benefit</td>\n                  <!-- <td class=\"vtop pd4\" style=\"width:8px\">:</td> -->\n                  <td class=\"vtop\" colspan=\"4\">\n                     : \n                     <xsl:value-of select=\"*/basicPlan/basicBenefit\" />\n                  </td>\n               </tr>\n               <tr>\n                  <td class=\"vtop\" style=\"width:25%\">Sum Assured</td>\n                  <!-- <td class=\"vtop pd4\" style=\"width:8px\">:</td> -->\n                  <td class=\"vtop\" colspan=\"4\">\n                     : \n                     $<xsl:value-of select=\"*/basicPlan/sumInsured\" />\n                  </td>\n               </tr>\n               <tr>\n                  <td class=\"vtop\" style=\"width:25%\">Policy Currency</td>\n                  <!-- <td class=\"vtop pd4\" style=\"width:8px\">:</td> -->\n                  <td class=\"vtop\" colspan=\"4\">\n                     : \n                     <xsl:value-of select=\"*/basicPlan/polCcy\" />\n                  </td>\n               </tr>\n               <!-- <tr>\n                  <td class=\"vtop pd4 tleft\" style=\"width:40%\">Fund Name</td>\n                  <td class=\"vtop pd4 tleft\" style=\"width:8px\">:</td>\n                  <td class=\"vtop pd4 tleft\" style=\"width:16%\">Annual\n                    <br/>Premium</td>\n                  <td class=\"vtop pd4 tleft\" style=\"width:16%\">Annual Recurring Single Premium</td>\n                  <td class=\"vtop pd4 tleft\" style=\"width:15%\">Top-Up\n                    <br/>Premium</td>\n                  <td class=\"vtop pd4\">Fund\n                    <br/>Code</td>\n                  </tr>\n                  <xsl:for-each select=\"*/cover/funds\">\n                  <tr>\n                    <td class=\"vtop hpd4\">\n                      <xsl:value-of select=\"name\" />\n                    </td>\n                    <td class=\"vtop hpd4\">:</td>\n                    <td class=\"vtop hpd4\">\n                      <xsl:value-of select=\"premium\" />\n                    </td>\n                    <td class=\"vtop hpd4\">\n                      <xsl:value-of select=\"rsp\" />\n                    </td>\n                    <td class=\"vtop hpd4\">\n                      <xsl:value-of select=\"topUp\" />\n                    </td>\n                    <td class=\"vtop hpd4\">\n                      <xsl:value-of select=\"code\" />\n                    </td>\n                  </tr>\n                  </xsl:for-each>\n                  <tr>\n                  <td class=\"vtop pd4\">Total</td>\n                  <td class=\"vtop pd4\">:</td>\n                  <td class=\"vtop pd4\">\n                    <xsl:value-of select=\"*/basicPlan/aPremium\" />\n                  </td>\n                  <td class=\"vtop pd4\">\n                    <xsl:value-of select=\"*/basicPlan/aRspTopUp\" />\n                  </td>\n                  <td class=\"vtop pd4\">\n                    <xsl:value-of select=\"*/basicPlan/spTopUp\" />\n                  </td>\n                  <td class=\"vtop pd4\"></td>\n                  </tr> -->\n            </table>\n            <div class=\"hr\" />\n            <br/>\n            <div class=\"b\">What is the impact of deductions on what you might get back?</div>\n            <br/>\n            <div>The following table illustrates the effect that deductions will have on the amount you get back on surrender or\n               maturity. It also highlights the cost of surrendering the policy early.\n            </div>\n            <br/>\n            <table class=\"mtop8 w100\">\n               <thead>\n                  <tr>\n                     <th colspan=\"8\" class=\"pd4\">\n                        <div class=\"tcenter\"></div>\n                     </th>\n                  </tr>\n                  <tr>\n                     <th colspan=\"8\" class=\"bgblack tcwhite\">\n                        <div class=\"tcenter\">TABLE OF DEDUCTIONS</div>\n                     </th>\n                  </tr>\n                  <tr>\n                     <th rowspan=\"3\" class=\"vtop pd2\" style=\"width:11%\">End of<br/>Policy<br/>Year/Age</th>\n                     <th rowspan=\"3\" class=\"vtop pd2\" style=\"width:11%\">Total<br/>Premiums<br/>Paid<br/>To-Date</th>\n                     <th colspan=\"6\" class=\"bgblack tcwhite\">DEDUCTIONS</th>\n                  </tr>\n                  <tr>\n                     <th colspan=\"3\" class=\"vtop pd2\">\n                        Illustrated at\n                        <xsl:value-of select=\"*/rate_low\" />\n                        <br/>Investment Return\n                     </th>\n                     <th colspan=\"3\" class=\"vtop pd2\">\n                        Illustrated at\n                        <xsl:value-of select=\"*/rate_high\" />\n                        <br/>Investment Return\n                     </th>\n                  </tr>\n                  <tr>\n                     <th class=\"vtop pd2\" style=\"width:11%\">Value of<br/>Premiums<br/>Paid<br/>To-Date</th>\n                     <th class=\"vtop pd2\" style=\"width:16%\">Effect of<br/>Deductions<br/>To-Date</th>\n                     <th class=\"vtop pd2\" style=\"width:11%\">Total<br/>Surrender<br/>Value</th>\n                     <th class=\"vtop pd2\" style=\"width:11%\">Value of<br/>Premiums<br/>Paid<br/>To-Date</th>\n                     <th class=\"vtop pd2\" style=\"width:16%\">Effect of<br/>Deductions<br/>To-Date</th>\n                     <th class=\"vtop pd2\">Total<br/>Surrender<br/>Value</th>\n                  </tr>\n                  <tr>\n                     <th class=\"vtop pd2\"></th>\n                     <th class=\"vtop pd2\">(S$)</th>\n                     <th class=\"vtop pd2\">(S$)</th>\n                     <th class=\"vtop pd2\">(S$)</th>\n                     <th class=\"vtop pd2\">(S$)</th>\n                     <th class=\"vtop pd2\">(S$)</th>\n                     <th class=\"vtop pd2\">(S$)</th>\n                     <th class=\"vtop pd2\">(S$)</th>\n                  </tr>\n               </thead>\n               <tbody>\n                  <xsl:for-each select=\"*/illustrateData_deduct\">\n                     <tr>\n                        <td class=\"tdCol\">\n                           <xsl:value-of select=\"polYr_age\" />\n                        </td>\n                        <td class=\"tdCol\">\n                           <xsl:value-of select=\"totalPremPaid\" />\n                        </td>\n                        <td class=\"tdCol\">\n                           <xsl:value-of select=\"VOP_low\" />\n                        </td>\n                        <td class=\"tdCol\">\n                           <xsl:value-of select=\"effectOfDeduct_low\" />\n                        </td>\n                        <td class=\"tdCol\">\n                           <xsl:value-of select=\"totalSV_low\" />\n                        </td>\n                        <td class=\"tdCol\">\n                           <xsl:value-of select=\"VOP_high\" />\n                        </td>\n                        <td class=\"tdCol\">\n                           <xsl:value-of select=\"effectOfDeduct_high\" />\n                        </td>\n                        <td class=\"tdCol\">\n                           <xsl:value-of select=\"totalSV_high\" />\n                        </td>\n                     </tr>\n                  </xsl:for-each>\n               </tbody>\n            </table>\n            <div class=\"pagebreak\" />\n               <br/>\n               <div class=\"b\">What do the columns in the table of deductions mean?</div>\n               <br/>\n               <table class=\"w100\">\n                  <tr>\n                     <td class=\"vtop w24\"> 1.</td>\n                     <td class=\"vtop\">\n                        <div>\"Value of Premiums Paid To-Date\" is obtained by accumulating the premiums paid to date at the Illustrated\n                           Investment Rate of Return, assuming that you were able to invest all of your premiums without deduction\n                           for the cost of insurance and without incurring any expenses.\n                        </div>\n                        <br/> \n                     </td>\n                  </tr>\n                  <tr>\n                     <td class=\"vtop\">2.</td>\n                     <td class=\"vtop\">\n                        <div>The difference between \"Value of Premiums Paid To-Date\" and \"Total Surrender Value\" represents \"Effect of\n                           Deductions To-Date\". This is the accumulated value of the deductions for the cost of insurance, distribution\n                           costs, expenses, surrender charges, expected tax payments and expected transfers to shareholders (for participating\n                           policies).\n                        </div>\n                        <br/> \n                     </td>\n                  </tr>\n               </table>\n               <div class=\"b\">Reduction In Yield</div>\n               <br/>\n               <div>\n                  This Policy Illustration shows that at age\n                  <xsl:value-of select=\"*/yieldAtAge\" />, the effect of the total deductions could amount to\n                  <xsl:value-of select=\"*/yieldValue\" />.\n               </div>\n               <br/>\n               <div>\n                  The total deductions would have the effect of reducing the Illustrated Investment Rate of Return upon surrender\n                  at age\n                  <xsl:value-of select=\"*/yieldAtAge\" />\n                  from\n                  <xsl:value-of select=\"*/yieldAtRate\" />% p.a. to\n                  <xsl:value-of select=\"*/reductYield\" />% p.a.\n               </div>\n               <br/>\n               <div>\n                  The difference between the Illustrated Investment Rate of Return of\n                  <xsl:value-of select=\"*/yieldAtRate\" />% p.a. and the rate of return you will receive (based on this Policy Illustration) is called the Reduction in\n                  Yield.\n               </div>\n            </div>\n            <div class=\"pagebreak\" id=\"page5\">\n            <table class=\"w100\">\n               <tr>\n                  <td class=\"vtop\" style=\"width:25%\">Basic Policy Plan</td>\n                  <!-- <td class=\"vtop pd4\" style=\"width:8px\">:</td> -->\n                  <td class=\"vtop\" colspan=\"4\">\n                     : \n                     <xsl:value-of select=\"*/basicPlan/name\" />\n                  </td>\n               </tr>\n               <tr>\n                  <td class=\"vtop\" style=\"width:25%\">Basic Benefit</td>\n                  <!-- <td class=\"vtop pd4\" style=\"width:8px\">:</td> -->\n                  <td class=\"vtop\" colspan=\"4\">\n                     : \n                     <xsl:value-of select=\"*/basicPlan/basicBenefit\" />\n                  </td>\n               </tr>\n               <tr>\n                  <td class=\"vtop\" style=\"width:25%\">Sum Assured</td>\n                  <!-- <td class=\"vtop pd4\" style=\"width:8px\">:</td> -->\n                  <td class=\"vtop\" colspan=\"4\">\n                     : \n                     $<xsl:value-of select=\"*/basicPlan/sumInsured\" />\n                  </td>\n               </tr>\n               <tr>\n                  <td class=\"vtop\" style=\"width:25%\">Policy Currency</td>\n                  <!-- <td class=\"vtop pd4\" style=\"width:8px\">:</td> -->\n                  <td class=\"vtop\" colspan=\"4\">\n                     : \n                     <xsl:value-of select=\"*/basicPlan/polCcy\" />\n                  </td>\n               </tr>\n               <!-- <tr>\n                  <td class=\"vtop pd4 tleft\" style=\"width:40%\">Fund Name</td>\n                  <td class=\"vtop pd4 tleft\" style=\"width:8px\">:</td>\n                  <td class=\"vtop pd4 tleft\" style=\"width:16%\">Annual\n                    <br/>Premium</td>\n                  <td class=\"vtop pd4 tleft\" style=\"width:16%\">Annual Recurring Single Premium</td>\n                  <td class=\"vtop pd4 tleft\" style=\"width:15%\">Top-Up\n                    <br/>Premium</td>\n                  <td class=\"vtop pd4\">Fund\n                    <br/>Code</td>\n                  </tr>\n                  <xsl:for-each select=\"*/cover/funds\">\n                  <tr>\n                    <td class=\"vtop hpd4\">\n                      <xsl:value-of select=\"name\" />\n                    </td>\n                    <td class=\"vtop hpd4\">:</td>\n                    <td class=\"vtop hpd4\">\n                      <xsl:value-of select=\"premium\" />\n                    </td>\n                    <td class=\"vtop hpd4\">\n                      <xsl:value-of select=\"rsp\" />\n                    </td>\n                    <td class=\"vtop hpd4\">\n                      <xsl:value-of select=\"topUp\" />\n                    </td>\n                    <td class=\"vtop hpd4\">\n                      <xsl:value-of select=\"code\" />\n                    </td>\n                  </tr>\n                  </xsl:for-each>\n                  <tr>\n                  <td class=\"vtop pd4\">Total</td>\n                  <td class=\"vtop pd4\">:</td>\n                  <td class=\"vtop pd4\">\n                    <xsl:value-of select=\"*/basicPlan/aPremium\" />\n                  </td>\n                  <td class=\"vtop pd4\">\n                    <xsl:value-of select=\"*/basicPlan/aRspTopUp\" />\n                  </td>\n                  <td class=\"vtop pd4\">\n                    <xsl:value-of select=\"*/basicPlan/spTopUp\" />\n                  </td>\n                  <td class=\"vtop pd4\"></td>\n                  </tr> -->\n            </table>\n            <div class=\"hr\" />\n               <br/>\n               <div class=\"b\">How much are you paying for distribution costs?</div>\n               <br/>\n               <div>This table shows the total costs of distribution that EAB expects to incur in relation to your policy, including\n                  the cost of any financial advice provided to you.\n               </div>\n               <br/>\n               <table style=\"width:100%;margin:auto\">\n                  <thead>\n                     <tr>\n                        <th colspan=\"3\" class=\"pd4\">\n                           <div class=\"tcenter\"></div>\n                        </th>\n                     </tr>\n                     <tr>\n                        <th colspan=\"3\" class=\"bgblack tcwhite\">TOTAL DISTRIBUTION COST</th>\n                     </tr>\n                     <tr>\n                        <th class=\"vtop\" rowspan=\"2\" style=\"width:33%\">\n                           <div style=\"text-align: center;\">End of<br/>Policy<br/>Year/Age</div>\n                        </th>\n                        <th class=\"vtop\" style=\"width:33%\">\n                           <div style=\"text-align: center;\">Total Premiums\n                              <br/>Paid To-Date\n                           </div>\n                        </th>\n                        <th class=\"vtop\">\n                           <div style=\"text-align: center;\">Total Distribution\n                              <br/>Cost To-Date\n                           </div>\n                        </th>\n                     </tr>\n                     <tr>\n                        <th>(S$)</th>\n                        <th>(S$)</th>\n                     </tr>\n                  </thead>\n                  <tbody>\n                     <xsl:for-each select=\"*/illustrateData_totalDistribCost\">\n                        <tr>\n                           <td class=\"tdCol\">\n                              <xsl:value-of select=\"polYr_age\" />\n                           </td>\n                           <td class=\"tdCol\">\n                              <xsl:value-of select=\"totalPremPaid\" />\n                           </td>\n                           <td class=\"tdCol\">\n                              <xsl:value-of select=\"totalDistribCost\" />\n                           </td>\n                        </tr>\n                     </xsl:for-each>\n                  </tbody>\n               </table>\n               <!-- <br/>\n                  <div class=\"b\">What does the last column represent?</div> -->\n               <br/>\n               <div class=\"notbreak\">\n                  <table class=\"w100\">\n                     <tr>\n                        <strong>What does the last column represent?</strong>\n                     </tr>\n                     <tr>\n                        <td colspan=\"2\"><br/></td>\n                     </tr>\n                     <tr>\n                        <td class=\"vtop w24\">1. </td>\n                        <td>\n                           <div>The Total Distribution Cost To-Date is the sum of each year's expected distribution-related costs, without\n                              interest. Such costs include cash payments in the form of commission, costs of benefits and services paid\n                              to the distribution channel.\n                           </div>\n                           <br/> \n                        </td>\n                     </tr>\n                     <tr>\n                        <td class=\"vtop w24\">2. </td>\n                        <td>\n                           <div>Please note that the Total Distribution Cost is not an additional cost to you; it has already been allowed\n                              for in calculating your premium.\n                           </div>\n                           <br/> \n                        </td>\n                     </tr>\n                     <tr>\n                        <td class=\"vtop w24\">3. </td>\n                        <td>\n                           <div>You can obtain the Total Distribution Cost of each of the supplementary benefits (if applicable) from your\n                              Financial Adviser or its representatives.\n                           </div>\n                        </td>\n                     </tr>\n                  </table>\n               </div>\n            </div>\n         </td>\n      </tr>\n   </tbody>\n</table>"
        ],
        "zh-Hant": []
    },
    "type": "pdfTemplate",
    "version": 2
}