{
    "allowBackdate": "N",
    "budgetRules": [
        "RP"
    ],
    "calcAgeMethod": "next",
    "classInd": "Y",
    "classList": [
        {
            "benefitValue": [
                {
                    "amount": 0,
                    "ccy": "SGD"
                }
            ],
            "className": {
                "en": "EAB Shield (Plan A)",
                "zh-Hant": "EAB Shield (Plan A)"
            },
            "covClass": "A",
            "default": "",
            "valueType": "sa"
        },
        {
            "benefitValue": [
                {
                    "amount": 0,
                    "ccy": "SGD"
                }
            ],
            "className": {
                "en": "EAB Shield (Plan B)",
                "zh-Hant": "EAB Shield (Plan B)"
            },
            "covClass": "B",
            "default": "N",
            "valueType": "sa"
        },
        {
            "benefitValue": [
                {
                    "amount": 0,
                    "ccy": "SGD"
                }
            ],
            "className": {
                "en": "EAB Shield (Standard Plan)",
                "zh-Hant": "EAB Shield (Standard Plan)"
            },
            "covClass": "C",
            "default": "",
            "valueType": "sa"
        }
    ],
    "classTitle": {},
    "coexist": [
        {
            "ageFr": 0,
            "ageTo": "",
            "country": "*",
            "dealerGroup": "*",
            "groupA": [
                "ASP"
            ],
            "groupB": [
                "ASG",
                "ASH"
            ],
            "shouldCoExist": "REQUIRE"
        }
    ],
    "compCode": "08",
    "covCode": "ASIM",
    "covName": {
        "en": "EAB Shield",
        "zh-Hant": "EAB Shield"
    },
    "ctyGroup": [
        "*"
    ],
    "currencies": [
        {
            "ccy": [
                "SGD"
            ],
            "country": "*"
        }
    ],
    "dealerGroup": [
        "AGENCY",
        "BROKER",
        "DIRECT",
        "SINGPOST",
        "FUSION",
        "SYNERGY"
    ],
    "dynPdfInd": "N",
    "effDate": "2017-12-11 10:47:41",
    "entryAge": [
        {
            "country": "*",
            "imaxAge": 100,
            "imaxAgeUnit": "0",
            "iminAge": 0,
            "iminAgeUnit": "0",
            "omaxAge": 99,
            "omaxAgeUnit": "nextAge",
            "ominAge": 19,
            "ominAgeUnit": "nextAge",
            "sameAsOwner": ""
        }
    ],
    "expDate": "2118-07-26 16:00:00",
    "formulas": {
        "calcQuotFunc": "function (quotation, planInfo, planDetails) {planInfo.paymentMethod = quotation.policyOptions.axaShield > quotation.policyOptions.awl ? 'CPF_CASH' : 'CPF'; planInfo.payFreq = 'A'; var covClass = planInfo.covClass; var gender = quotation.iGender; var age = quotation.iAge; if (covClass) { var planDetail = planDetails[planInfo.covCode]; var modalFactor = math.bignumber(1); var payModes = planDetail.payModes; for (var i in payModes) { if (payModes[i].mode === planInfo.payFreq) { modalFactor = math.bignumber(payModes[i].factor); break; } } var rate = math.bignumber(planDetail.rates.premRate[covClass][gender][age]); var regularPrem = math.divide(math.floor(math.multiply(math.multiply(rate, modalFactor), 100)), 100); var prem = regularPrem; if (planDetail.gstInd === 'Y') { var gstRate = math.bignumber(planDetail.gstRate); var gstAmt = math.round(math.multiply(regularPrem, gstRate), 2); prem = math.round(math.add(prem, gstAmt), 1); planInfo.tax = { yearTax: math.number(gstAmt) }; } planInfo.premium = math.number(prem); } }",
        "calcShieldSummary": "function (quotation) {var totCashPortion = math.bignumber(0);var totMedisave = math.bignumber(0);var totPremium = math.bignumber(0);var totYearCashPortion = math.bignumber(0);var totYearPrem = math.bignumber(0);if (quotation.insureds) { for (var i in quotation.insureds) { var subQuot = quotation.insureds[i]; if (subQuot.plans[0].premium) { totCashPortion = math.add(totCashPortion, subQuot.policyOptions.cashPortion, subQuot.totRiderPrem); totMedisave = math.add(totMedisave, subQuot.policyOptions.medisave); totPremium = math.add(totPremium, math.bignumber(subQuot.plans[0].premium), subQuot.totRiderPrem); totYearCashPortion = math.add(totYearCashPortion, subQuot.totYearCashPortion); totYearPrem = math.add(totYearPrem, math.bignumber(subQuot.plans[0].premium), subQuot.totRiderYearPrem); } }}quotation.totCashPortion = math.number(totCashPortion);quotation.totMedisave = math.number(totMedisave);quotation.totPremium = math.number(totPremium);quotation.totYearCashPortion = math.number(totYearCashPortion);quotation.totYearPrem = math.number(totYearPrem);quotation.premium = math.number(totPremium);}",
        "getAvailableApplicants": "function (quotation, planDetails, profiles, fnaInfo) {const pda = fnaInfo && fnaInfo.pda; const fna = fnaInfo && fnaInfo.fna; if (!pda || !fna) { return profiles; } var getSelectedNeeds = function (tid, p, pda, fna) { var dt = ''; var hasSpouse = _.get(pda, 'applicant') === 'joint' ? true : false; var sp = _.find(_.get(p, 'dependants'), d => d.relationship === 'SPO'); var sid = _.get(sp, 'cid'); if (tid === p.cid) { dt = 'owner'; } else if (hasSpouse && sid === tid) { dt = 'spouse'; } else if (_.find(_.get(pda, 'dependants') && _.get(pda, 'dependants').split(','), dCid => dCid === tid)) { dt = 'dependants'; } if (!dt) { return; } var aspects = _.split(_.get(fna, 'aspects'), ','); var result = []; for (var i in aspects) { var a = aspects[i]; var v = _.get(fna, `${a}.${dt}`); if (dt === 'dependants') { for (var _v in v) { if (v[_v] && v[_v].cid === tid) { v = v[_v]; break; } } } if (!_.get(v, 'init') && _.get(v, 'isActive')) { result.push(a); } } return result; }; const proposer = profiles[0]; let dependants = [proposer.cid]; if (pda.applicant === 'joint') { const spouse = _.find(proposer.dependants, d => d.relationship === 'SPO'); if (spouse) { dependants.push(spouse.cid); } } dependants = dependants.concat(pda.dependants.length && pda.dependants.split(',')); const needsMap = {}; _.each(dependants, (cid) => { needsMap[cid] = getSelectedNeeds(cid, proposer, pda, fna); }); return _.filter(profiles, p => needsMap[p.cid] && needsMap[p.cid].indexOf('hcProtection') > -1); }",
        "getAvailableClasses": "function (quotation, planDetails, profiles) {const classNameMap = {};const bpDetail = planDetails[quotation.baseProductCode];for (var c in bpDetail.classList) { var classItem = bpDetail.classList[c]; classNameMap[classItem.covClass] = classItem.className;}const currentDate = new Date();const classMap = {};_.each(profiles, (profile) => { var dob = new Date(profile.dob); var days = dateUtils.getAttainedAge(currentDate, dob).day; var age = dateUtils.getAgeNextBirthday(currentDate, dob); var availableClasses = []; if (days >= 15 && age <= 75) { availableClasses = ['A', 'B', 'C']; } else if (days >= 15 && age <= 99) { availableClasses = ['C']; } if (availableClasses.length) { var cid = profile.cid; classMap[cid] = []; for (var c in availableClasses) { var covClass = availableClasses[c]; classMap[cid].push({ covClass: covClass, className: classNameMap[covClass] }); } }});return classMap;}",
        "getEligibleClients": "function (quotation, planDetails, profiles, fnaInfo) {const currentDate = new Date(); return _.filter(profiles, (profile) => { if (profile.nationality !== 'N1' && profile.prStatus !== 'Y') { return false; } if (profile.cid !== quotation.pCid) { const dependant = _.find(profiles[0].dependants, d => d.cid === profile.cid); if (!dependant || ['SPO', 'SON', 'DAU', 'MOT', 'FAT', 'GFA', 'GMO'].indexOf(dependant.relationship) === -1) { return false; } } var dob = new Date(profile.dob); var days = dateUtils.getAttainedAge(currentDate, dob).day; var age = dateUtils.getAgeNextBirthday(currentDate, dob); if (days < 15 || age > 99) { return false; } return true; }); }",
        "getExtraAttachments": "function(agent, quotation, planDetails) {var ascpAB, asimAB, aspAB, asg, ash, ascpStd, asimStd, aspStd; for (var i in quotation.insureds) { var subQuot = quotation.insureds[i]; for (var p in subQuot.plans) { var plan = subQuot.plans[p]; switch (plan.covCode) { case 'ASCP': if (['A', 'B'].indexOf(plan.covClass) > -1) { ascpAB = true; } else { ascpStd = true; } break; case 'ASIM': if (['A', 'B'].indexOf(plan.covClass) > -1) { asimAB = true; } else { asimStd = true; } break; case 'ASP': if (['A', 'B'].indexOf(plan.covClass) > -1) { aspAB = true; } else { aspStd = true; } break; case 'ASG': asg = true; break; case 'ASH': ash = true; break; } } } var files = []; if (asimAB) { files.push({ covCode: 'ASIM', fileId: 'prod_summary_1' }); } if (ascpAB) { files.push({ covCode: 'ASCP', fileId: 'prod_summary_2' }); } if (aspAB) { files.push({ covCode: 'ASP', fileId: 'prod_summary_1' }); } if (asg) { files.push({ covCode: 'ASG', fileId: 'prod_summary_1' }); } if (ash) { files.push({ covCode: 'ASH', fileId: 'prod_summary_1' }); } if (asimStd) { files.push({ covCode: 'ASIM', fileId: 'prod_summary_2' }); } if (ascpStd) { files.push({ covCode: 'ASCP', fileId: 'prod_summary_2' }); } if (aspStd) { files.push({ covCode: 'ASP', fileId: 'prod_summary_2' }); } var attachments = [{ id: 'shield_product_summary', label: 'Product Summary', saveAttId: 'proposal', title: 'EAB Shield Product Summary ' + quotation.pFullName, fileName: 'EAB Shield Product Summary ' + quotation.pFullName + '.pdf', files: files }]; if (agent.channel.type !== 'AGENCY' || quotation.quickQuote) { attachments[0].hidden = true; attachments.push({ id: 'shield_product_summary_1', label: 'Product Summary', attId: 'standaloneProposal', saveAttId: 'standaloneProposal', allowSave: true, title: 'EAB Shield Product Summary ' + quotation.pFullName, fileName: 'EAB Shield Product Summary ' + quotation.pFullName + '.pdf', files: files }); } return attachments;}",
        "illustrateFunc": "",
        "polTermsFunc": "",
        "premFunc": "",
        "premTermsFunc": "",
        "prepareAttachableRider": "function(planDetail, quotation, planDetails) {var covClass = quotation.plans[0].covClass;var allowedRiders = [];if (covClass && quotation.pAge <= 99) { switch (covClass) { case 'A': case 'B': case 'C': allowedRiders = ['ASCP']; break; }}if (!planDetail.inputConfig.riderList) { planDetail.inputConfig.riderList = {};}planDetail.inputConfig.riderList = [];for (var r in planDetail.riderList) { var rider = planDetail.riderList[r]; if (allowedRiders.indexOf(rider.covCode) > -1) { var riderPlanDetail = planDetails[rider.covCode]; var covName = null; for (var c in riderPlanDetail.classList) { var classItem = riderPlanDetail.classList[c]; if (classItem.covClass === covClass) { covName = classItem.className; break; } } planDetail.inputConfig.riderList.push({ covCode: rider.covCode, covName: covName }); }}}",
        "prepareClassConfig": "",
        "preparePolicyOptions": "function (planDetail, quotation, planDetails) {var covClass = quotation.plans[0].covClass; var gender = quotation.iGender; var age = quotation.iAge; if (covClass) { var roundDown = function (bigNum, d) { var scale = math.pow(10, d); return math.divide(math.floor(math.multiply(bigNum, scale)), scale); }; var getGstAmt = function (bigNum) { return math.round(math.multiply(bigNum, planDetail.gstRate), 2); }; var medishieldLife = roundDown(math.bignumber(planDetail.rates.medishieldLifeRate[covClass][gender][age]), 2); var axaShield = roundDown(math.bignumber(planDetail.rates.axaShieldRate[covClass][gender][age]), 2); if (planDetail.gstInd === 'Y') { var medishieldLifeGst = getGstAmt(medishieldLife); medishieldLife = math.round(math.add(medishieldLife, medishieldLifeGst), 1); var axaShieldGst = getGstAmt(axaShield); axaShield = math.round(math.add(axaShield, axaShieldGst), 1); } var awl = null; var limits = planDetail.rates.cpfLimit[covClass]; for (var limKey in limits) { if (age <= Number(limKey)) { awl = math.bignumber(limits[limKey]); break; } } var cashPortion, cpfPortion; if (math.number(axaShield) <= math.number(awl)) { cashPortion = math.bignumber(0); cpfPortion = axaShield; } else { cashPortion = math.subtract(axaShield, awl); cpfPortion = awl; } var medisave = math.add(medishieldLife, cpfPortion); quotation.policyOptions.medishieldLife = math.number(medishieldLife); quotation.policyOptions.axaShield = math.number(axaShield); quotation.policyOptions.awl = math.number(awl); quotation.policyOptions.cashPortion = math.number(cashPortion); quotation.policyOptions.cpfPortion = math.number(cpfPortion); quotation.policyOptions.medisave = math.number(medisave); } planDetail.inputConfig.policyOptions = planDetail.policyOptions;}",
        "prepareSAPremConfig": "function (planDetail, quotation, planDetails) {planDetail.inputConfig.canEditPaymentMethod = false;if (quotation.policyOptions.axaShield > quotation.policyOptions.awl) { planDetail.inputConfig.paymentMethodList = [ { value: 'CPF_CASH', title: { en: 'CPF + Cash' } } ];} else { planDetail.inputConfig.paymentMethodList = [ { value: 'CPF', title: { en: 'CPF' } } ];}planDetail.inputConfig.canEditPayFreq = false;planDetail.inputConfig.payFreqList = [ { value: 'A', title: { en: 'Annual' } }];planDetail.inputConfig.canEditPremium = false;}",
        "prepareTermConfig": "",
        "saFunc": "",
        "validAfterCalcFunc": "function (quotation, planInfo, planDetail) {if (!quotation.plans || !quotation.plans[0].covClass) { return;}var totRiderPrem = math.bignumber(0);var totRiderYearPrem = math.bignumber(0);for (var p in quotation.plans) { var plan = quotation.plans[p]; if (plan.covCode !== quotation.baseProductCode) { totRiderPrem = math.add(totRiderPrem, plan.premium); totRiderYearPrem = math.add(totRiderYearPrem, plan.yearPrem); } if (plan.covClass) { var mappingIndex = planDetail.planCodeMapping.covCode.indexOf(plan.covCode); plan.planCode = planDetail.planCodeMapping[plan.covClass][mappingIndex]; }}quotation.totRiderPrem = math.number(totRiderPrem);quotation.totRiderYearPrem = math.number(totRiderYearPrem);quotation.totYearCashPortion = math.number(math.add(totRiderYearPrem, quotation.policyOptions.cashPortion));for (var c in planDetail.classList) { var classItem = planDetail.classList[c]; if (classItem.covClass === planInfo.covClass) { planInfo.covName = classItem.className; break; }}for (var p in planDetail.inputConfig.paymentMethodList) { var item = planDetail.inputConfig.paymentMethodList[p]; if (item.value === planInfo.paymentMethod) { planInfo.paymentMethodDesc = item.title.en; break; }}for (var p in planDetail.inputConfig.payFreqList) { var item = planDetail.inputConfig.payFreqList[p]; if (item.value === planInfo.payFreq) { planInfo.payFreqDesc = item.title.en; break; }}}",
        "validBeforeCalcFunc": "",
        "validQuotFunc": "",
        "willValidQuotFunc": ""
    },
    "genderInd": "*",
    "gstInd": "Y",
    "gstRate": 0.07,
    "isOccupClass": "N",
    "payModes": [
        {
            "covMonth": 12,
            "default": "Y",
            "factor": 1,
            "mode": "A",
            "operator": "M"
        },
        {
            "covMonth": 1,
            "default": "N",
            "factor": 0.0875,
            "mode": "M",
            "operator": "M"
        },
        {
            "covMonth": 3,
            "default": "N",
            "factor": 0.26,
            "mode": "Q",
            "operator": "M"
        },
        {
            "covMonth": 6,
            "default": "",
            "factor": 0.51,
            "mode": "S",
            "operator": "M"
        }
    ],
    "planCodeMapping": {
        "1": [
            "",
            "",
            "",
            "ASHC",
            ""
        ],
        "A": [
            "ASIMSA",
            "ASPA",
            "ASGC",
            "",
            "ASCPA"
        ],
        "B": [
            "ASIMSB",
            "ASPB",
            "ASGCB",
            "",
            "ASCPB"
        ],
        "C": [
            "ASIMSC",
            "ASPC",
            "",
            "",
            "ASCPC"
        ],
        "D": [
            "",
            "",
            "",
            "ASHCD",
            ""
        ],
        "covCode": [
            "ASIM",
            "ASP",
            "ASG",
            "ASH",
            "ASCP"
        ]
    },
    "planInd": "B",
    "polTermInd": "N",
    "polTermRemarkSymbol": "",
    "policyOptions": [
        {
            "calcRef": "N",
            "disable": "Y",
            "factor": 1,
            "groupID": "",
            "id": "medishieldLife",
            "mandatory": "N",
            "max": "",
            "maxLength": 1,
            "min": "",
            "subType": "currency",
            "title": {
                "en": "Medishield Life",
                "zh-Hant": "Medishield Life"
            },
            "type": "text",
            "value": ""
        },
        {
            "calcRef": "N",
            "disable": "Y",
            "factor": 1,
            "groupID": "",
            "id": "axaShield",
            "mandatory": "N",
            "max": "",
            "maxLength": 1,
            "min": "",
            "subType": "currency",
            "title": {
                "en": "EAB Shield",
                "zh-Hant": "EAB Shield"
            },
            "type": "text",
            "value": ""
        },
        {
            "calcRef": "N",
            "disable": "Y",
            "factor": 1,
            "groupID": "",
            "id": "awl",
            "mandatory": "N",
            "max": "",
            "maxLength": 1,
            "min": "",
            "subType": "currency",
            "title": {
                "en": "AWL",
                "zh-Hant": "AWL"
            },
            "type": "text",
            "value": ""
        },
        {
            "calcRef": "N",
            "disable": "Y",
            "factor": 1,
            "groupID": "",
            "id": "cashPortion",
            "mandatory": "N",
            "max": "",
            "maxLength": 1,
            "min": "",
            "subType": "currency",
            "title": {
                "en": "Cash Portion",
                "zh-Hant": "Cash Portion"
            },
            "type": "text",
            "value": ""
        }
    ],
    "premInput": [
        {
            "ccy": "SGD",
            "decimal": 2,
            "factor": 0
        }
    ],
    "premInputInd": "N",
    "premMatSameAsPolMat": "Y",
    "premPostfix": {
        "en": "(incl. Medishield Life)"
    },
    "premTermInd": "N",
    "premTermRemarkSymbol": "",
    "premTermRule": "na",
    "prodFeature": {},
    "prod_summary": 0,
    "prod_summary_1": 155912,
    "prod_summary_2": 133940,
    "productCategory": "sgResidentOnly",
    "productLine": "HP",
    "productVersion": "2.0",
    "rates": {
        "axaShieldRate": {
            "A": {
                "F": [
                    138.33,
                    138.33,
                    138.33,
                    138.33,
                    138.33,
                    138.33,
                    138.33,
                    138.33,
                    138.33,
                    138.33,
                    138.33,
                    138.33,
                    138.33,
                    138.33,
                    138.33,
                    138.33,
                    138.33,
                    138.33,
                    138.33,
                    138.33,
                    138.33,
                    161.64,
                    161.64,
                    161.64,
                    161.64,
                    161.64,
                    161.64,
                    161.64,
                    161.64,
                    161.64,
                    161.64,
                    264.5,
                    264.5,
                    264.5,
                    264.5,
                    264.5,
                    264.5,
                    264.5,
                    264.5,
                    264.5,
                    264.5,
                    452.32,
                    452.32,
                    452.32,
                    452.32,
                    452.32,
                    560.75,
                    560.75,
                    560.75,
                    560.75,
                    560.75,
                    764.47,
                    764.47,
                    764.47,
                    764.47,
                    764.47,
                    932.72,
                    932.72,
                    932.72,
                    932.72,
                    932.72,
                    1227.11,
                    1227.11,
                    1227.11,
                    1227.11,
                    1227.11,
                    1761.65,
                    1761.65,
                    1761.65,
                    1761.65,
                    1761.65,
                    2291.55,
                    2291.55,
                    2291.55,
                    2724.31,
                    2724.31,
                    3259.83,
                    3259.83,
                    3259.83,
                    3650.44,
                    3650.44,
                    4090.66,
                    4090.66,
                    4090.66,
                    4578.49,
                    4578.49,
                    5129.87,
                    5129.87,
                    5129.87,
                    5745.75,
                    5745.75,
                    6993.49,
                    6993.49,
                    6993.49,
                    7422.45,
                    7422.45,
                    8230.85,
                    8230.85,
                    8230.85,
                    9219.65
                ],
                "M": [
                    138.33,
                    138.33,
                    138.33,
                    138.33,
                    138.33,
                    138.33,
                    138.33,
                    138.33,
                    138.33,
                    138.33,
                    138.33,
                    138.33,
                    138.33,
                    138.33,
                    138.33,
                    138.33,
                    138.33,
                    138.33,
                    138.33,
                    138.33,
                    138.33,
                    161.64,
                    161.64,
                    161.64,
                    161.64,
                    161.64,
                    161.64,
                    161.64,
                    161.64,
                    161.64,
                    161.64,
                    264.5,
                    264.5,
                    264.5,
                    264.5,
                    264.5,
                    264.5,
                    264.5,
                    264.5,
                    264.5,
                    264.5,
                    452.32,
                    452.32,
                    452.32,
                    452.32,
                    452.32,
                    560.75,
                    560.75,
                    560.75,
                    560.75,
                    560.75,
                    764.47,
                    764.47,
                    764.47,
                    764.47,
                    764.47,
                    932.72,
                    932.72,
                    932.72,
                    932.72,
                    932.72,
                    1227.11,
                    1227.11,
                    1227.11,
                    1227.11,
                    1227.11,
                    1761.65,
                    1761.65,
                    1761.65,
                    1761.65,
                    1761.65,
                    2291.55,
                    2291.55,
                    2291.55,
                    2724.31,
                    2724.31,
                    3259.83,
                    3259.83,
                    3259.83,
                    3650.44,
                    3650.44,
                    4090.66,
                    4090.66,
                    4090.66,
                    4578.49,
                    4578.49,
                    5129.87,
                    5129.87,
                    5129.87,
                    5745.75,
                    5745.75,
                    6993.49,
                    6993.49,
                    6993.49,
                    7422.45,
                    7422.45,
                    8230.85,
                    8230.85,
                    8230.85,
                    9219.65
                ]
            },
            "B": {
                "F": [
                    72.93,
                    72.93,
                    72.93,
                    72.93,
                    72.93,
                    72.93,
                    72.93,
                    72.93,
                    72.93,
                    72.93,
                    72.93,
                    72.93,
                    72.93,
                    72.93,
                    72.93,
                    72.93,
                    72.93,
                    72.93,
                    72.93,
                    72.93,
                    72.93,
                    84.14,
                    84.14,
                    84.14,
                    84.14,
                    84.14,
                    84.14,
                    84.14,
                    84.14,
                    84.14,
                    84.14,
                    145.82,
                    145.82,
                    145.82,
                    145.82,
                    145.82,
                    145.82,
                    145.82,
                    145.82,
                    145.82,
                    145.82,
                    214.02,
                    214.02,
                    214.02,
                    214.02,
                    214.02,
                    291.54,
                    291.54,
                    291.54,
                    291.54,
                    291.54,
                    384.09,
                    384.09,
                    384.09,
                    384.09,
                    384.09,
                    437.4,
                    437.4,
                    437.4,
                    437.4,
                    437.4,
                    623.37,
                    623.37,
                    623.37,
                    623.37,
                    623.37,
                    885.06,
                    885.06,
                    885.06,
                    885.06,
                    885.06,
                    1194.4,
                    1194.4,
                    1194.4,
                    1457.95,
                    1457.95,
                    1632.72,
                    1632.72,
                    1632.72,
                    1828.97,
                    1828.97,
                    2049.55,
                    2049.55,
                    2049.55,
                    2293.47,
                    2293.47,
                    2569.16,
                    2569.16,
                    2569.16,
                    2876.65,
                    2876.65,
                    4154.21,
                    4154.21,
                    4154.21,
                    4154.21,
                    4154.21,
                    4155.15,
                    4155.15,
                    4155.15,
                    4526.18
                ],
                "M": [
                    72.93,
                    72.93,
                    72.93,
                    72.93,
                    72.93,
                    72.93,
                    72.93,
                    72.93,
                    72.93,
                    72.93,
                    72.93,
                    72.93,
                    72.93,
                    72.93,
                    72.93,
                    72.93,
                    72.93,
                    72.93,
                    72.93,
                    72.93,
                    72.93,
                    84.14,
                    84.14,
                    84.14,
                    84.14,
                    84.14,
                    84.14,
                    84.14,
                    84.14,
                    84.14,
                    84.14,
                    145.82,
                    145.82,
                    145.82,
                    145.82,
                    145.82,
                    145.82,
                    145.82,
                    145.82,
                    145.82,
                    145.82,
                    214.02,
                    214.02,
                    214.02,
                    214.02,
                    214.02,
                    291.54,
                    291.54,
                    291.54,
                    291.54,
                    291.54,
                    384.09,
                    384.09,
                    384.09,
                    384.09,
                    384.09,
                    437.4,
                    437.4,
                    437.4,
                    437.4,
                    437.4,
                    623.37,
                    623.37,
                    623.37,
                    623.37,
                    623.37,
                    885.06,
                    885.06,
                    885.06,
                    885.06,
                    885.06,
                    1194.4,
                    1194.4,
                    1194.4,
                    1457.95,
                    1457.95,
                    1632.72,
                    1632.72,
                    1632.72,
                    1828.97,
                    1828.97,
                    2049.55,
                    2049.55,
                    2049.55,
                    2293.47,
                    2293.47,
                    2569.16,
                    2569.16,
                    2569.16,
                    2876.65,
                    2876.65,
                    4154.21,
                    4154.21,
                    4154.21,
                    4154.21,
                    4154.21,
                    4155.15,
                    4155.15,
                    4155.15,
                    4526.18
                ]
            },
            "C": {
                "F": [
                    37.38,
                    37.38,
                    37.38,
                    37.38,
                    37.38,
                    37.38,
                    37.38,
                    37.38,
                    37.38,
                    37.38,
                    37.38,
                    37.38,
                    37.38,
                    37.38,
                    37.38,
                    37.38,
                    37.38,
                    37.38,
                    37.38,
                    37.38,
                    37.38,
                    46.73,
                    46.73,
                    46.73,
                    46.73,
                    46.73,
                    46.73,
                    46.73,
                    46.73,
                    46.73,
                    46.73,
                    57.94,
                    57.94,
                    57.94,
                    57.94,
                    57.94,
                    57.94,
                    57.94,
                    57.94,
                    57.94,
                    57.94,
                    100,
                    100,
                    100,
                    100,
                    100,
                    100,
                    100,
                    100,
                    100,
                    100,
                    132.71,
                    132.71,
                    132.71,
                    132.71,
                    132.71,
                    150.47,
                    150.47,
                    150.47,
                    150.47,
                    150.47,
                    260.75,
                    260.75,
                    260.75,
                    260.75,
                    260.75,
                    391.59,
                    391.59,
                    391.59,
                    391.59,
                    391.59,
                    610.28,
                    610.28,
                    610.28,
                    742.99,
                    742.99,
                    1035.51,
                    1035.51,
                    1035.51,
                    1107.48,
                    1107.48,
                    1142.06,
                    1142.06,
                    1142.06,
                    1283.18,
                    1283.18,
                    1442.06,
                    1442.06,
                    1442.06,
                    1628.04,
                    1628.04,
                    2389.72,
                    2389.72,
                    2389.72,
                    2610.28,
                    2610.28,
                    2735.51,
                    2735.51,
                    2735.51,
                    2984.11
                ],
                "M": [
                    37.38,
                    37.38,
                    37.38,
                    37.38,
                    37.38,
                    37.38,
                    37.38,
                    37.38,
                    37.38,
                    37.38,
                    37.38,
                    37.38,
                    37.38,
                    37.38,
                    37.38,
                    37.38,
                    37.38,
                    37.38,
                    37.38,
                    37.38,
                    37.38,
                    46.73,
                    46.73,
                    46.73,
                    46.73,
                    46.73,
                    46.73,
                    46.73,
                    46.73,
                    46.73,
                    46.73,
                    57.94,
                    57.94,
                    57.94,
                    57.94,
                    57.94,
                    57.94,
                    57.94,
                    57.94,
                    57.94,
                    57.94,
                    100,
                    100,
                    100,
                    100,
                    100,
                    100,
                    100,
                    100,
                    100,
                    100,
                    132.71,
                    132.71,
                    132.71,
                    132.71,
                    132.71,
                    150.47,
                    150.47,
                    150.47,
                    150.47,
                    150.47,
                    260.75,
                    260.75,
                    260.75,
                    260.75,
                    260.75,
                    391.59,
                    391.59,
                    391.59,
                    391.59,
                    391.59,
                    610.28,
                    610.28,
                    610.28,
                    742.99,
                    742.99,
                    1035.51,
                    1035.51,
                    1035.51,
                    1107.48,
                    1107.48,
                    1142.06,
                    1142.06,
                    1142.06,
                    1283.18,
                    1283.18,
                    1442.06,
                    1442.06,
                    1442.06,
                    1628.04,
                    1628.04,
                    2389.72,
                    2389.72,
                    2389.72,
                    2610.28,
                    2610.28,
                    2735.51,
                    2735.51,
                    2735.51,
                    2984.11
                ]
            }
        },
        "cpfLimit": {
            "A": {
                "40": 300,
                "70": 600,
                "999": 900
            },
            "B": {
                "40": 300,
                "70": 600,
                "999": 900
            },
            "C": {
                "40": 300,
                "70": 600,
                "999": 900
            }
        },
        "medishieldLifeRate": {
            "A": {
                "F": [
                    121.5,
                    121.5,
                    121.5,
                    121.5,
                    121.5,
                    121.5,
                    121.5,
                    121.5,
                    121.5,
                    121.5,
                    121.5,
                    121.5,
                    121.5,
                    121.5,
                    121.5,
                    121.5,
                    121.5,
                    121.5,
                    121.5,
                    121.5,
                    121.5,
                    182.24,
                    182.24,
                    182.24,
                    182.24,
                    182.24,
                    182.24,
                    182.24,
                    182.24,
                    182.24,
                    182.24,
                    289.72,
                    289.72,
                    289.72,
                    289.72,
                    289.72,
                    289.72,
                    289.72,
                    289.72,
                    289.72,
                    289.72,
                    406.54,
                    406.54,
                    406.54,
                    406.54,
                    406.54,
                    406.54,
                    406.54,
                    406.54,
                    406.54,
                    406.54,
                    588.79,
                    588.79,
                    588.79,
                    588.79,
                    588.79,
                    588.79,
                    588.79,
                    588.79,
                    588.79,
                    588.79,
                    705.61,
                    705.61,
                    705.61,
                    705.61,
                    705.61,
                    761.68,
                    761.68,
                    761.68,
                    761.68,
                    761.68,
                    827.1,
                    827.1,
                    827.1,
                    911.21,
                    911.21,
                    1056.07,
                    1056.07,
                    1056.07,
                    1098.13,
                    1098.13,
                    1168.22,
                    1168.22,
                    1168.22,
                    1336.45,
                    1336.45,
                    1401.87,
                    1401.87,
                    1401.87,
                    1401.87,
                    1401.87,
                    1429.91,
                    1429.91,
                    1429.91,
                    1429.91,
                    1429.91,
                    1429.91,
                    1429.91,
                    1429.91,
                    1429.91
                ],
                "M": [
                    121.5,
                    121.5,
                    121.5,
                    121.5,
                    121.5,
                    121.5,
                    121.5,
                    121.5,
                    121.5,
                    121.5,
                    121.5,
                    121.5,
                    121.5,
                    121.5,
                    121.5,
                    121.5,
                    121.5,
                    121.5,
                    121.5,
                    121.5,
                    121.5,
                    182.24,
                    182.24,
                    182.24,
                    182.24,
                    182.24,
                    182.24,
                    182.24,
                    182.24,
                    182.24,
                    182.24,
                    289.72,
                    289.72,
                    289.72,
                    289.72,
                    289.72,
                    289.72,
                    289.72,
                    289.72,
                    289.72,
                    289.72,
                    406.54,
                    406.54,
                    406.54,
                    406.54,
                    406.54,
                    406.54,
                    406.54,
                    406.54,
                    406.54,
                    406.54,
                    588.79,
                    588.79,
                    588.79,
                    588.79,
                    588.79,
                    588.79,
                    588.79,
                    588.79,
                    588.79,
                    588.79,
                    705.61,
                    705.61,
                    705.61,
                    705.61,
                    705.61,
                    761.68,
                    761.68,
                    761.68,
                    761.68,
                    761.68,
                    827.1,
                    827.1,
                    827.1,
                    911.21,
                    911.21,
                    1056.07,
                    1056.07,
                    1056.07,
                    1098.13,
                    1098.13,
                    1168.22,
                    1168.22,
                    1168.22,
                    1336.45,
                    1336.45,
                    1401.87,
                    1401.87,
                    1401.87,
                    1401.87,
                    1401.87,
                    1429.91,
                    1429.91,
                    1429.91,
                    1429.91,
                    1429.91,
                    1429.91,
                    1429.91,
                    1429.91,
                    1429.91
                ]
            },
            "B": {
                "F": [
                    121.5,
                    121.5,
                    121.5,
                    121.5,
                    121.5,
                    121.5,
                    121.5,
                    121.5,
                    121.5,
                    121.5,
                    121.5,
                    121.5,
                    121.5,
                    121.5,
                    121.5,
                    121.5,
                    121.5,
                    121.5,
                    121.5,
                    121.5,
                    121.5,
                    182.24,
                    182.24,
                    182.24,
                    182.24,
                    182.24,
                    182.24,
                    182.24,
                    182.24,
                    182.24,
                    182.24,
                    289.72,
                    289.72,
                    289.72,
                    289.72,
                    289.72,
                    289.72,
                    289.72,
                    289.72,
                    289.72,
                    289.72,
                    406.54,
                    406.54,
                    406.54,
                    406.54,
                    406.54,
                    406.54,
                    406.54,
                    406.54,
                    406.54,
                    406.54,
                    588.79,
                    588.79,
                    588.79,
                    588.79,
                    588.79,
                    588.79,
                    588.79,
                    588.79,
                    588.79,
                    588.79,
                    705.61,
                    705.61,
                    705.61,
                    705.61,
                    705.61,
                    761.68,
                    761.68,
                    761.68,
                    761.68,
                    761.68,
                    827.1,
                    827.1,
                    827.1,
                    911.21,
                    911.21,
                    1056.07,
                    1056.07,
                    1056.07,
                    1098.13,
                    1098.13,
                    1168.22,
                    1168.22,
                    1168.22,
                    1336.45,
                    1336.45,
                    1401.87,
                    1401.87,
                    1401.87,
                    1401.87,
                    1401.87,
                    1429.91,
                    1429.91,
                    1429.91,
                    1429.91,
                    1429.91,
                    1429.91,
                    1429.91,
                    1429.91,
                    1429.91
                ],
                "M": [
                    121.5,
                    121.5,
                    121.5,
                    121.5,
                    121.5,
                    121.5,
                    121.5,
                    121.5,
                    121.5,
                    121.5,
                    121.5,
                    121.5,
                    121.5,
                    121.5,
                    121.5,
                    121.5,
                    121.5,
                    121.5,
                    121.5,
                    121.5,
                    121.5,
                    182.24,
                    182.24,
                    182.24,
                    182.24,
                    182.24,
                    182.24,
                    182.24,
                    182.24,
                    182.24,
                    182.24,
                    289.72,
                    289.72,
                    289.72,
                    289.72,
                    289.72,
                    289.72,
                    289.72,
                    289.72,
                    289.72,
                    289.72,
                    406.54,
                    406.54,
                    406.54,
                    406.54,
                    406.54,
                    406.54,
                    406.54,
                    406.54,
                    406.54,
                    406.54,
                    588.79,
                    588.79,
                    588.79,
                    588.79,
                    588.79,
                    588.79,
                    588.79,
                    588.79,
                    588.79,
                    588.79,
                    705.61,
                    705.61,
                    705.61,
                    705.61,
                    705.61,
                    761.68,
                    761.68,
                    761.68,
                    761.68,
                    761.68,
                    827.1,
                    827.1,
                    827.1,
                    911.21,
                    911.21,
                    1056.07,
                    1056.07,
                    1056.07,
                    1098.13,
                    1098.13,
                    1168.22,
                    1168.22,
                    1168.22,
                    1336.45,
                    1336.45,
                    1401.87,
                    1401.87,
                    1401.87,
                    1401.87,
                    1401.87,
                    1429.91,
                    1429.91,
                    1429.91,
                    1429.91,
                    1429.91,
                    1429.91,
                    1429.91,
                    1429.91,
                    1429.91
                ]
            },
            "C": {
                "F": [
                    121.5,
                    121.5,
                    121.5,
                    121.5,
                    121.5,
                    121.5,
                    121.5,
                    121.5,
                    121.5,
                    121.5,
                    121.5,
                    121.5,
                    121.5,
                    121.5,
                    121.5,
                    121.5,
                    121.5,
                    121.5,
                    121.5,
                    121.5,
                    121.5,
                    182.24,
                    182.24,
                    182.24,
                    182.24,
                    182.24,
                    182.24,
                    182.24,
                    182.24,
                    182.24,
                    182.24,
                    289.72,
                    289.72,
                    289.72,
                    289.72,
                    289.72,
                    289.72,
                    289.72,
                    289.72,
                    289.72,
                    289.72,
                    406.54,
                    406.54,
                    406.54,
                    406.54,
                    406.54,
                    406.54,
                    406.54,
                    406.54,
                    406.54,
                    406.54,
                    588.79,
                    588.79,
                    588.79,
                    588.79,
                    588.79,
                    588.79,
                    588.79,
                    588.79,
                    588.79,
                    588.79,
                    705.61,
                    705.61,
                    705.61,
                    705.61,
                    705.61,
                    761.68,
                    761.68,
                    761.68,
                    761.68,
                    761.68,
                    827.1,
                    827.1,
                    827.1,
                    911.21,
                    911.21,
                    1056.07,
                    1056.07,
                    1056.07,
                    1098.13,
                    1098.13,
                    1168.22,
                    1168.22,
                    1168.22,
                    1336.45,
                    1336.45,
                    1401.87,
                    1401.87,
                    1401.87,
                    1401.87,
                    1401.87,
                    1429.91,
                    1429.91,
                    1429.91,
                    1429.91,
                    1429.91,
                    1429.91,
                    1429.91,
                    1429.91,
                    1429.91
                ],
                "M": [
                    121.5,
                    121.5,
                    121.5,
                    121.5,
                    121.5,
                    121.5,
                    121.5,
                    121.5,
                    121.5,
                    121.5,
                    121.5,
                    121.5,
                    121.5,
                    121.5,
                    121.5,
                    121.5,
                    121.5,
                    121.5,
                    121.5,
                    121.5,
                    121.5,
                    182.24,
                    182.24,
                    182.24,
                    182.24,
                    182.24,
                    182.24,
                    182.24,
                    182.24,
                    182.24,
                    182.24,
                    289.72,
                    289.72,
                    289.72,
                    289.72,
                    289.72,
                    289.72,
                    289.72,
                    289.72,
                    289.72,
                    289.72,
                    406.54,
                    406.54,
                    406.54,
                    406.54,
                    406.54,
                    406.54,
                    406.54,
                    406.54,
                    406.54,
                    406.54,
                    588.79,
                    588.79,
                    588.79,
                    588.79,
                    588.79,
                    588.79,
                    588.79,
                    588.79,
                    588.79,
                    588.79,
                    705.61,
                    705.61,
                    705.61,
                    705.61,
                    705.61,
                    761.68,
                    761.68,
                    761.68,
                    761.68,
                    761.68,
                    827.1,
                    827.1,
                    827.1,
                    911.21,
                    911.21,
                    1056.07,
                    1056.07,
                    1056.07,
                    1098.13,
                    1098.13,
                    1168.22,
                    1168.22,
                    1168.22,
                    1336.45,
                    1336.45,
                    1401.87,
                    1401.87,
                    1401.87,
                    1401.87,
                    1401.87,
                    1429.91,
                    1429.91,
                    1429.91,
                    1429.91,
                    1429.91,
                    1429.91,
                    1429.91,
                    1429.91,
                    1429.91
                ]
            }
        },
        "premRate": {
            "A": {
                "F": [
                    259.83,
                    259.83,
                    259.83,
                    259.83,
                    259.83,
                    259.83,
                    259.83,
                    259.83,
                    259.83,
                    259.83,
                    259.83,
                    259.83,
                    259.83,
                    259.83,
                    259.83,
                    259.83,
                    259.83,
                    259.83,
                    259.83,
                    259.83,
                    259.83,
                    343.88,
                    343.88,
                    343.88,
                    343.88,
                    343.88,
                    343.88,
                    343.88,
                    343.88,
                    343.88,
                    343.88,
                    554.22,
                    554.22,
                    554.22,
                    554.22,
                    554.22,
                    554.22,
                    554.22,
                    554.22,
                    554.22,
                    554.22,
                    858.86,
                    858.86,
                    858.86,
                    858.86,
                    858.86,
                    967.29,
                    967.29,
                    967.29,
                    967.29,
                    967.29,
                    1353.26,
                    1353.26,
                    1353.26,
                    1353.26,
                    1353.26,
                    1521.51,
                    1521.51,
                    1521.51,
                    1521.51,
                    1521.51,
                    1932.72,
                    1932.72,
                    1932.72,
                    1932.72,
                    1932.72,
                    2523.33,
                    2523.33,
                    2523.33,
                    2523.33,
                    2523.33,
                    3118.65,
                    3118.65,
                    3118.65,
                    3635.52,
                    3635.52,
                    4315.9,
                    4315.9,
                    4315.9,
                    4748.57,
                    4748.57,
                    5258.88,
                    5258.88,
                    5258.88,
                    5914.94,
                    5914.94,
                    6531.74,
                    6531.74,
                    6531.74,
                    7147.62,
                    7147.62,
                    8423.4,
                    8423.4,
                    8423.4,
                    8852.36,
                    8852.36,
                    9660.76,
                    9660.76,
                    9660.76,
                    10649.56
                ],
                "M": [
                    259.83,
                    259.83,
                    259.83,
                    259.83,
                    259.83,
                    259.83,
                    259.83,
                    259.83,
                    259.83,
                    259.83,
                    259.83,
                    259.83,
                    259.83,
                    259.83,
                    259.83,
                    259.83,
                    259.83,
                    259.83,
                    259.83,
                    259.83,
                    259.83,
                    343.88,
                    343.88,
                    343.88,
                    343.88,
                    343.88,
                    343.88,
                    343.88,
                    343.88,
                    343.88,
                    343.88,
                    554.22,
                    554.22,
                    554.22,
                    554.22,
                    554.22,
                    554.22,
                    554.22,
                    554.22,
                    554.22,
                    554.22,
                    858.86,
                    858.86,
                    858.86,
                    858.86,
                    858.86,
                    967.29,
                    967.29,
                    967.29,
                    967.29,
                    967.29,
                    1353.26,
                    1353.26,
                    1353.26,
                    1353.26,
                    1353.26,
                    1521.51,
                    1521.51,
                    1521.51,
                    1521.51,
                    1521.51,
                    1932.72,
                    1932.72,
                    1932.72,
                    1932.72,
                    1932.72,
                    2523.33,
                    2523.33,
                    2523.33,
                    2523.33,
                    2523.33,
                    3118.65,
                    3118.65,
                    3118.65,
                    3635.52,
                    3635.52,
                    4315.9,
                    4315.9,
                    4315.9,
                    4748.57,
                    4748.57,
                    5258.88,
                    5258.88,
                    5258.88,
                    5914.94,
                    5914.94,
                    6531.74,
                    6531.74,
                    6531.74,
                    7147.62,
                    7147.62,
                    8423.4,
                    8423.4,
                    8423.4,
                    8852.36,
                    8852.36,
                    9660.76,
                    9660.76,
                    9660.76,
                    10649.56
                ]
            },
            "B": {
                "F": [
                    194.43,
                    194.43,
                    194.43,
                    194.43,
                    194.43,
                    194.43,
                    194.43,
                    194.43,
                    194.43,
                    194.43,
                    194.43,
                    194.43,
                    194.43,
                    194.43,
                    194.43,
                    194.43,
                    194.43,
                    194.43,
                    194.43,
                    194.43,
                    194.43,
                    266.38,
                    266.38,
                    266.38,
                    266.38,
                    266.38,
                    266.38,
                    266.38,
                    266.38,
                    266.38,
                    266.38,
                    435.54,
                    435.54,
                    435.54,
                    435.54,
                    435.54,
                    435.54,
                    435.54,
                    435.54,
                    435.54,
                    435.54,
                    620.56,
                    620.56,
                    620.56,
                    620.56,
                    620.56,
                    698.08,
                    698.08,
                    698.08,
                    698.08,
                    698.08,
                    972.88,
                    972.88,
                    972.88,
                    972.88,
                    972.88,
                    1026.19,
                    1026.19,
                    1026.19,
                    1026.19,
                    1026.19,
                    1328.98,
                    1328.98,
                    1328.98,
                    1328.98,
                    1328.98,
                    1646.74,
                    1646.74,
                    1646.74,
                    1646.74,
                    1646.74,
                    2021.5,
                    2021.5,
                    2021.5,
                    2369.16,
                    2369.16,
                    2688.79,
                    2688.79,
                    2688.79,
                    2927.1,
                    2927.1,
                    3217.77,
                    3217.77,
                    3217.77,
                    3629.92,
                    3629.92,
                    3971.03,
                    3971.03,
                    3971.03,
                    4278.52,
                    4278.52,
                    5584.12,
                    5584.12,
                    5584.12,
                    5584.12,
                    5584.12,
                    5585.06,
                    5585.06,
                    5585.06,
                    5956.09
                ],
                "M": [
                    194.43,
                    194.43,
                    194.43,
                    194.43,
                    194.43,
                    194.43,
                    194.43,
                    194.43,
                    194.43,
                    194.43,
                    194.43,
                    194.43,
                    194.43,
                    194.43,
                    194.43,
                    194.43,
                    194.43,
                    194.43,
                    194.43,
                    194.43,
                    194.43,
                    266.38,
                    266.38,
                    266.38,
                    266.38,
                    266.38,
                    266.38,
                    266.38,
                    266.38,
                    266.38,
                    266.38,
                    435.54,
                    435.54,
                    435.54,
                    435.54,
                    435.54,
                    435.54,
                    435.54,
                    435.54,
                    435.54,
                    435.54,
                    620.56,
                    620.56,
                    620.56,
                    620.56,
                    620.56,
                    698.08,
                    698.08,
                    698.08,
                    698.08,
                    698.08,
                    972.88,
                    972.88,
                    972.88,
                    972.88,
                    972.88,
                    1026.19,
                    1026.19,
                    1026.19,
                    1026.19,
                    1026.19,
                    1328.98,
                    1328.98,
                    1328.98,
                    1328.98,
                    1328.98,
                    1646.74,
                    1646.74,
                    1646.74,
                    1646.74,
                    1646.74,
                    2021.5,
                    2021.5,
                    2021.5,
                    2369.16,
                    2369.16,
                    2688.79,
                    2688.79,
                    2688.79,
                    2927.1,
                    2927.1,
                    3217.77,
                    3217.77,
                    3217.77,
                    3629.92,
                    3629.92,
                    3971.03,
                    3971.03,
                    3971.03,
                    4278.52,
                    4278.52,
                    5584.12,
                    5584.12,
                    5584.12,
                    5584.12,
                    5584.12,
                    5585.06,
                    5585.06,
                    5585.06,
                    5956.09
                ]
            },
            "C": {
                "F": [
                    158.88,
                    158.88,
                    158.88,
                    158.88,
                    158.88,
                    158.88,
                    158.88,
                    158.88,
                    158.88,
                    158.88,
                    158.88,
                    158.88,
                    158.88,
                    158.88,
                    158.88,
                    158.88,
                    158.88,
                    158.88,
                    158.88,
                    158.88,
                    158.88,
                    228.97,
                    228.97,
                    228.97,
                    228.97,
                    228.97,
                    228.97,
                    228.97,
                    228.97,
                    228.97,
                    228.97,
                    347.66,
                    347.66,
                    347.66,
                    347.66,
                    347.66,
                    347.66,
                    347.66,
                    347.66,
                    347.66,
                    347.66,
                    506.54,
                    506.54,
                    506.54,
                    506.54,
                    506.54,
                    506.54,
                    506.54,
                    506.54,
                    506.54,
                    506.54,
                    721.5,
                    721.5,
                    721.5,
                    721.5,
                    721.5,
                    739.26,
                    739.26,
                    739.26,
                    739.26,
                    739.26,
                    966.36,
                    966.36,
                    966.36,
                    966.36,
                    966.36,
                    1153.27,
                    1153.27,
                    1153.27,
                    1153.27,
                    1153.27,
                    1437.38,
                    1437.38,
                    1437.38,
                    1654.2,
                    1654.2,
                    2091.58,
                    2091.58,
                    2091.58,
                    2205.61,
                    2205.61,
                    2310.28,
                    2310.28,
                    2310.28,
                    2619.63,
                    2619.63,
                    2843.93,
                    2843.93,
                    2843.93,
                    3029.91,
                    3029.91,
                    3819.63,
                    3819.63,
                    3819.63,
                    4040.19,
                    4040.19,
                    4165.42,
                    4165.42,
                    4165.42,
                    4414.02
                ],
                "M": [
                    158.88,
                    158.88,
                    158.88,
                    158.88,
                    158.88,
                    158.88,
                    158.88,
                    158.88,
                    158.88,
                    158.88,
                    158.88,
                    158.88,
                    158.88,
                    158.88,
                    158.88,
                    158.88,
                    158.88,
                    158.88,
                    158.88,
                    158.88,
                    158.88,
                    228.97,
                    228.97,
                    228.97,
                    228.97,
                    228.97,
                    228.97,
                    228.97,
                    228.97,
                    228.97,
                    228.97,
                    347.66,
                    347.66,
                    347.66,
                    347.66,
                    347.66,
                    347.66,
                    347.66,
                    347.66,
                    347.66,
                    347.66,
                    506.54,
                    506.54,
                    506.54,
                    506.54,
                    506.54,
                    506.54,
                    506.54,
                    506.54,
                    506.54,
                    506.54,
                    721.5,
                    721.5,
                    721.5,
                    721.5,
                    721.5,
                    739.26,
                    739.26,
                    739.26,
                    739.26,
                    739.26,
                    966.36,
                    966.36,
                    966.36,
                    966.36,
                    966.36,
                    1153.27,
                    1153.27,
                    1153.27,
                    1153.27,
                    1153.27,
                    1437.38,
                    1437.38,
                    1437.38,
                    1654.2,
                    1654.2,
                    2091.58,
                    2091.58,
                    2091.58,
                    2205.61,
                    2205.61,
                    2310.28,
                    2310.28,
                    2310.28,
                    2619.63,
                    2619.63,
                    2843.93,
                    2843.93,
                    2843.93,
                    3029.91,
                    3029.91,
                    3819.63,
                    3819.63,
                    3819.63,
                    4040.19,
                    4040.19,
                    4165.42,
                    4165.42,
                    4165.42,
                    4414.02
                ]
            }
        }
    },
    "releaseDate": "2019-03-11 03:44:38",
    "remarks": {
        "en": "",
        "zh-Hant": ""
    },
    "reportTemplate": [],
    "riderList": [
        {
            "condition": [
                {
                    "autoAttach": "",
                    "compulsory": "",
                    "country": "*",
                    "dealerGroup": "*",
                    "endAge": 100,
                    "saRate": "",
                    "saRule": "na",
                    "staAge": 0
                }
            ],
            "covCode": "ASCP"
        }
    ],
    "smokeInd": "*",
    "status": "A",
    "thumbnail3": 285838,
    "type": "product",
    "version": 4,
    "wholeLifeAge": "",
    "wholeLifeInd": "Y"
}