{
    "allowBackdate": "N",
    "budgetRules": [
        "SP"
    ],
    "calcAgeMethod": "nearest",
    "classInd": "N",
    "coexist": [],
    "compCode": "08",
    "covCode": "PNP2",
    "covName": {
        "en": "Family Advantage",
        "zh-Hant": "SavvySaver"
    },
    "ctyGroup": [
        "R2"
    ],
    "currencies": [
        {
            "ccy": [
                "SGD"
            ],
            "country": "R2"
        }
    ],
    "dealerGroup": [
        "AGENCY",
        "BROKER",
        "FUSION",
        "SYNERGY",
        "DIRECT",
        "SINGPOST"
    ],
    "dynPdfInd": "N",
    "effDate": "2015-09-28 16:00:00",
    "entryAge": [
        {
            "country": "R2",
            "imaxAge": 45,
            "imaxAgeUnit": "nearestAge",
            "iminAge": 18,
            "iminAgeUnit": "year",
            "omaxAge": 70,
            "omaxAgeUnit": "nearestAge",
            "ominAge": 16,
            "ominAgeUnit": "year",
            "sameAsOwner": "N"
        }
    ],
    "expDate": "2118-06-29 16:00:00",
    "formulas": {
        "calcQuotFunc": "function(quotation, planInfo, planDetails) {var policyTerm = Number.parseInt(planInfo.policyTerm); var i = 0; if(policyTerm == 3){ i = 0; }else if(policyTerm == 6){ i = 1; } var premium = planDetails[planInfo.covCode].rates.premRate[quotation.iAge][i]; var ivfOptMultiplier = 1; if(quotation.policyOptions.IVF_OPT == \"Y\"){ ivfOptMultiplier = 2 } if(quotation.policyOptions.IVF_OPT == \"Y\" || quotation.policyOptions.IVF_OPT == \"N\" ){ planInfo.premium = premium * ivfOptMultiplier; planInfo.yearPrem = planInfo.premium; quotation.totYearPrem = planInfo.premium; quotation.premium = planInfo.premium; } planInfo.noApplication = true; planInfo.noApplicationMsg = \"Under the Family Advantage package, please proceed with paper submission together with the selected plans*.<br/><br/><b>Selected plans:</b><br/>1) EAB Early Saver Plus<br/>2) Savvy Saver<br/>3) EAB Retire Happy Plus<br/>4) EAB Retire Treasure(II)<br/>5) EAB Life MultiProtect<br/>6) EAB Life Treasure <br/>7) Term Protector/ Term Protector Prime <br/>8) Early Stage CritiCare<br/>9) Decreasing Term Assurance<br/>10) Pulsar <br/>11) EAB Wealth Treasure<br/>12) INSPIRE FlexiProtector<br/>13) INSPIRE FlexiSaver \"; planInfo.hasTitle = \"Warning\";}",
        "getCOMM_TTL": "function (quotation, planDetail, planInfo) {var rateKey; switch (quotation.dealerGroup) { case 'SYNERGY': rateKey = 'AGENCY'; break; case 'FUSION': rateKey = 'BROKER'; break; default: rateKey = quotation.dealerGroup; } var BasicCommTable = planInfo.rates.BasicComm[rateKey]; var BasicComm = 0; if (BasicCommTable) { var maxTerm = 0; var lookupYr = Number.parseInt(planDetail.policyTerm); _.each(BasicCommTable, (rates, key) => { var rateTerm = Number(key); if (lookupYr >= rateTerm && rateTerm > maxTerm) { BasicComm = rates; maxTerm = rateTerm; } }); } var OverridesTable = planInfo.rates.Overrides[rateKey]; var Overrides = 0; if (OverridesTable) { var maxTerm = 0; var lookupYr = Number.parseInt(planDetail.policyTerm); _.each(OverridesTable, (rates, key) => { var rateTerm = Number(key); if (lookupYr >= rateTerm && rateTerm > maxTerm) { Overrides = rates; maxTerm = rateTerm; } }); } var MktAllowTable = planInfo.rates.MktAllow[rateKey]; var MktAllow = 0; if (MktAllowTable) { var maxTerm = 0; var lookupYr = Number.parseInt(planDetail.policyTerm); _.each(MktAllowTable, (rates, key) => { var rateTerm = Number(key); if (lookupYr >= rateTerm && rateTerm > maxTerm) { MktAllow = rates; maxTerm = rateTerm; } }); } var TDCLoading = 0.18; var GST = 0.07; var commRates = BasicComm * (1 + Overrides + MktAllow) * (1 + TDCLoading); if(rateKey == \"BROKER\"){ commRates = commRates * (1 + GST); } return commRates; }",
        "illustrateFunc": "function(quotation, planInfo, planDetails, extraPara) {var roundDown = function (value, digit) { var scale = math.pow(10, digit); return math.divide(math.floor(math.multiply(value, scale)), scale);};var trunc = function (value, position) { var sign = value < 0 ? -1 : 1; if (!position) position = 0; var scale = math.pow(10, position); return math.multiply(sign, Number(math.divide(math.floor(math.multiply(math.abs(value), scale)), scale)));};var numberTrunc = function (value, digit) { value = value.toString(); if (value.indexOf('.') === -1) { return Number.parseInt(value); } else { value = value.substr(0, value.indexOf('.') + digit + 1); return Number.parseFloat(value); }}; var paddingZeroRight = function (value) { value = value.toString(); if (value.indexOf('.') > -1) { var decimal = value.split('.'); if (decimal[1].length === 1) { decimal[1] = decimal[1] + '0'; return decimal[0] + '.' + decimal[1]; } else { return value; } } else { return value + '.00'; }};var planDetail = planDetails[planInfo.covCode];var policyTerm = Number.parseInt(planInfo.policyTerm);var illustrations = {};illustrations.benefitsSa = [];if(planInfo.covCode == \"PNP\"){ illustrations.packagedPlanName = \"Mum’s Advantage\";}else if(planInfo.covCode == \"PNPP\"){ illustrations.packagedPlanName = \"Mum’s Advantage Plus\";}else if(planInfo.covCode == \"PNP2\"){ illustrations.packagedPlanName = \"Family Advantage\";}else if(planInfo.covCode == \"PNPP2\"){ illustrations.packagedPlanName = \"Family Advantage Plus\";}var benefitsSATable = planDetails[planInfo.covCode].rates.benefitsSA;var benefitsSATableIndex = 0;if(policyTerm == 3){ benefitsSATableIndex = 1;}else if(policyTerm == 6){ benefitsSATableIndex = 2;}for(var i=1; i<=5; i++){ illustrations.benefitsSa.push({ benefitsName: benefitsSATable[i][0], benefitsSA: benefitsSATable[i][benefitsSATableIndex] });}illustrations.tdc = [];var commRates = runFunc(planDetail.formulas.getCOMM_TTL, quotation, planInfo, planDetail);var totalBasicPremium = math.multiply(planInfo.yearPrem, commRates);for(var i=1; i<=policyTerm; i++){ illustrations.tdc.push({ policyYearAge: i, distributionCost: getCurrency(totalBasicPremium, '', 0) });}illustrations.Basic_Total_Distribution = getCurrency(totalBasicPremium, ' ', 0);illustrations.totalBasicTDC_Premium = paddingZeroRight(math.number(numberTrunc(math.multiply(math.divide(totalBasicPremium, planInfo.premium), 100),2)));illustrations.baseProductNamePDF = quotation.baseProductName.en;if(planInfo.covCode == \"PNP\"){ quotation.baseProductName.en = \"Mum’s Advantage\";}else if(planInfo.covCode == \"PNPP\"){ quotation.baseProductName.en = \"Mum’s Advantage Plus\";}else if(planInfo.covCode == \"PNP2\"){ quotation.baseProductName.en = \"Family Advantage\";}else if(planInfo.covCode == \"PNPP2\"){ quotation.baseProductName.en = \"Family Advantage Plus\";}return illustrations;}",
        "polTermsFunc": "function(planDetail, quotation) {var options = []; options.push({ value: \"3\", title: '3 Years', default: true }); options.push({ value: \"6\", title: '6 Years' }); return options;}",
        "premFunc": "",
        "premTermsFunc": "function(planDetail, quotation) {return [{ value: 1, title: 'Single Premium', default: true }];}",
        "prepareAttachableRider": "",
        "prepareClassConfig": "",
        "preparePolicyOptions": "",
        "prepareSAPremConfig": "",
        "prepareTermConfig": "",
        "saFunc": "",
        "validAfterCalcFunc": "function(quotation, planInfo, planDetail) {quotValid.validateMandatoryFields(quotation, planInfo, planDetail);var planCodeMap = planDetail.planCodeMapping; if (planInfo.policyTerm) { var idx = planCodeMap && planCodeMap.policyTerm ? planCodeMap.policyTerm.indexOf(planInfo.policyTerm) : -1; if (idx >= 0){ planInfo.planCode = planCodeMap.planCode[idx]; }} if(quotation.policyOptions.IVF_OPT == \"Y\"){ planInfo.planCode = planInfo.planCode + \"B\";}}",
        "validBeforeCalcFunc": "",
        "validQuotFunc": "",
        "willValidQuotFunc": "function(quotation, planInfo, planDetails) {if(planInfo.covCode == \"PNP\"){ quotation.baseProductName.en = \"MumCare\";}else if(planInfo.covCode == \"PNPP\"){ quotation.baseProductName.en = \"MumCare Plus\";}else if(planInfo.covCode == \"PNP2\"){ quotation.baseProductName.en = \"MumCare\";}else if(planInfo.covCode == \"PNPP2\"){ quotation.baseProductName.en = \"MumCare Plus\";}}"
    },
    "fundInd": "N",
    "genderInd": "F",
    "gstInd": "N",
    "illustrationColumns": [],
    "isPolTermHide": "N",
    "isPremTermHide": "N",
    "occupClassType": "na",
    "othSaInd": "N",
    "payModes": [
        {
            "covMonth": 12,
            "default": "Y",
            "factor": 1,
            "mode": "L",
            "operator": "D"
        }
    ],
    "planCodeMapping": {
        "planCode": [
            "03PNP2",
            "06PNP2"
        ],
        "policyTerm": [
            "3",
            "6"
        ]
    },
    "planInd": "B",
    "polTermInd": "N",
    "polTermRemarkSymbol": "",
    "policyOptions": [
        {
            "disable": "N",
            "groupID": "",
            "id": "IVF_OPT",
            "mandatory": "Y",
            "options": [
                {
                    "title": {
                        "en": "Yes"
                    },
                    "value": "Y"
                },
                {
                    "title": {
                        "en": "No"
                    },
                    "value": "N"
                }
            ],
            "title": {
                "en": "IVF Option"
            },
            "type": "picker",
            "value": ""
        },
        {
            "LeftAlignedPickerFieldTitle": "N",
            "disable": "N",
            "groupID": "",
            "id": "NUM_FOETUS",
            "mandatory": "Y",
            "options": [
                {
                    "title": {
                        "en": "1"
                    },
                    "value": "1"
                },
                {
                    "title": {
                        "en": "2"
                    },
                    "value": "2"
                },
                {
                    "title": {
                        "en": "3 or More"
                    },
                    "value": "3"
                }
            ],
            "title": {
                "en": "No. of Foetus in Current Pregnancy"
            },
            "type": "picker",
            "value": ""
        },
        {
            "disable": "N",
            "groupID": "InitMsg",
            "id": "initMsg",
            "mandatory": "N",
            "popupMsgValue": "<b>Under the Family Advantage Package, <u>please proceed with paper submission only</u>.</b><br/>Please note that individual MumCare / MumCare Plus Policy will not be issued if it is not submitted with any of the listed Basic Plans below:<br/><br/>1) EAB Early Saver Plus<br/>2) Savvy Saver<br/>3) EAB Retire Happy Plus<br/>4) EAB Retire Treasure(II)<br/>5) EAB Life MultiProtect<br/>6) EAB Life Treasure <br/>7) Term Protector/ Term Protector Prime <br/>8) Early Stage CritiCare<br/>9) Decreasing Term Assurance<br/>10) Pulsar <br/>11) EAB Wealth Treasure<br/>12) INSPIRE FlexiProtector<br/>13) INSPIRE FlexiSaver <br/><br/><b>Steps to proceed:</b><br/>Step 1: Generate PI for MumCare / MumCare Plus<br/>Step 2: Generate a separate PI for your choice of the Basic Plans listed above.<br/>Step 3: Please print the generated PIs and proceed with paper submission.",
            "subGroupID": "",
            "title": {
                "en": "Warning"
            },
            "type": "popupMsg",
            "widthInPercentage": ""
        },
        {
            "disable": "N",
            "groupID": "",
            "id": "staticNote",
            "mandatory": "N",
            "note": "The expectant Mother must be between 16-36 weeks of pregnancy to be eligible for MumCare / MumCare Plus under Family Advantage / Family Advantage Plus respectively. The application must be incepted by the 36th week of pregnancy.",
            "title": {
                "en": "staticNote"
            },
            "type": "note"
        }
    ],
    "premInput": [
        {
            "ccy": "SGD",
            "decimal": 2,
            "factor": 0
        }
    ],
    "premInputInd": "N",
    "premMatSameAsPolMat": "N",
    "premMaturities": [],
    "premPostfix": {},
    "premTermInd": "N",
    "premTermRemarkSymbol": "",
    "premTermRule": "0",
    "premType": "L",
    "prodFeature": {
        "en": "productHidden"
    },
    "prod_summary": 345540,
    "productCategory": "cv",
    "productLine": "WLE",
    "productVersion": "2.0",
    "projection": [],
    "rates": {
        "BasicComm": {
            "AGENCY": {
                "3": 0,
                "6": 0.05
            },
            "BROKER": {
                "3": 0,
                "6": 0.06
            },
            "DIRECT": {
                "3": 0,
                "6": 0.02
            },
            "SINGPOST": {
                "3": 0,
                "6": 0.0645
            }
        },
        "COMM_TTL": {
            "AGENCY": {
                "3": 0,
                "6": 0.0942
            },
            "BROKER": {
                "3": 0,
                "6": 0.0833
            },
            "DIRECT": {
                "3": 0,
                "6": 0.0254
            },
            "SINGPOST": {
                "3": 0,
                "6": 0.0761
            }
        },
        "MktAllow": {
            "AGENCY": {
                "3": 0,
                "6": 0
            },
            "BROKER": {
                "3": 0,
                "6": 0.1
            },
            "DIRECT": {
                "3": 0,
                "6": 0
            },
            "SINGPOST": {
                "3": 0,
                "6": 0
            }
        },
        "Overrides": {
            "AGENCY": {
                "3": 0,
                "6": 0.597
            },
            "BROKER": {
                "3": 0,
                "6": 0
            },
            "DIRECT": {
                "3": 0,
                "6": 0.075
            },
            "SINGPOST": {
                "3": 0,
                "6": 0
            }
        },
        "benefitsSA": {
            "1": [
                "Death Benefit for Mother",
                5000,
                15000
            ],
            "2": [
                "Pregnancy Complications",
                5000,
                12000
            ],
            "3": [
                "Hospital Care Benefit for Mother",
                "100 per day",
                "200 per day"
            ],
            "4": [
                "Congenital Illnesses Benefit for Child",
                5000,
                12000
            ],
            "5": [
                "Hospital Care Benefit for Child",
                "100 per day",
                "200 per day"
            ],
            "": [
                "Benefits",
                "3 Years",
                "6 Years"
            ]
        },
        "premRate": {
            "18": [
                333.9,
                1088.85
            ],
            "19": [
                333.9,
                1088.85
            ],
            "20": [
                333.9,
                1088.85
            ],
            "21": [
                333.9,
                1088.85
            ],
            "22": [
                333.9,
                1088.85
            ],
            "23": [
                333.9,
                1088.85
            ],
            "24": [
                333.9,
                1088.85
            ],
            "25": [
                333.9,
                1088.85
            ],
            "26": [
                333.9,
                1088.85
            ],
            "27": [
                333.9,
                1088.85
            ],
            "28": [
                333.9,
                1088.85
            ],
            "29": [
                333.9,
                1088.85
            ],
            "30": [
                333.9,
                1088.85
            ],
            "31": [
                339.2,
                1125.45
            ],
            "32": [
                339.2,
                1125.45
            ],
            "33": [
                339.2,
                1125.45
            ],
            "34": [
                360.4,
                1189.5
            ],
            "35": [
                381.6,
                1262.7
            ],
            "36": [
                408.1,
                1335.9
            ],
            "37": [
                413.4,
                1354.2
            ],
            "38": [
                455.8,
                1491.45
            ],
            "39": [
                492.9,
                1555.5
            ],
            "40": [
                514.1,
                1647
            ],
            "41": [
                556.5,
                1756.8
            ],
            "42": [
                593.6,
                1866.6
            ],
            "43": [
                657.2,
                2049.6
            ],
            "44": [
                736.7,
                2287.5
            ],
            "45": [
                821.5,
                2543.7
            ]
        }
    },
    "releaseDate": "2019-03-13 04:09:14",
    "remarks": {
        "en": ""
    },
    "reportTemplate": [
        {
            "covCode": "0",
            "desc": "",
            "pdfCode": "PNP_COVER_PAGE_1",
            "resetPaging": "N",
            "seq": 100
        },
        {
            "covCode": "0",
            "desc": "",
            "pdfCode": "PNP_COVER_PAGE_2",
            "resetPaging": "N",
            "seq": 200
        },
        {
            "covCode": "0",
            "desc": "",
            "pdfCode": "PNP_MPI_1",
            "resetPaging": "Y",
            "seq": 300
        },
        {
            "covCode": "0",
            "desc": "",
            "pdfCode": "PNP2_MPI_2",
            "resetPaging": "N",
            "seq": 400
        },
        {
            "covCode": "0",
            "desc": "",
            "pdfCode": "PNP2_Acknowledgement",
            "resetPaging": "N"
        }
    ],
    "riderList": [],
    "saInput": [
        {
            "ccy": "SGD",
            "decimal": 2,
            "factor": 1,
            "noOfDigit": ""
        }
    ],
    "saInputInd": "N",
    "saPostfix": {},
    "saScale": "",
    "saViewInd": "N",
    "smokeInd": "*",
    "status": "A",
    "supportIllustration": "N",
    "thumbnail3": 350454,
    "type": "product",
    "version": 2,
    "wholeLifeAge": 0,
    "wholeLifeInd": "Y"
}